t0.vcd
$date
	Mon Dec  5 20:29:24 2016
$end
$version
	Icarus Verilog
$end
$timescale
	1ps
$end
$scope module main $end
$var wire 1 ! clk $end
$var wire 1 " d_global_predictor $end
$var wire 1 # d_halt $end
$var wire 16 $ d_ii [15:0] $end
$var wire 1 % d_is_jump $end
$var wire 1 & d_is_mem $end
$var wire 1 ' d_is_st $end
$var wire 1 ( d_is_x_jmp $end
$var wire 16 ) d_jjj [15:0] $end
$var wire 1 * d_mem_stall $end
$var wire 4 + d_ra [3:0] $end
$var wire 4 , d_rb [3:0] $end
$var wire 4 - d_rt [3:0] $end
$var wire 16 . d_s [15:0] $end
$var wire 1 / d_stall $end
$var wire 1 0 d_uses_ra $end
$var wire 1 1 d_uses_rb $end
$var wire 1 2 d_uses_rt $end
$var wire 1 3 d_v $end
$var wire 1 4 d_valid_inst $end
$var wire 1 5 f_stall $end
$var wire 1 6 f_v $end
$var wire 1 7 f_valid_inst $end
$var wire 16 8 inst [15:0] $end
$var wire 16 9 l0_ii [15:0] $end
$var wire 1 : l0_is_st $end
$var wire 16 ; l0_s [15:0] $end
$var wire 1 < l0_v $end
$var wire 1 = l0_valid_inst $end
$var wire 16 > l1_ii [15:0] $end
$var wire 1 ? l1_is_st $end
$var wire 16 @ l1_s [15:0] $end
$var wire 1 A l1_v $end
$var wire 1 B l1_valid_inst $end
$var wire 16 C memData [15:0] $end
$var wire 16 D memIn [15:0] $end
$var wire 1 E pc_mem_stall $end
$var wire 16 F r0_ii [15:0] $end
$var wire 1 G r0_is_st $end
$var wire 4 H r0_ra [3:0] $end
$var wire 4 I r0_rb [3:0] $end
$var wire 4 J r0_rt [3:0] $end
$var wire 16 K r0_s [15:0] $end
$var wire 1 L r0_v $end
$var wire 1 M r0_valid_inst $end
$var wire 16 N r1_ii [15:0] $end
$var wire 1 O r1_is_st $end
$var wire 4 P r1_ra [3:0] $end
$var wire 4 Q r1_rb [3:0] $end
$var wire 4 R r1_rt [3:0] $end
$var wire 16 S r1_s [15:0] $end
$var wire 1 T r1_v $end
$var wire 1 U r1_valid_inst $end
$var wire 1 V reg_stall $end
$var wire 1 W ren $end
$var wire 16 X va [15:0] $end
$var wire 16 Y vb [15:0] $end
$var wire 4 Z w_ra [3:0] $end
$var wire 4 [ w_rb [3:0] $end
$var wire 16 \ w_res [15:0] $end
$var wire 4 ] w_rt [3:0] $end
$var wire 1 ^ w_uses_ra $end
$var wire 1 _ w_uses_rb $end
$var wire 1 ` w_uses_rt $end
$var wire 1 a w_v $end
$var wire 1 b w_valid_inst $end
$var wire 1 c wen $end
$var wire 16 d x_d [15:0] $end
$var wire 1 e x_global_predictor $end
$var wire 16 f x_ii [15:0] $end
$var wire 1 g x_is_add $end
$var wire 1 h x_is_jump $end
$var wire 1 i x_is_mem $end
$var wire 1 j x_is_st $end
$var wire 1 k x_jmp_v $end
$var wire 1 l x_mem_stall $end
$var wire 4 m x_ra [3:0] $end
$var wire 4 n x_rb [3:0] $end
$var wire 16 o x_s [15:0] $end
$var wire 1 p x_v $end
$var wire 1 q x_valid_inst $end
$var reg 16 r busy [15:0] $end
$var reg 16 s correct_pc [15:0] $end
$var reg 16 t cycle [15:0] $end
$var reg 16 u d_inst [15:0] $end
$var reg 16 v d_pc [15:0] $end
$var reg 16 w f_inst [15:0] $end
$var reg 16 x f_pc [15:0] $end
$var reg 8 y history [7:0] $end
$var reg 8 z jmp_pattern [7:0] $end
$var reg 2 { jmp_stall_ctr [1:0] $end
$var reg 1 | l0_halt $end
$var reg 16 } l0_inst [15:0] $end
$var reg 16 ~ l0_pc [15:0] $end
$var reg 16 !" l0_res [15:0] $end
$var reg 1 "" l0_stall $end
$var reg 1 #" l1_halt $end
$var reg 16 $" l1_inst [15:0] $end
$var reg 16 %" l1_pc [15:0] $end
$var reg 16 &" l1_res [15:0] $end
$var reg 1 '" l1_stall $end
$var reg 32 (" last_was_cont [31:0] $end
$var reg 32 )" last_was_jump [31:0] $end
$var reg 16 *" pc [15:0] $end
$var reg 16 +" pc_no_jump [15:0] $end
$var reg 32 ," predictor_right [31:0] $end
$var reg 32 -" predictor_v [31:0] $end
$var reg 32 ." predictor_wrong [31:0] $end
$var reg 1 /" r0_halt $end
$var reg 16 0" r0_inst [15:0] $end
$var reg 16 1" r0_pc [15:0] $end
$var reg 1 2" r0_stall $end
$var reg 1 3" r1_halt $end
$var reg 16 4" r1_inst [15:0] $end
$var reg 16 5" r1_pc [15:0] $end
$var reg 1 6" r1_stall $end
$var reg 3 7" stall_ctr [2:0] $end
$var reg 1 8" w_halt $end
$var reg 16 9" w_inst [15:0] $end
$var reg 16 :" w_pc [15:0] $end
$var reg 1 ;" w_stall $end
$var reg 1 <" x_halt $end
$var reg 16 =" x_inst [15:0] $end
$var reg 16 >" x_pc [15:0] $end
$var reg 16 ?" x_res [15:0] $end
$var reg 1 @" x_stall $end
$upscope $end
$enddefinitions $end
#0
$dumpvars
0@"
bx ?"
bx >"
b1111111111111111 ="
0<"
0;"
bx :"
b1111111111111111 9"
08"
b0 7"
06"
bx 5"
b1111111111111111 4"
03"
02"
bx 1"
b1111111111111111 0"
0/"
b0 ."
b0 -"
b0 ,"
b0 +"
b0 *"
b0 )"
b0 ("
0'"
bx &"
bx %"
b1111111111111111 $"
0#"
0""
bx !"
bx ~
b1111111111111111 }
0|
b0 {
b0 z
b0 y
b0 x
b1111111111111111 w
bx v
b1111111111111111 u
b0 t
b1111111111111111 s
b0 r
0q
0p
b11111111 o
b1111 n
b1111 m
0l
0k
0j
0i
0h
0g
b11111111 f
xe
b1111 d
0c
0b
0a
0`
0_
0^
b1111 ]
bx \
b1111 [
b1111 Z
bx Y
bx X
0W
0V
0U
0T
b11111111 S
b1111 R
b1111 Q
b1111 P
0O
b11111111 N
0M
0L
b11111111 K
b1111 J
b1111 I
b1111 H
0G
b11111111 F
0E
bx D
bx C
0B
0A
b11111111 @
0?
b11111111 >
0=
0<
b11111111 ;
0:
b11111111 9
bx 8
07
06
05
04
03
02
01
00
0/
b11111111 .
b1111 -
b1111 ,
b1111 +
0*
b111111111111 )
0(
0'
0&
0%
b11111111 $
0#
x"
1!
$end
#500
0!
#1000
x7
b1 t
bx w
b1 *"
1!
#1500
0!
#2000
b10 t
b10 *"
b0 8
1!
#2500
0!
#3000
16
17
b100000000010001 8
b11 t
b0 w
b11 *"
1!
#3500
0!
#4000
12
13
14
b0 +
b0 ,
b0 -
b0 )
b0 $
b0 .
b100 t
b0 v
0"
b0 u
b1 x
b100000000010001 w
b100 *"
b100010 8
1!
#4500
0!
#5000
1L
1M
b0 H
b0 I
b0 J
b0 R
b0 F
b0 K
1&
b1 ,
b1 -
b10001 )
b1 $
b10001 .
b100000000010011 8
b101 t
b1 r
b0 0"
b0 1"
b1 v
b100000000010001 u
b10 x
b100010 w
b101 *"
1!
#5500
0!
#6000
12
1T
1U
b0 P
b0 Q
b0 N
b0 S
b1 I
b1 J
b1 R
b1 F
b10001 K
0&
b10 ,
b10 -
b100010 )
b10 $
b100010 .
b110 t
b0 4"
b0 5"
b11 r
b100000000010001 0"
b1 1"
b10 v
b100010 u
b11 x
b100000000010011 w
b110 *"
b1000100 8
1!
#6500
0!
#7000
1p
1q
b0 m
b0 n
b0 f
b0 o
b0 d
b1 Q
b1 N
b10001 S
b10 I
b10 J
b10 R
b10 F
b100010 K
1&
b1 ,
b11 -
b10011 )
b1 $
b10011 .
b1000100100010 8
b111 t
b0 ="
b0 >"
0e
b100000000010001 4"
b1 5"
b111 r
b100010 0"
b10 1"
b11 v
b100000000010011 u
b100 x
b1000100 w
b111 *"
1!
#7500
0!
#8000
12
1<
1i
1=
b0 9
b0 ;
b1 n
b1 f
b10001 o
b1 d
b10 Q
b10 N
b100010 S
b1 I
b11 J
b11 R
b1 F
b10011 K
0&
b100 ,
b100 -
b1000100 )
b100 $
b1000100 .
b1000 t
b0 ?"
b0 D
b0 }
b0 ~
b100000000010001 ="
b1 >"
b100010 4"
b10 5"
b1111 r
b100000000010011 0"
b11 1"
b100 v
b1000100 u
b101 x
b1000100100010 w
b1000 *"
b10000000001000 8
1!
#8500
0!
#9000
06
03
15
1/
10
11
1A
0i
1V
1B
b0 >
b0 @
b1 9
b10001 ;
b10 n
b10 f
b100010 o
b10 d
b1 Q
b1 N
b10011 S
b100 I
b100 J
b100 R
b100 F
b1000100 K
b1 +
b10 ,
b10 -
b100100010 )
b10010 $
b100010 .
b10000000000111 8
b1001 t
b0 !"
b0 $"
b0 %"
b1 ?"
b1 D
b100000000010001 }
b1 ~
b100010 ="
b10 >"
b100000000010011 4"
b11 5"
b11111 r
b1000100 0"
b100 1"
b101 v
b1000100100010 u
b110 x
b10000000001000 w
b1001 *"
1!
#9500
0!
#10000
1c
1`
1a
1i
0L
1b
b0 Z
b0 [
b0 ]
b1 >
b10001 @
b10 9
b100010 ;
b1 n
b1 f
b10011 o
b11 d
b100 Q
b100 N
b1000100 S
0M
b1111 H
b1111 I
b1111 J
b1111 R
b11111111 F
b11111111 K
07
b0 \
b1010 t
b0 &"
b0 9"
b0 :"
b1 !"
b100000000010001 $"
b1 %"
b10 ?"
b10 D
b100010 }
b10 ~
b100000000010011 ="
b11 >"
b1000100 4"
b100 5"
b1111111111111111 0"
b110 s
b1111111111111111 w
b101 7"
12"
b1010 *"
b0 C
b10001 8
1!
#10500
0!
#11000
0i
0T
b100000000010001 \
b1 [
b1 ]
b10 >
b100010 @
b1 9
b10011 ;
b100 n
b100 f
b1000100 o
b100 d
0U
b1111 P
b1111 Q
b11111111 N
b11111111 S
b100000000010001 C
b1000100010001 8
b1011 t
b11110 r
b1 &"
b100000000010001 9"
b1 :"
b10 !"
b100010 $"
b10 %"
b1 ?"
b1 D
b100000000010011 }
b11 ~
b1000100 ="
b100 >"
b1111111111111111 4"
b100 7"
16"
b1011 *"
1!
#11500
0!
#12000
1`
1c
0p
b10 [
b10 ]
b1 >
b10011 @
b100 9
b1000100 ;
0q
b1111 m
b1111 n
b11111111 f
b11111111 o
b1111 d
b10 \
b1100 t
b11100 r
b10 &"
b100010 9"
b10 :"
b1 !"
b100000000010011 $"
b11 %"
b100 ?"
b100 D
b1000100 }
b100 ~
b1111111111111111 ="
b11 7"
1@"
b110 *"
b100010 C
1!
#12500
0!
#13000
0V
b100000000010001 \
b1 [
b11 ]
b100 >
b1000100 @
0=
b11111111 9
b11111111 ;
17
0<
b100000000010001 C
b101000100011111 8
b1101 t
b11000 r
b1 &"
b100000000010011 9"
b11 :"
b100 !"
b1000100 $"
b100 %"
b1111111111111111 }
b100 x
b1000100010001 w
b10 7"
1""
b111 *"
1!
#13500
0!
#14000
1`
1c
b100 [
b100 ]
0B
b11111111 >
b11111111 @
0A
b100 \
b1110 t
b10000 r
b100 &"
b1000100 9"
b100 :"
b1111111111111111 $"
b101 x
b101000100011111 w
b1 7"
1'"
b1000 *"
b1000100 C
b10000000001000 8
1!
#14500
0!
#15000
0`
b1000100 \
16
13
0c
0b
b1111 Z
b1111 [
b1111 ]
05
0/
0a
b10000000000111 8
b1111 t
b0 r
b1111111111111111 9"
b110 x
b10000000001000 w
b0 7"
1;"
b1001 *"
1!
#15500
0!
#16000
1W
02
00
01
1L
1M
b1 H
b10 I
b10 J
b10 R
b10010 F
b100010 K
1%
b0 +
b0 ,
b1000 -
b1000 )
b0 $
b1000 .
b10000 t
b110 r
b1000100100010 0"
b101 1"
b110 v
b10000000001000 u
b111 x
b10000000000111 w
02"
b1010 *"
b10001 8
1!
#16500
0!
#17000
0W
06
1T
03
0L
1U
b1 P
b10 Q
b10010 N
b100010 S
15
1/
04
0%
b1111 +
b1111 ,
b11111111 $
0M
b1111 H
b1111 I
b1111 J
b1111 R
b11111111 F
b11111111 K
b1111 -
b111111111111 )
b11111111 .
07
b1000100010001 8
b10001 t
b1000100100010 4"
b101 5"
b11 7"
b1111111111111111 0"
b110 1"
b111 v
b1111111111111111 u
b1000 x
b1111111111111111 w
06"
b1000 *"
1!
#17500
0!
#18000
1g
0T
1p
1q
b1 m
b10 n
b10010 f
b100010 o
b10 d
0U
b1111 P
b1111 Q
b11111111 N
b11111111 S
17
b10010 t
b1000100100010 ="
b101 >"
b1111111111111111 4"
b110 x
b1000100010001 w
b10 7"
0@"
12"
b1001 *"
b10 Y
b100000000010001 X
1!
#18500
0!
#19000
1<
0p
0g
1=
b10010 9
b100010 ;
0q
b1111 m
b1111 n
b11111111 f
b11111111 o
b1111 d
b10001 8
b10011 t
b100000000010011 ?"
b100000000010011 D
b1000100100010 }
b101 ~
b1111111111111111 ="
b111 x
b1 7"
0""
16"
b1010 *"
1!
#19500
0!
#20000
16
1A
0<
1B
b10010 >
b100010 @
0=
b11111111 9
b11111111 ;
05
0/
b10100 t
b100000000010011 !"
b1000100100010 $"
b101 %"
b1111111111111111 }
b1000 x
b10001 w
b0 7"
0'"
1@"
b1011 *"
b1000100010001 8
1!
#20500
0!
#21000
06
15
1/
1V
1c
1`
1^
12
1_
1a
0A
03
b100000000010011 \
1b
b1 Z
b10 [
b10 ]
0B
b11111111 >
b11111111 @
14
b0 +
b1 ,
b1 -
b10001 )
b1 $
b10001 .
bx C
b10101 t
b100000000010011 &"
b1000100100010 9"
b101 :"
b1111111111111111 $"
b1000 v
b10001 u
b1001 x
b1000100010001 w
0;"
1""
02"
b1100 *"
1!
#21500
0!
#22000
0c
0`
0^
0_
bx \
0V
0a
0b
b1111 Z
b1111 [
b1111 ]
07
b10110 t
b0 r
b1111111111111111 9"
b1001 s
b1111111111111111 w
b101 7"
1'"
06"
12"
b1101 *"
b101000100011111 8
1!
#22500
0!
#23000
b10001 8
b10111 t
b100 7"
1;"
0@"
16"
b1110 *"
1!
#23500
0!
#24000
b11000 t
b11 7"
0""
1@"
b1001 *"
b100000100010100 8
1!
#24500
0!
#25000
17
b101000101000100 8
b11001 t
b111 x
b100000100010100 w
b10 7"
0'"
1""
b1010 *"
1!
#25500
0!
#26000
b11010 t
b1000 x
b101000101000100 w
b1 7"
0;"
1'"
b1011 *"
b1000100010001 8
1!
#26500
0!
#27000
16
13
05
0/
b11011 t
b1001 x
b1000100010001 w
b0 7"
1;"
b1100 *"
1!
#27500
0!
#28000
06
03
15
1/
10
11
1V
1L
1M
b0 H
b1 I
b1 J
b1 R
b1 F
b10001 K
b1 +
b100010001 )
b10001 $
b11100 t
b10 r
b10001 0"
b1000 1"
b1001 v
b1000100010001 u
b1010 x
02"
b1101 *"
b101000100011111 8
1!
#28500
0!
#29000
1T
0L
1U
b0 P
b1 Q
b1 N
b10001 S
0M
b1111 H
b1111 I
b1111 J
b1111 R
b11111111 F
b11111111 K
07
b10001 8
b11101 t
b10001 4"
b1000 5"
b1111111111111111 0"
b1010 s
b1111111111111111 w
b101 7"
06"
12"
b1110 *"
1!
#29500
0!
#30000
0T
1p
1q
b0 m
b1 n
b1 f
b10001 o
b1 d
0U
b1111 P
b1111 Q
b11111111 N
b11111111 S
b11110 t
b10001 ="
b1000 >"
b1111111111111111 4"
b100 7"
0@"
16"
b1111 *"
b100000100010100 8
1!
#30500
0!
#31000
1<
0p
1=
b1 9
b10001 ;
0q
b1111 m
b1111 n
b11111111 f
b11111111 o
b1111 d
b101000101000100 8
b11111 t
b1 ?"
b1 D
b10001 }
b1000 ~
b1111111111111111 ="
b11 7"
0""
1@"
b1010 *"
1!
#31500
0!
#32000
1A
1B
b1 >
b10001 @
0=
b11111111 9
b11111111 ;
17
0<
b100000 t
b1 !"
b10001 $"
b1000 %"
b1111111111111111 }
b1000 x
b101000101000100 w
b10 7"
0'"
1""
b1011 *"
1!
#32500
0!
#33000
1c
1`
1a
b1 \
1b
b0 Z
b1 [
b1 ]
0B
b11111111 >
b11111111 @
0A
b100000000010001 C
b1000100010001 8
b100001 t
b1 &"
b10001 9"
b1000 :"
b1111111111111111 $"
b1001 x
b1 7"
0;"
1'"
b1100 *"
1!
#33500
0!
#34000
16
13
05
0/
0`
0V
b100000000010001 \
0c
0b
b1111 Z
b1111 [
b1111 ]
0a
b100010 t
b0 r
b1111111111111111 9"
b1010 x
b1000100010001 w
b0 7"
1;"
b1101 *"
b101000100011111 8
1!
#34500
0!
#35000
06
03
15
1/
1W
1V
1L
1M
b1 H
b1 I
b1 J
b1 R
b10001 F
b10001 K
b10001 8
b100011 t
b10 r
b1000100010001 0"
b1001 1"
b1010 v
b1011 x
b101000100011111 w
02"
b1110 *"
1!
#35500
0!
#36000
0W
1T
0L
1U
b1 P
b1 Q
b10001 N
b10001 S
0M
b1111 H
b1111 I
b1111 J
b1111 R
b11111111 F
b11111111 K
07
b100100 t
b1000100010001 4"
b1001 5"
b1111111111111111 0"
b1011 s
b1111111111111111 w
b101 7"
06"
12"
b1111 *"
b100000100010100 8
1!
#36500
0!
#37000
1g
0T
1p
1q
b1 m
b1 n
b10001 f
b10001 o
b1 d
0U
b1111 P
b1111 Q
b11111111 N
b11111111 S
b101000101000100 8
b1 Y
b1 X
b100101 t
b1000100010001 ="
b1001 >"
b1111111111111111 4"
b100 7"
0@"
16"
b10000 *"
1!
#37500
0!
#38000
1<
0g
0p
1=
b10001 9
b10001 ;
0q
b1111 m
b1111 n
b11111111 f
b11111111 o
b1111 d
b100110 t
b10 ?"
b10 D
b1000100010001 }
b1001 ~
b1111111111111111 ="
b11 7"
0""
1@"
b1011 *"
1!
#38500
0!
#39000
1A
1B
b10001 >
b10001 @
0=
b11111111 9
b11111111 ;
17
0<
b1010000010101 8
b100111 t
b10 !"
b1000100010001 $"
b1001 %"
b1111111111111111 }
b1001 x
b101000101000100 w
b10 7"
0'"
1""
b1100 *"
1!
#39500
0!
#40000
1c
1`
1^
1_
1a
1b
b1 Z
b1 [
b1 ]
0B
b11111111 >
b11111111 @
0A
b10 \
b101000 t
b10 &"
b1000100010001 9"
b1001 :"
b1111111111111111 $"
b1010 x
b1010000010101 w
b1 7"
0;"
1'"
b1101 *"
b100010 C
b101000100011111 8
1!
#40500
0!
#41000
16
13
05
0/
0`
0^
0V
0_
b100010 \
0c
0b
b1111 Z
b1111 [
b1111 ]
0a
b10001 8
b101001 t
b0 r
b1111111111111111 9"
b1011 x
b101000100011111 w
b0 7"
1;"
b1110 *"
1!
#41500
0!
#42000
06
03
15
1/
1W
1V
1L
1M
b1 H
b1 I
b1 J
b1 R
b10001 F
b10001 K
b1111 -
b100011111 )
b11111 .
b101010 t
b10 r
b1000100010001 0"
b1010 1"
b1011 v
b101000100011111 u
b1100 x
b10001 w
02"
b1111 *"
b100000100010100 8
1!
#42500
0!
#43000
0W
1T
0L
1U
b1 P
b1 Q
b10001 N
b10001 S
0M
b1111 H
b1111 I
b1111 J
b1111 R
b11111111 F
b11111111 K
07
b101000101000100 8
b101011 t
b1000100010001 4"
b1010 5"
b1111111111111111 0"
b1100 s
b1111111111111111 w
b101 7"
06"
12"
b10000 *"
1!
#43500
0!
#44000
1g
0T
1p
1q
b1 m
b1 n
b10001 f
b10001 o
b1 d
0U
b1111 P
b1111 Q
b11111111 N
b11111111 S
b101100 t
b1000100010001 ="
b1010 >"
b1111111111111111 4"
b100 7"
0@"
16"
b10001 *"
b10 Y
b10 X
1!
#44500
0!
#45000
1<
0g
0p
1=
b10001 9
b10001 ;
0q
b1111 m
b1111 n
b11111111 f
b11111111 o
b1111 d
b1010000010101 8
b101101 t
b100 ?"
b100 D
b1000100010001 }
b1010 ~
b1111111111111111 ="
b11 7"
0""
1@"
b1100 *"
1!
#45500
0!
#46000
1A
1B
b10001 >
b10001 @
0=
b11111111 9
b11111111 ;
17
0<
b101110 t
b100 !"
b1000100010001 $"
b1010 %"
b1111111111111111 }
b1010 x
b1010000010101 w
b10 7"
0'"
1""
b1101 *"
b10001 8
1!
#46500
0!
#47000
1c
1`
1^
1_
1a
b100 \
1b
b1 Z
b1 [
b1 ]
0B
b11111111 >
b11111111 @
0A
b1000100 C
b101111 t
b100 &"
b1000100010001 9"
b1010 :"
b1111111111111111 $"
b1011 x
b10001 w
b1 7"
0;"
1'"
b1110 *"
1!
#47500
0!
#48000
16
13
05
0/
0`
0^
0V
0_
b1000100 \
0c
0b
b1111 Z
b1111 [
b1111 ]
0a
b110000 t
b0 r
b1111111111111111 9"
b1100 x
b0 7"
1;"
b1111 *"
b100000100010100 8
1!
#48500
0!
#49000
06
03
15
1/
1W
00
01
1V
1L
12
1M
b1 H
b1 I
b10001 F
b11111 K
b0 +
b1 -
b10001 )
b1 $
b10001 .
b101000101000100 8
b110001 t
b1000000000000010 r
b101000100011111 0"
b1011 1"
b1100 v
b10001 u
b1101 x
b100000100010100 w
02"
b10000 *"
1!
#49500
0!
#50000
0W
1T
0L
1U
b1 P
b1 Q
b10001 N
b11111 S
0M
b1111 H
b1111 I
b11111111 F
b11111111 K
07
b110010 t
b101000100011111 4"
b1011 5"
b1111111111111111 0"
b1101 s
b1111111111111111 w
b101 7"
06"
12"
b10001 *"
1!
#50500
0!
#51000
1g
0T
1p
1q
b1 m
b1 n
b10001 f
b11111 o
0U
b1111 P
b1111 Q
b11111111 N
b11111111 S
b1010000010101 8
b100 Y
b100 X
b110011 t
b101000100011111 ="
b1011 >"
b1111111111111111 4"
b100 7"
0@"
16"
b10010 *"
1!
#51500
0!
#52000
1l
1<
1i
0g
0p
1=
1:
b10001 9
b11111 ;
0q
b1111 m
b1111 n
b11111111 f
b11111111 o
b110100 t
b1000 ?"
b1000 D
b101000100011111 }
b1011 ~
b1111111111111111 ="
b11 7"
0""
1@"
b1101 *"
b10001 8
1!
#52500
0!
#53000
0l
1A
0i
1B
1?
b10001 >
b11111 @
0=
0:
b11111111 9
b11111111 ;
17
0<
b10010 8
b110101 t
b1000 !"
b101000100011111 $"
b1011 %"
b1111111111111111 }
b1011 x
b10001 w
b10 7"
0'"
1""
b1110 *"
1!
#53500
0!
#54000
1^
1c
1_
1a
1`
1b
b1 Z
b1 [
0B
0?
b11111111 >
b11111111 @
0A
b10001 \
b110110 t
b1000 &"
b101000100011111 9"
b1011 :"
b1111111111111111 $"
b1100 x
b10010 w
b1 7"
0;"
1'"
b1111 *"
b10001 C
b100000100010100 8
1!
#54500
0!
#55000
16
13
05
0/
0^
0_
0V
0`
0c
0b
b1111 Z
b1111 [
0a
b101000101000100 8
b110111 t
b0 r
b1111111111111111 9"
b1101 x
b100000100010100 w
b0 7"
1;"
b10000 *"
1!
#55500
0!
#56000
1L
1M
b0 H
b1 I
b1 J
b1 R
b1 F
b10001 K
1&
b1 +
b100 -
b100010100 )
b10001 $
b10100 .
b111000 t
b10 r
b10001 0"
b1100 1"
b1101 v
b100000100010100 u
b1110 x
b101000101000100 w
02"
b10001 *"
1!
#56500
0!
#57000
06
03
15
1/
10
11
1T
1V
1U
b0 P
b1 Q
b1 N
b10001 S
b1 H
b100 J
b100 R
b10001 F
b10100 K
0&
b100 ,
b101000100 )
b10100 $
b1000100 .
b1010000010101 8
b111001 t
b10001 4"
b1100 5"
b10010 r
b100000100010100 0"
b1101 1"
b1110 v
b101000101000100 u
b1111 x
06"
b10010 *"
1!
#57500
0!
#58000
0L
1p
1q
b0 m
b1 n
b1 f
b10001 o
b1 d
b1 P
b10001 N
b10100 S
0M
b1111 H
b1111 I
b1111 J
b1111 R
b11111111 F
b11111111 K
07
b111010 t
b10001 ="
b1100 >"
b100000100010100 4"
b1101 5"
b1111111111111111 0"
b1111 s
b1111111111111111 w
b101 7"
0@"
12"
b10011 *"
b10001 8
1!
#58500
0!
#59000
1<
1i
0T
1=
b1 9
b10001 ;
b1 m
b10001 f
b10100 o
b100 d
0U
b1111 P
b1111 Q
b11111111 N
b11111111 S
b10010 8
b111011 t
b1 ?"
b1 D
b10001 }
b1100 ~
b100000100010100 ="
b1101 >"
b1111111111111111 4"
b100 7"
0""
16"
b10100 *"
1!
#59500
0!
#60000
1A
0i
0p
1B
b1 >
b10001 @
b10001 9
b10100 ;
0q
b1111 m
b1111 n
b11111111 f
b11111111 o
b1111 d
b111100 t
b1 !"
b10001 $"
b1100 %"
b10001 ?"
b10001 D
b100000100010100 }
b1101 ~
b1111111111111111 ="
b11 7"
0'"
1@"
b1111 *"
b10011 8
1!
#60500
0!
#61000
1c
1`
1a
b1 \
1b
b0 Z
b1 [
b1 ]
b10001 >
b10100 @
0=
b11111111 9
b11111111 ;
17
0<
b100000000010001 C
b0 8
b111101 t
b1 &"
b10001 9"
b1100 :"
b10001 !"
b100000100010100 $"
b1101 %"
b1111111111111111 }
b1101 x
b10011 w
b10 7"
0;"
1""
b10000 *"
1!
#61500
0!
#62000
b10001 \
b1 Z
b100 ]
0B
b11111111 >
b11111111 @
0A
b111110 t
b10000 r
b10001 &"
b100000100010100 9"
b1101 :"
b1111111111111111 $"
b1110 x
b0 w
b1 7"
1'"
b10001 *"
b10001 C
b101000101000100 8
1!
#62500
0!
#63000
16
13
05
0/
0V
0`
0c
0b
b1111 Z
b1111 [
b1111 ]
0a
b1010000010101 8
b111111 t
b0 r
b1111111111111111 9"
b1111 x
b101000101000100 w
b0 7"
1;"
b10010 *"
1!
#63500
0!
#64000
06
03
15
1/
1W
1V
1L
1M
b1 H
b100 I
b100 J
b100 R
b10100 F
b1000100 K
b1000000 t
b10010 r
b101000101000100 0"
b1110 1"
b1111 v
b10000 x
b1010000010101 w
02"
b10011 *"
b10001 8
1!
#64500
0!
#65000
0W
1T
0L
1U
b1 P
b100 Q
b10100 N
b1000100 S
0M
b1111 H
b1111 I
b1111 J
b1111 R
b11111111 F
b11111111 K
07
b10010 8
b1000001 t
b101000101000100 4"
b1110 5"
b1111111111111111 0"
b10000 s
b1111111111111111 w
b101 7"
06"
12"
b10100 *"
1!
#65500
0!
#66000
1g
0T
1p
1q
b1 m
b100 n
b10100 f
b1000100 o
b100 d
0U
b1111 P
b1111 Q
b11111111 N
b11111111 S
b1000010 t
b101000101000100 ="
b1110 >"
b1111111111111111 4"
b100 7"
0@"
16"
b10101 *"
b10001 Y
b1 X
b10011 8
1!
#66500
0!
#67000
1l
1<
1i
0g
0p
1=
1:
b10100 9
b1000100 ;
0q
b1111 m
b1111 n
b11111111 f
b11111111 o
b1111 d
b0 8
b1000011 t
b10010 ?"
b10010 D
b101000101000100 }
b1110 ~
b1111111111111111 ="
b11 7"
0""
1@"
b10000 *"
1!
#67500
0!
#68000
0l
1A
0i
1B
1?
b10100 >
b1000100 @
0=
0:
b11111111 9
b11111111 ;
17
0<
b1000100 t
b10010 !"
b101000101000100 $"
b1110 %"
b1111111111111111 }
b1110 x
b0 w
b10 7"
0'"
1""
b10001 *"
b10001 8
1!
#68500
0!
#69000
1^
1c
1_
1a
1`
b10010 \
1b
b1 Z
b100 [
b100 ]
0B
0?
b11111111 >
b11111111 @
0A
b10010 C
b1010000010101 8
b1000101 t
b10010 &"
b101000101000100 9"
b1110 :"
b1111111111111111 $"
b1111 x
b10001 w
b1 7"
0;"
1'"
b10010 *"
1!
#69500
0!
#70000
16
13
05
0/
0^
0_
0V
0`
0c
0b
b1111 Z
b1111 [
b1111 ]
0a
b1000110 t
b0 r
b1111111111111111 9"
b10000 x
b1010000010101 w
b0 7"
1;"
b10011 *"
b10001 8
1!
#70500
0!
#71000
06
03
15
1/
1W
1V
1L
12
1M
b1 H
b100 I
b100 J
b100 R
b10100 F
b1000100 K
b100 +
b1 ,
b101 -
b10000010101 )
b1000001 $
b10101 .
b10010 8
b1000111 t
b10010 r
b101000101000100 0"
b1111 1"
b10000 v
b1010000010101 u
b10001 x
b10001 w
02"
b10100 *"
1!
#71500
0!
#72000
0W
1T
0L
1U
b1 P
b100 Q
b10100 N
b1000100 S
0M
b1111 H
b1111 I
b1111 J
b1111 R
b11111111 F
b11111111 K
07
b1001000 t
b101000101000100 4"
b1111 5"
b1111111111111111 0"
b10001 s
b1111111111111111 w
b101 7"
06"
12"
b10101 *"
b10011 8
1!
#72500
0!
#73000
1g
0T
1p
1q
b1 m
b100 n
b10100 f
b1000100 o
b100 d
0U
b1111 P
b1111 Q
b11111111 N
b11111111 S
b0 8
b10010 Y
b1001001 t
b101000101000100 ="
b1111 >"
b1111111111111111 4"
b100 7"
0@"
16"
b10110 *"
1!
#73500
0!
#74000
1l
1<
1i
0g
0p
1=
1:
b10100 9
b1000100 ;
0q
b1111 m
b1111 n
b11111111 f
b11111111 o
b1111 d
b1001010 t
b10011 ?"
b10011 D
b101000101000100 }
b1111 ~
b1111111111111111 ="
b11 7"
0""
1@"
b10001 *"
b10001 8
1!
#74500
0!
#75000
0l
1A
0i
1B
1?
b10100 >
b1000100 @
0=
0:
b11111111 9
b11111111 ;
17
0<
b100000010 8
b1001011 t
b10011 !"
b101000101000100 $"
b1111 %"
b1111111111111111 }
b1111 x
b10001 w
b10 7"
0'"
1""
b10010 *"
1!
#75500
0!
#76000
1^
1c
1_
1a
1`
1b
b1 Z
b100 [
b100 ]
0B
0?
b11111111 >
b11111111 @
0A
b10011 \
b1001100 t
b10011 &"
b101000101000100 9"
b1111 :"
b1111111111111111 $"
b10000 x
b100000010 w
b1 7"
0;"
1'"
b10011 *"
b10011 C
b10001 8
1!
#76500
0!
#77000
16
13
05
0/
0^
0V
0_
0`
0c
0b
b1111 Z
b1111 [
b1111 ]
0a
b10010 8
b1001101 t
b0 r
b1111111111111111 9"
b10001 x
b10001 w
b0 7"
1;"
b10100 *"
1!
#77500
0!
#78000
06
03
15
1/
1W
00
01
1V
1L
1M
b100 H
b1 I
b101 J
b101 R
b1000001 F
b10101 K
b0 +
b1 -
b10001 )
b1 $
b10001 .
b1001110 t
b110010 r
b1010000010101 0"
b10000 1"
b10001 v
b10001 u
b10010 x
b10010 w
02"
b10101 *"
b10011 8
1!
#78500
0!
