testi.vcd
$date
	Mon Dec  5 20:29:24 2016
$end
$version
	Icarus Verilog
$end
$timescale
	1ps
$end
$scope module main $end
$var wire 1 ! clk $end
$var wire 1 " d_global_predictor $end
$var wire 1 # d_halt $end
$var wire 16 $ d_ii [15:0] $end
$var wire 1 % d_is_jump $end
$var wire 1 & d_is_mem $end
$var wire 1 ' d_is_st $end
$var wire 1 ( d_is_x_jmp $end
$var wire 16 ) d_jjj [15:0] $end
$var wire 1 * d_mem_stall $end
$var wire 4 + d_ra [3:0] $end
$var wire 4 , d_rb [3:0] $end
$var wire 4 - d_rt [3:0] $end
$var wire 16 . d_s [15:0] $end
$var wire 1 / d_stall $end
$var wire 1 0 d_uses_ra $end
$var wire 1 1 d_uses_rb $end
$var wire 1 2 d_uses_rt $end
$var wire 1 3 d_v $end
$var wire 1 4 d_valid_inst $end
$var wire 1 5 f_stall $end
$var wire 1 6 f_v $end
$var wire 1 7 f_valid_inst $end
$var wire 16 8 inst [15:0] $end
$var wire 16 9 l0_ii [15:0] $end
$var wire 1 : l0_is_st $end
$var wire 16 ; l0_s [15:0] $end
$var wire 1 < l0_v $end
$var wire 1 = l0_valid_inst $end
$var wire 16 > l1_ii [15:0] $end
$var wire 1 ? l1_is_st $end
$var wire 16 @ l1_s [15:0] $end
$var wire 1 A l1_v $end
$var wire 1 B l1_valid_inst $end
$var wire 16 C memData [15:0] $end
$var wire 16 D memIn [15:0] $end
$var wire 1 E pc_mem_stall $end
$var wire 16 F r0_ii [15:0] $end
$var wire 1 G r0_is_st $end
$var wire 4 H r0_ra [3:0] $end
$var wire 4 I r0_rb [3:0] $end
$var wire 4 J r0_rt [3:0] $end
$var wire 16 K r0_s [15:0] $end
$var wire 1 L r0_v $end
$var wire 1 M r0_valid_inst $end
$var wire 16 N r1_ii [15:0] $end
$var wire 1 O r1_is_st $end
$var wire 4 P r1_ra [3:0] $end
$var wire 4 Q r1_rb [3:0] $end
$var wire 4 R r1_rt [3:0] $end
$var wire 16 S r1_s [15:0] $end
$var wire 1 T r1_v $end
$var wire 1 U r1_valid_inst $end
$var wire 1 V reg_stall $end
$var wire 1 W ren $end
$var wire 16 X va [15:0] $end
$var wire 16 Y vb [15:0] $end
$var wire 4 Z w_ra [3:0] $end
$var wire 4 [ w_rb [3:0] $end
$var wire 16 \ w_res [15:0] $end
$var wire 4 ] w_rt [3:0] $end
$var wire 1 ^ w_uses_ra $end
$var wire 1 _ w_uses_rb $end
$var wire 1 ` w_uses_rt $end
$var wire 1 a w_v $end
$var wire 1 b w_valid_inst $end
$var wire 1 c wen $end
$var wire 16 d x_d [15:0] $end
$var wire 1 e x_global_predictor $end
$var wire 16 f x_ii [15:0] $end
$var wire 1 g x_is_add $end
$var wire 1 h x_is_jump $end
$var wire 1 i x_is_mem $end
$var wire 1 j x_is_st $end
$var wire 1 k x_jmp_v $end
$var wire 1 l x_mem_stall $end
$var wire 4 m x_ra [3:0] $end
$var wire 4 n x_rb [3:0] $end
$var wire 16 o x_s [15:0] $end
$var wire 1 p x_v $end
$var wire 1 q x_valid_inst $end
$var reg 16 r busy [15:0] $end
$var reg 16 s correct_pc [15:0] $end
$var reg 16 t cycle [15:0] $end
$var reg 16 u d_inst [15:0] $end
$var reg 16 v d_pc [15:0] $end
$var reg 16 w f_inst [15:0] $end
$var reg 16 x f_pc [15:0] $end
$var reg 8 y history [7:0] $end
$var reg 8 z jmp_pattern [7:0] $end
$var reg 2 { jmp_stall_ctr [1:0] $end
$var reg 1 | l0_halt $end
$var reg 16 } l0_inst [15:0] $end
$var reg 16 ~ l0_pc [15:0] $end
$var reg 16 !" l0_res [15:0] $end
$var reg 1 "" l0_stall $end
$var reg 1 #" l1_halt $end
$var reg 16 $" l1_inst [15:0] $end
$var reg 16 %" l1_pc [15:0] $end
$var reg 16 &" l1_res [15:0] $end
$var reg 1 '" l1_stall $end
$var reg 32 (" last_was_cont [31:0] $end
$var reg 32 )" last_was_jump [31:0] $end
$var reg 16 *" pc [15:0] $end
$var reg 16 +" pc_no_jump [15:0] $end
$var reg 32 ," predictor_right [31:0] $end
$var reg 32 -" predictor_v [31:0] $end
$var reg 32 ." predictor_wrong [31:0] $end
$var reg 1 /" r0_halt $end
$var reg 16 0" r0_inst [15:0] $end
$var reg 16 1" r0_pc [15:0] $end
$var reg 1 2" r0_stall $end
$var reg 1 3" r1_halt $end
$var reg 16 4" r1_inst [15:0] $end
$var reg 16 5" r1_pc [15:0] $end
$var reg 1 6" r1_stall $end
$var reg 3 7" stall_ctr [2:0] $end
$var reg 1 8" w_halt $end
$var reg 16 9" w_inst [15:0] $end
$var reg 16 :" w_pc [15:0] $end
$var reg 1 ;" w_stall $end
$var reg 1 <" x_halt $end
$var reg 16 =" x_inst [15:0] $end
$var reg 16 >" x_pc [15:0] $end
$var reg 16 ?" x_res [15:0] $end
$var reg 1 @" x_stall $end
$upscope $end
$enddefinitions $end
#0
$dumpvars
0@"
bx ?"
bx >"
b1111111111111111 ="
0<"
0;"
bx :"
b1111111111111111 9"
08"
b0 7"
06"
bx 5"
b1111111111111111 4"
03"
02"
bx 1"
b1111111111111111 0"
0/"
b0 ."
b0 -"
b0 ,"
b0 +"
b0 *"
b0 )"
b0 ("
0'"
bx &"
bx %"
b1111111111111111 $"
0#"
0""
bx !"
bx ~
b1111111111111111 }
0|
b0 {
b0 z
b0 y
b0 x
b1111111111111111 w
bx v
b1111111111111111 u
b0 t
b1111111111111111 s
b0 r
0q
0p
b11111111 o
b1111 n
b1111 m
0l
0k
0j
0i
0h
0g
b11111111 f
xe
b1111 d
0c
0b
0a
0`
0_
0^
b1111 ]
bx \
b1111 [
b1111 Z
bx Y
bx X
0W
0V
0U
0T
b11111111 S
b1111 R
b1111 Q
b1111 P
0O
b11111111 N
0M
0L
b11111111 K
b1111 J
b1111 I
b1111 H
0G
b11111111 F
0E
bx D
bx C
0B
0A
b11111111 @
0?
b11111111 >
0=
0<
b11111111 ;
0:
b11111111 9
bx 8
07
06
05
04
03
02
01
00
0/
b11111111 .
b1111 -
b1111 ,
b1111 +
0*
b111111111111 )
0(
0'
0&
0%
b11111111 $
0#
x"
1!
$end
#500
0!
#1000
x7
b1 t
bx w
b1 *"
1!
#1500
0!
#2000
b10 t
b10 *"
b0 8
1!
#2500
0!
#3000
16
17
b100010001 8
b11 t
b0 w
b11 *"
1!
#3500
0!
#4000
12
13
14
b0 +
b0 ,
b0 -
b0 )
b0 $
b0 .
b100 t
b0 v
0"
b0 u
b1 x
b100010001 w
b100 *"
b1000100010 8
1!
#4500
0!
#5000
1L
1M
b0 H
b0 I
b0 J
b0 R
b0 F
b0 K
b1 +
b1 ,
b1 -
b100010001 )
b10001 $
b10001 .
b1100110011 8
b101 t
b1 r
b0 0"
b0 1"
b1 v
b100010001 u
b10 x
b1000100010 w
b101 *"
1!
#5500
0!
#6000
1T
1U
b0 P
b0 Q
b0 N
b0 S
b1 H
b1 I
b1 J
b1 R
b10001 F
b10001 K
b10 +
b10 ,
b10 -
b1000100010 )
b100010 $
b100010 .
b110 t
b0 4"
b0 5"
b11 r
b100010001 0"
b1 1"
b10 v
b1000100010 u
b11 x
b1100110011 w
b110 *"
b10001000100 8
1!
#6500
0!
#7000
1p
1q
b0 m
b0 n
b0 f
b0 o
b0 d
b1 P
b1 Q
b10001 N
b10001 S
b10 H
b10 I
b10 J
b10 R
b100010 F
b100010 K
b11 +
b11 ,
b11 -
b1100110011 )
b110011 $
b110011 .
b10101010101 8
b111 t
b0 ="
b0 >"
0e
b100010001 4"
b1 5"
b111 r
b1000100010 0"
b10 1"
b11 v
b1100110011 u
b100 x
b10001000100 w
b111 *"
1!
#7500
0!
#8000
1<
1=
b0 9
b0 ;
b1 m
b1 n
b10001 f
b10001 o
b1 d
b10 P
b10 Q
b100010 N
b100010 S
b11 H
b11 I
b11 J
b11 R
b110011 F
b110011 K
b100 +
b100 ,
b100 -
b10001000100 )
b1000100 $
b1000100 .
b1000 t
b0 ?"
b0 D
b0 }
b0 ~
b100010001 ="
b1 >"
b1000100010 4"
b10 5"
b1111 r
b1100110011 0"
b11 1"
b100 v
b10001000100 u
b101 x
b10101010101 w
b1000 *"
b11001100110 8
1!
#8500
0!
#9000
1A
1B
b0 >
b0 @
b10001 9
b10001 ;
b10 m
b10 n
b100010 f
b100010 o
b10 d
b11 P
b11 Q
b110011 N
b110011 S
b100 H
b100 I
b100 J
b100 R
b1000100 F
b1000100 K
b101 +
b101 ,
b101 -
b10101010101 )
b1010101 $
b1010101 .
b11101110111 8
b1001 t
b0 !"
b0 $"
b0 %"
b10001 ?"
b10001 D
b100010001 }
b1 ~
b1000100010 ="
b10 >"
b1100110011 4"
b11 5"
b11111 r
b10001000100 0"
b100 1"
b101 v
b10101010101 u
b110 x
b11001100110 w
b1001 *"
1!
#9500
0!
#10000
1c
1`
1a
1b
b0 Z
b0 [
b0 ]
b10001 >
b10001 @
b100010 9
b100010 ;
b11 m
b11 n
b110011 f
b110011 o
b11 d
b100 P
b100 Q
b1000100 N
b1000100 S
b101 H
b101 I
b101 J
b101 R
b1010101 F
b1010101 K
b110 +
b110 ,
b110 -
b11001100110 )
b1100110 $
b1100110 .
b0 \
b1010 t
b0 &"
b0 9"
b0 :"
b10001 !"
b100010001 $"
b1 %"
b100010 ?"
b100010 D
b1000100010 }
b10 ~
b1100110011 ="
b11 >"
b10001000100 4"
b100 5"
b111111 r
b10101010101 0"
b101 1"
b110 v
b11001100110 u
b111 x
b11101110111 w
b1010 *"
b0 C
b111000010000000 8
1!
#10500
0!
#11000
b10001 \
b1 Z
b1 [
b1 ]
b100010 >
b100010 @
b110011 9
b110011 ;
b100 m
b100 n
b1000100 f
b1000100 o
b100 d
b101 P
b101 Q
b1010101 N
b1010101 S
b110 H
b110 I
b110 J
b110 R
b1100110 F
b1100110 K
b111 +
b111 ,
b111 -
b11101110111 )
b1110111 $
b1110111 .
b100100000001100 C
b100100000001000 8
b1011 t
b10001 &"
b100010001 9"
b1 :"
b100010 !"
b1000100010 $"
b10 %"
b110011 ?"
b110011 D
b1100110011 }
b11 ~
b10001000100 ="
b100 >"
b10101010101 4"
b101 5"
b1111110 r
b11001100110 0"
b110 1"
b111 v
b11101110111 u
b1000 x
b111000010000000 w
b1011 *"
1!
#11500
0!
#12000
02
10
b100010 \
b10 Z
b10 [
b10 ]
b110011 >
b110011 @
b1000100 9
b1000100 ;
b101 m
b101 n
b1010101 f
b1010101 o
b101 d
b110 P
b110 Q
b1100110 N
b1100110 S
b111 H
b111 I
b111 J
b111 R
b1110111 F
b1110111 K
1'
b0 +
b1000 ,
b0 -
b10000000 )
b1000 $
b10000000 .
b1100 t
b100010 &"
b1000100010 9"
b10 :"
b110011 !"
b1100110011 $"
b11 %"
b1000100 ?"
b1000100 D
b10001000100 }
b100 ~
b10101010101 ="
b101 >"
b11001100110 4"
b110 5"
b11111100 r
b11101110111 0"
b111 1"
b1000 v
b111000010000000 u
b1001 x
b100100000001000 w
b1100 *"
bx C
b111000110000000 8
1!
#12500
0!
#13000
12
1W
00
b110011 \
b11 Z
b11 [
b11 ]
b1000100 >
b1000100 @
b1010101 9
b1010101 ;
b110 m
b110 n
b1100110 f
b1100110 o
b110 d
b111 P
b111 Q
b1110111 N
b1110111 S
1G
b0 H
b1000 I
b0 J
b0 R
b1000 F
b10000000 K
1&
0'
b1000 +
b0 ,
b1000 -
b100000001000 )
b10000000 $
b1000 .
b100100000001001 8
b1101 t
b110011 &"
b1100110011 9"
b11 :"
b1000100 !"
b10001000100 $"
b100 %"
b1010101 ?"
b1010101 D
b10101010101 }
b101 ~
b11001100110 ="
b110 >"
b11101110111 4"
b111 5"
b11111001 r
b111000010000000 0"
b1000 1"
b1001 v
b100100000001000 u
b1010 x
b111000110000000 w
b1101 *"
1!
#13500
0!
#14000
16
13
05
0/
02
0V
0W
10
b1000100 \
b100 Z
b100 [
b100 ]
b1010101 >
b1010101 @
b1100110 9
b1100110 ;
b111 m
b111 n
b1110111 f
b1110111 o
b111 d
1O
b0 P
b1000 Q
b1000 N
b10000000 S
0G
b1000 H
b0 I
b1000 J
b1000 R
b10000000 F
b1000 K
0&
1'
b1 +
b1000 ,
b0 -
b110000000 )
b11000 $
b10000000 .
b1110 t
b1000100 &"
b10001000100 9"
b100 :"
b1010101 !"
b10101010101 $"
b101 %"
b1100110 ?"
b1100110 D
b11001100110 }
b110 ~
b11101110111 ="
b111 >"
b111000010000000 4"
b1000 5"
b111110001 r
b100100000001000 0"
b1001 1"
b1010 v
b111000110000000 u
b1011 x
b100100000001001 w
b1110 *"
b111001010000000 8
1!
#14500
0!
#15000
16
13
05
0/
0V
12
1W
00
0*
b1010101 \
b101 Z
b101 [
b101 ]
b1100110 >
b1100110 @
b1110111 9
b1110111 ;
1j
b0 m
b1000 n
b1000 f
b10000000 o
b0 d
0O
b1000 P
b0 Q
b10000000 N
b1000 S
1G
b1 H
b1000 I
b0 J
b0 R
b11000 F
b10000000 K
1&
0'
b1000 +
b0 ,
b1001 -
b100000001001 )
b10000000 $
b1001 .
b100100000001010 8
b0 X
b1111 t
b1010101 &"
b10101010101 9"
b101 :"
b1100110 !"
b11001100110 $"
b110 %"
b1110111 ?"
b1110111 D
b11101110111 }
b111 ~
b111000010000000 ="
b1000 >"
b100100000001000 4"
b1001 5"
b111100011 r
b111000110000000 0"
b1010 1"
b1011 v
b100100000001001 u
b1100 x
b111001010000000 w
b1111 *"
1!
#15500
0!
#16000
16
13
05
0/
02
1i
0V
0W
10
b1100110 \
b110 Z
b110 [
b110 ]
b1110111 >
b1110111 @
b1000 9
b10000000 ;
0j
b1000 m
b0 n
b10000000 f
b1000 o
b1000 d
1O
b1 P
b1000 Q
b11000 N
b10000000 S
0G
b1000 H
b0 I
b1001 J
b1001 R
b10000000 F
b1001 K
0&
1'
b10 +
b1000 ,
b0 -
b1010000000 )
b101000 $
b10000000 .
b10000 t
b1100110 &"
b11001100110 9"
b110 :"
b1110111 !"
b11101110111 $"
b111 %"
b0 ?"
b0 D
b111000010000000 }
b1000 ~
b100100000001000 ="
b1001 >"
b111000110000000 4"
b1010 5"
b1111000011 r
b100100000001001 0"
b1011 1"
b1100 v
b111001010000000 u
b1101 x
b100100000001010 w
b10000 *"
b111001110000000 8
1!
#16500
0!
#17000
16
13
05
0/
0V
12
0i
1W
00
0*
b1110111 \
b111 Z
b111 [
b111 ]
b1000 >
b10000000 @
b10000000 9
b1000 ;
1j
b1 m
b1000 n
b11000 f
b10000000 o
b0 d
0O
b1000 P
b0 Q
b10000000 N
b1001 S
1G
b10 H
b1000 I
b0 J
b0 R
b101000 F
b10000000 K
1&
0'
b1000 +
b0 ,
b1010 -
b100000001010 )
b10000000 $
b1010 .
b100100000001011 8
b10001 X
b10001 t
b1110111 &"
b11101110111 9"
b111 :"
b0 !"
b111000010000000 $"
b1000 %"
b10000000 ?"
b10000000 D
b100100000001000 }
b1001 ~
b111000110000000 ="
b1010 >"
b100100000001001 4"
b1011 5"
b1110000111 r
b111001010000000 0"
b1100 1"
b1101 v
b100100000001010 u
b1110 x
b111001110000000 w
b10001 *"
1!
#17500
0!
#18000
16
13
05
0c
0/
0`
02
1^
1i
0V
0W
10
b0 \
b0 Z
b1000 [
b0 ]
b10000000 >
b1000 @
b11000 9
b10000000 ;
0j
b1000 m
b0 n
b10000000 f
b1001 o
b1001 d
1O
b10 P
b1000 Q
b101000 N
b10000000 S
0G
b1000 H
b0 I
b1010 J
b1010 R
b10000000 F
b1010 K
0&
1'
b11 +
b1000 ,
b0 -
b1110000000 )
b111000 $
b10000000 .
b10010 t
b0 &"
b111000010000000 9"
b1000 :"
b10000000 !"
b100100000001000 $"
b1001 %"
b10001 ?"
b10001 D
b111000110000000 }
b1010 ~
b100100000001001 ="
b1011 >"
b111001010000000 4"
b1100 5"
b11100000111 r
b100100000001010 0"
b1101 1"
b1110 v
b111001110000000 u
b1111 x
b100100000001011 w
b10010 *"
b0 C
b111010010000000 8
1!
#18500
0!
#19000
16
13
05
0/
1`
1c
0V
12
0^
0i
1W
00
0*
b1000 Z
b0 [
b1000 ]
b11000 >
b10000000 @
b10000000 9
b1001 ;
1j
b10 m
b1000 n
b101000 f
b10000000 o
b0 d
0O
b1000 P
b0 Q
b10000000 N
b1010 S
1G
b11 H
b1000 I
b0 J
b0 R
b111000 F
b10000000 K
1&
0'
b1000 +
b0 ,
b1011 -
b100000001011 )
b10000000 $
b1011 .
b100100000001100 8
b100010 X
b10011 t
b10000000 &"
b100100000001000 9"
b1001 :"
b10001 !"
b111000110000000 $"
b1010 %"
b10000000 ?"
b10000000 D
b100100000001001 }
b1011 ~
b111001010000000 ="
b1100 >"
b100100000001010 4"
b1101 5"
b11100001110 r
b111001110000000 0"
b1110 1"
b1111 v
b100100000001011 u
b10000 x
b111010010000000 w
b10011 *"
1!
#19500
0!
#20000
0`
0c
02
1^
1i
0W
10
b1 Z
b1000 [
b0 ]
b10000000 >
b1001 @
b101000 9
b10000000 ;
0j
b1000 m
b0 n
b10000000 f
b1010 o
b1010 d
1O
b11 P
b1000 Q
b111000 N
b10000000 S
0G
b1000 H
b0 I
b1011 J
b1011 R
b10000000 F
b1011 K
0&
1'
b100 +
b1000 ,
b0 -
b10010000000 )
b1001000 $
b10000000 .
b100100000001100 \
b10100 t
b10001 &"
b111000110000000 9"
b1010 :"
b10000000 !"
b100100000001001 $"
b1011 %"
b100010 ?"
b100010 D
b111001010000000 }
b1100 ~
b100100000001010 ="
b1101 >"
b111001110000000 4"
b1110 5"
b111000001110 r
b100100000001011 0"
b1111 1"
b10000 v
b111010010000000 u
b10001 x
b100100000001100 w
b10100 *"
b100100000001100 C
b111010110000000 8
1!
#20500
0!
#21000
16
13
05
0/
1`
1c
12
0^
0i
1W
00
0*
b10001 \
b1000 Z
b0 [
b1001 ]
b101000 >
b10000000 @
b10000000 9
b1010 ;
1j
b11 m
b1000 n
b111000 f
b10000000 o
b0 d
0O
b1000 P
b0 Q
b10000000 N
b1011 S
1G
b100 H
b1000 I
b0 J
b0 R
b1001000 F
b10000000 K
1&
0'
b1000 +
b0 ,
b1100 -
b100000001100 )
b10000000 $
b1100 .
b10001 C
b100100000001101 8
b110011 X
b10101 t
b10000000 &"
b100100000001001 9"
b1011 :"
b100010 !"
b111001010000000 $"
b1100 %"
b10000000 ?"
b10000000 D
b100100000001010 }
b1101 ~
b111001110000000 ="
b1110 >"
b100100000001011 4"
b1111 5"
b111000011100 r
b111010010000000 0"
b10000 1"
b10001 v
b100100000001100 u
b10010 x
b111010110000000 w
b10101 *"
1!
#21500
0!
#22000
0`
0c
02
1^
1i
0W
10
b10 Z
b1000 [
b0 ]
b10000000 >
b1010 @
b111000 9
b10000000 ;
0j
b1000 m
b0 n
b10000000 f
b1011 o
b1011 d
1O
b100 P
b1000 Q
b1001000 N
b10000000 S
0G
b1000 H
b0 I
b1100 J
b1100 R
b10000000 F
b1100 K
0&
1'
b101 +
b1000 ,
b0 -
b10110000000 )
b1011000 $
b10000000 .
bx \
b10110 t
b100010 &"
b111001010000000 9"
b1100 :"
b10000000 !"
b100100000001010 $"
b1101 %"
b110011 ?"
b110011 D
b111001110000000 }
b1110 ~
b100100000001011 ="
b1111 >"
b111010010000000 4"
b10000 5"
b1110000011100 r
b100100000001100 0"
b10001 1"
b10010 v
b111010110000000 u
b10011 x
b100100000001101 w
b10110 *"
bx C
b111011010000000 8
1!
#22500
0!
#23000
16
13
05
0/
1`
1c
12
0^
0i
1W
00
0*
b100010 \
b1000 Z
b0 [
b1010 ]
b111000 >
b10000000 @
b10000000 9
b1011 ;
1j
b100 m
b1000 n
b1001000 f
b10000000 o
b0 d
0O
b1000 P
b0 Q
b10000000 N
b1100 S
1G
b101 H
b1000 I
b0 J
b0 R
b1011000 F
b10000000 K
1&
0'
b1000 +
b0 ,
b1101 -
b100000001101 )
b10000000 $
b1101 .
b100010 C
b100100000001110 8
b0 Y
b1000100 X
b10111 t
b10000000 &"
b100100000001010 9"
b1101 :"
b110011 !"
b111001110000000 $"
b1110 %"
b10000000 ?"
b10000000 D
b100100000001011 }
b1111 ~
b111010010000000 ="
b10000 >"
b100100000001100 4"
b10001 5"
b1110000111000 r
b111010110000000 0"
b10010 1"
b10011 v
b100100000001101 u
b10100 x
b111011010000000 w
b10111 *"
1!
#23500
0!
#24000
0`
0c
02
1^
1i
0W
10
b11 Z
b1000 [
b0 ]
b10000000 >
b1011 @
b1001000 9
b10000000 ;
0j
b1000 m
b0 n
b10000000 f
b1100 o
b1100 d
1O
b101 P
b1000 Q
b1011000 N
b10000000 S
0G
b1000 H
b0 I
b1101 J
b1101 R
b10000000 F
b1101 K
0&
1'
b110 +
b1000 ,
b0 -
b11010000000 )
b1101000 $
b10000000 .
bx \
b11000 t
b110011 &"
b111001110000000 9"
b1110 :"
b10000000 !"
b100100000001011 $"
b1111 %"
b1000100 ?"
b1000100 D
b111010010000000 }
b10000 ~
b100100000001100 ="
b10001 >"
b111010110000000 4"
b10010 5"
b11100000111000 r
b100100000001101 0"
b10011 1"
b10100 v
b111011010000000 u
b10101 x
b100100000001110 w
b11000 *"
bx C
b111011110000000 8
1!
#24500
0!
#25000
16
13
05
0/
1`
1c
12
0^
0i
1W
00
0*
b110011 \
b1000 Z
b0 [
b1011 ]
b1001000 >
b10000000 @
b10000000 9
b1100 ;
1j
b101 m
b1000 n
b1011000 f
b10000000 o
b0 d
0O
b1000 P
b0 Q
b10000000 N
b1101 S
1G
b110 H
b1000 I
b0 J
b0 R
b1101000 F
b10000000 K
1&
0'
b1000 +
b0 ,
b1110 -
b100000001110 )
b10000000 $
b1110 .
b110011 C
b100100000001111 8
b1010101 X
b11001 t
b10000000 &"
b100100000001011 9"
b1111 :"
b1000100 !"
b111010010000000 $"
b10000 %"
b10000000 ?"
b10000000 D
b100100000001100 }
b10001 ~
b111010110000000 ="
b10010 >"
b100100000001101 4"
b10011 5"
b11100001110000 r
b111011010000000 0"
b10100 1"
b10101 v
b100100000001110 u
b10110 x
b111011110000000 w
b11001 *"
1!
#25500
0!
#26000
0`
0c
02
1^
1i
0W
10
b100 Z
b1000 [
b0 ]
b10000000 >
b1100 @
b1011000 9
b10000000 ;
0j
b1000 m
b0 n
b10000000 f
b1101 o
b1101 d
1O
b110 P
b1000 Q
b1101000 N
b10000000 S
0G
b1000 H
b0 I
b1110 J
b1110 R
b10000000 F
b1110 K
0&
1'
b111 +
b1000 ,
b0 -
b11110000000 )
b1111000 $
b10000000 .
bx \
b11010 t
b1000100 &"
b111010010000000 9"
b10000 :"
b10000000 !"
b100100000001100 $"
b10001 %"
b1010101 ?"
b1010101 D
b111010110000000 }
b10010 ~
b100100000001101 ="
b10011 >"
b111011010000000 4"
b10100 5"
b111000001110000 r
b100100000001110 0"
b10101 1"
b10110 v
b111011110000000 u
b10111 x
b100100000001111 w
b11010 *"
bx C
b11000000000000 8
1!
#26500
0!
#27000
16
13
05
0/
1`
1c
12
0^
0i
1W
00
0*
b1000100 \
b1000 Z
b0 [
b1100 ]
b1011000 >
b10000000 @
b10000000 9
b1101 ;
1j
b110 m
b1000 n
b1101000 f
b10000000 o
b0 d
0O
b1000 P
b0 Q
b10000000 N
b1110 S
1G
b111 H
b1000 I
b0 J
b0 R
b1111000 F
b10000000 K
1&
0'
b1000 +
b0 ,
b1111 -
b100000001111 )
b10000000 $
b1111 .
b1000100 C
bx 8
b1100110 X
b11011 t
b10000000 &"
b100100000001100 9"
b10001 :"
b1010101 !"
b111010110000000 $"
b10010 %"
b10000000 ?"
b10000000 D
b100100000001101 }
b10011 ~
b111011010000000 ="
b10100 >"
b100100000001110 4"
b10101 5"
b111000011100000 r
b111011110000000 0"
b10110 1"
b10111 v
b100100000001111 u
b11000 x
b11000000000000 w
b11011 *"
1!
#27500
0!
#28000
0`
0c
02
x6
1^
1i
0W
b101 Z
b1000 [
b0 ]
b10000000 >
b1101 @
b1101000 9
b10000000 ;
0j
b1000 m
b0 n
b10000000 f
b1110 o
b1110 d
1O
b111 P
b1000 Q
b1111000 N
b10000000 S
0G
b1000 H
b0 I
b1111 J
b1111 R
b10000000 F
b1111 K
0&
1#
b0 +
b0 -
b0 )
b0 $
b0 .
x7
bx \
b11100 t
b1010101 &"
b111010110000000 9"
b10010 :"
b10000000 !"
b100100000001101 $"
b10011 %"
b1100110 ?"
b1100110 D
b111011010000000 }
b10100 ~
b100100000001110 ="
b10101 >"
b111011110000000 4"
b10110 5"
b1110000011100000 r
b100100000001111 0"
b10111 1"
b11000 v
b11000000000000 u
b11001 x
bx w
b11100 *"
bx C
1!
#28500
0!
#29000
1`
1c
0^
0i
b1010101 \
b1000 Z
b0 [
b1101 ]
b1101000 >
b10000000 @
b10000000 9
b1110 ;
1j
b111 m
b1000 n
b1111000 f
b10000000 o
b0 d
0O
b1000 P
b0 Q
b10000000 N
b1111 S
b0 H
b0 J
b0 R
b0 F
b0 K
b1010101 C
b1110111 X
b11101 t
b1110000011000000 r
b10000000 &"
b100100000001101 9"
b10011 :"
b1100110 !"
b111011010000000 $"
b10100 %"
b10000000 ?"
b10000000 D
b100100000001110 }
b10101 ~
b111011110000000 ="
b10110 >"
b100100000001111 4"
b10111 5"
b11000000000000 0"
b11000 1"
b11010 x
1/"
b11101 *"
1!
#29500
0!
#30000
0`
0c
1^
1i
b110 Z
b1000 [
b0 ]
b10000000 >
b1110 @
b1111000 9
b10000000 ;
0j
b1000 m
b0 n
b10000000 f
b1111 o
b1111 d
b0 P
b0 N
b0 S
bx \
b11110 t
b1100000011000000 r
b1100110 &"
b111011010000000 9"
b10100 :"
b10000000 !"
b100100000001110 $"
b10101 %"
b1110111 ?"
b1110111 D
b111011110000000 }
b10110 ~
b100100000001111 ="
b10111 >"
b11000000000000 4"
b11000 5"
b11011 x
13"
b11110 *"
bx C
1!
#30500
0!
#31000
1`
1c
0^
0i
b1100110 \
b1000 Z
b0 [
b1110 ]
b1111000 >
b10000000 @
b10000000 9
b1111 ;
b0 m
b0 f
b0 o
b0 d
b1100110 C
b11111 t
b1100000010000000 r
b10000000 &"
b100100000001110 9"
b10101 :"
b1110111 !"
b111011110000000 $"
b10110 %"
b10000000 ?"
b10000000 D
b100100000001111 }
b10111 ~
b11000000000000 ="
b11000 >"
b11100 x
1<"
b11111 *"
1!
#31500
0!
#32000
0`
0c
1^
b111 Z
b1000 [
b0 ]
b10000000 >
b1111 @
b0 9
b0 ;
bx \
b100000 t
b1000000010000000 r
b1110111 &"
b111011110000000 9"
b10110 :"
b10000000 !"
b100100000001111 $"
b10111 %"
b0 ?"
b0 D
b11000000000000 }
b11000 ~
b11101 x
1|
b100000 *"
bx C
1!
#32500
0!
#33000
1`
1c
0^
b1110111 \
b1000 Z
b0 [
b1111 ]
b0 >
b0 @
b1110111 C
b100001 t
b1000000000000000 r
b10000000 &"
b100100000001111 9"
b10111 :"
b0 !"
b11000000000000 $"
b11000 %"
b11110 x
1#"
b100001 *"
1!
#33500
0!
#34000
0`
0c
b0 Z
b0 ]
b0 \
b100010 t
b0 r
b0 &"
b11000000000000 9"
b11000 :"
b11111 x
18"
b100010 *"
b0 C
1!
#34500
0!
#35000
b100011 t
b100000 x
b100011 *"
1!
