test5.vcd
$date
	Mon Dec  5 20:29:24 2016
$end
$version
	Icarus Verilog
$end
$timescale
	1ps
$end
$scope module main $end
$var wire 1 ! clk $end
$var wire 1 " d_global_predictor $end
$var wire 1 # d_halt $end
$var wire 16 $ d_ii [15:0] $end
$var wire 1 % d_is_jump $end
$var wire 1 & d_is_mem $end
$var wire 1 ' d_is_st $end
$var wire 1 ( d_is_x_jmp $end
$var wire 16 ) d_jjj [15:0] $end
$var wire 1 * d_mem_stall $end
$var wire 4 + d_ra [3:0] $end
$var wire 4 , d_rb [3:0] $end
$var wire 4 - d_rt [3:0] $end
$var wire 16 . d_s [15:0] $end
$var wire 1 / d_stall $end
$var wire 1 0 d_uses_ra $end
$var wire 1 1 d_uses_rb $end
$var wire 1 2 d_uses_rt $end
$var wire 1 3 d_v $end
$var wire 1 4 d_valid_inst $end
$var wire 1 5 f_stall $end
$var wire 1 6 f_v $end
$var wire 1 7 f_valid_inst $end
$var wire 16 8 inst [15:0] $end
$var wire 16 9 l0_ii [15:0] $end
$var wire 1 : l0_is_st $end
$var wire 16 ; l0_s [15:0] $end
$var wire 1 < l0_v $end
$var wire 1 = l0_valid_inst $end
$var wire 16 > l1_ii [15:0] $end
$var wire 1 ? l1_is_st $end
$var wire 16 @ l1_s [15:0] $end
$var wire 1 A l1_v $end
$var wire 1 B l1_valid_inst $end
$var wire 16 C memData [15:0] $end
$var wire 16 D memIn [15:0] $end
$var wire 1 E pc_mem_stall $end
$var wire 16 F r0_ii [15:0] $end
$var wire 1 G r0_is_st $end
$var wire 4 H r0_ra [3:0] $end
$var wire 4 I r0_rb [3:0] $end
$var wire 4 J r0_rt [3:0] $end
$var wire 16 K r0_s [15:0] $end
$var wire 1 L r0_v $end
$var wire 1 M r0_valid_inst $end
$var wire 16 N r1_ii [15:0] $end
$var wire 1 O r1_is_st $end
$var wire 4 P r1_ra [3:0] $end
$var wire 4 Q r1_rb [3:0] $end
$var wire 4 R r1_rt [3:0] $end
$var wire 16 S r1_s [15:0] $end
$var wire 1 T r1_v $end
$var wire 1 U r1_valid_inst $end
$var wire 1 V reg_stall $end
$var wire 1 W ren $end
$var wire 16 X va [15:0] $end
$var wire 16 Y vb [15:0] $end
$var wire 4 Z w_ra [3:0] $end
$var wire 4 [ w_rb [3:0] $end
$var wire 16 \ w_res [15:0] $end
$var wire 4 ] w_rt [3:0] $end
$var wire 1 ^ w_uses_ra $end
$var wire 1 _ w_uses_rb $end
$var wire 1 ` w_uses_rt $end
$var wire 1 a w_v $end
$var wire 1 b w_valid_inst $end
$var wire 1 c wen $end
$var wire 16 d x_d [15:0] $end
$var wire 1 e x_global_predictor $end
$var wire 16 f x_ii [15:0] $end
$var wire 1 g x_is_add $end
$var wire 1 h x_is_jump $end
$var wire 1 i x_is_mem $end
$var wire 1 j x_is_st $end
$var wire 1 k x_jmp_v $end
$var wire 1 l x_mem_stall $end
$var wire 4 m x_ra [3:0] $end
$var wire 4 n x_rb [3:0] $end
$var wire 16 o x_s [15:0] $end
$var wire 1 p x_v $end
$var wire 1 q x_valid_inst $end
$var reg 16 r busy [15:0] $end
$var reg 16 s correct_pc [15:0] $end
$var reg 16 t cycle [15:0] $end
$var reg 16 u d_inst [15:0] $end
$var reg 16 v d_pc [15:0] $end
$var reg 16 w f_inst [15:0] $end
$var reg 16 x f_pc [15:0] $end
$var reg 8 y history [7:0] $end
$var reg 8 z jmp_pattern [7:0] $end
$var reg 2 { jmp_stall_ctr [1:0] $end
$var reg 1 | l0_halt $end
$var reg 16 } l0_inst [15:0] $end
$var reg 16 ~ l0_pc [15:0] $end
$var reg 16 !" l0_res [15:0] $end
$var reg 1 "" l0_stall $end
$var reg 1 #" l1_halt $end
$var reg 16 $" l1_inst [15:0] $end
$var reg 16 %" l1_pc [15:0] $end
$var reg 16 &" l1_res [15:0] $end
$var reg 1 '" l1_stall $end
$var reg 32 (" last_was_cont [31:0] $end
$var reg 32 )" last_was_jump [31:0] $end
$var reg 16 *" pc [15:0] $end
$var reg 16 +" pc_no_jump [15:0] $end
$var reg 32 ," predictor_right [31:0] $end
$var reg 32 -" predictor_v [31:0] $end
$var reg 32 ." predictor_wrong [31:0] $end
$var reg 1 /" r0_halt $end
$var reg 16 0" r0_inst [15:0] $end
$var reg 16 1" r0_pc [15:0] $end
$var reg 1 2" r0_stall $end
$var reg 1 3" r1_halt $end
$var reg 16 4" r1_inst [15:0] $end
$var reg 16 5" r1_pc [15:0] $end
$var reg 1 6" r1_stall $end
$var reg 3 7" stall_ctr [2:0] $end
$var reg 1 8" w_halt $end
$var reg 16 9" w_inst [15:0] $end
$var reg 16 :" w_pc [15:0] $end
$var reg 1 ;" w_stall $end
$var reg 1 <" x_halt $end
$var reg 16 =" x_inst [15:0] $end
$var reg 16 >" x_pc [15:0] $end
$var reg 16 ?" x_res [15:0] $end
$var reg 1 @" x_stall $end
$upscope $end
$enddefinitions $end
#0
$dumpvars
0@"
bx ?"
bx >"
b1111111111111111 ="
0<"
0;"
bx :"
b1111111111111111 9"
08"
b0 7"
06"
bx 5"
b1111111111111111 4"
03"
02"
bx 1"
b1111111111111111 0"
0/"
b0 ."
b0 -"
b0 ,"
b0 +"
b0 *"
b0 )"
b0 ("
0'"
bx &"
bx %"
b1111111111111111 $"
0#"
0""
bx !"
bx ~
b1111111111111111 }
0|
b0 {
b0 z
b0 y
b0 x
b1111111111111111 w
bx v
b1111111111111111 u
b0 t
b1111111111111111 s
b0 r
0q
0p
b11111111 o
b1111 n
b1111 m
0l
0k
0j
0i
0h
0g
b11111111 f
xe
b1111 d
0c
0b
0a
0`
0_
0^
b1111 ]
bx \
b1111 [
b1111 Z
bx Y
bx X
0W
0V
0U
0T
b11111111 S
b1111 R
b1111 Q
b1111 P
0O
b11111111 N
0M
0L
b11111111 K
b1111 J
b1111 I
b1111 H
0G
b11111111 F
0E
bx D
bx C
0B
0A
b11111111 @
0?
b11111111 >
0=
0<
b11111111 ;
0:
b11111111 9
bx 8
07
06
05
04
03
02
01
00
0/
b11111111 .
b1111 -
b1111 ,
b1111 +
0*
b111111111111 )
0(
0'
0&
0%
b11111111 $
0#
x"
1!
$end
#500
0!
#1000
x7
b1 t
bx w
b1 *"
1!
#1500
0!
#2000
b10 t
b10 *"
b0 8
1!
#2500
0!
#3000
16
17
b10001 8
b11 t
b0 w
b11 *"
1!
#3500
0!
#4000
12
13
14
b0 +
b0 ,
b0 -
b0 )
b0 $
b0 .
b100 t
b0 v
0"
b0 u
b1 x
b10001 w
b100 *"
b1000000010 8
1!
#4500
0!
#5000
1L
1M
b0 H
b0 I
b0 J
b0 R
b0 F
b0 K
b1 ,
b1 -
b10001 )
b1 $
b10001 .
b110000000100011 8
b101 t
b1 r
b0 0"
b0 1"
b1 v
b10001 u
b10 x
b1000000010 w
b101 *"
1!
#5500
0!
#6000
1T
1U
b0 P
b0 Q
b0 N
b0 S
b1 I
b1 J
b1 R
b1 F
b10001 K
b10 +
b0 ,
b10 -
b1000000010 )
b100000 $
b10 .
b110 t
b0 4"
b0 5"
b11 r
b10001 0"
b1 1"
b10 v
b1000000010 u
b11 x
b110000000100011 w
b110 *"
b1000100000000 8
1!
#6500
0!
#7000
06
03
15
1/
1V
02
10
1p
11
1q
b0 m
b0 n
b0 f
b0 o
b0 d
b1 Q
b1 N
b10001 S
b10 H
b0 I
b10 J
b10 R
b100000 F
b10 K
1(
b0 +
b10 ,
b11 -
b100011 )
b10 $
b100011 .
b10000000000011 8
b111 t
b0 ="
b0 >"
0e
b10001 4"
b1 5"
b111 r
b1000000010 0"
b10 1"
b11 v
b110000000100011 u
b100 x
b1000100000000 w
b111 *"
1!
#7500
0!
#8000
1<
0L
1=
b0 9
b0 ;
b1 n
b1 f
b10001 o
b1 d
b10 P
b0 Q
b100000 N
b10 S
0M
b1111 H
b1111 I
b1111 J
b1111 R
b11111111 F
b11111111 K
07
b1000 t
b0 ?"
b0 D
b0 }
b0 ~
b10001 ="
b1 >"
b1000000010 4"
b10 5"
b1111111111111111 0"
b100 s
b1111111111111111 w
b101 7"
12"
b1000 *"
b1000000000000 8
1!
#8500
0!
#9000
1A
0T
1B
b0 >
b0 @
b1 9
b10001 ;
b10 m
b0 n
b100000 f
b10 o
b10 d
0U
b1111 P
b1111 Q
b11111111 N
b11111111 S
b11000000000000 8
b1001 t
b0 !"
b0 $"
b0 %"
b1 ?"
b1 D
b10001 }
b1 ~
b1000000010 ="
b10 >"
b1111111111111111 4"
b100 7"
16"
b1001 *"
1!
#9500
0!
#10000
1c
1`
1a
0p
1b
b0 Z
b0 [
b0 ]
b1 >
b10001 @
b100000 9
b10 ;
0q
b1111 m
b1111 n
b11111111 f
b11111111 o
b1111 d
b0 \
b1010 t
b0 &"
b0 9"
b0 :"
b1 !"
b10001 $"
b1 %"
b100000 ?"
b100000 D
b1000000010 }
b10 ~
b1111111111111111 ="
b11 7"
1@"
b100 *"
b0 C
bx 8
1!
#10500
0!
#11000
b1 \
b1 [
b1 ]
b100000 >
b10 @
0=
b11111111 9
b11111111 ;
x7
0<
b10001 C
b1011 t
b110 r
b1 &"
b10001 9"
b1 :"
b100000 !"
b1000000010 $"
b10 %"
b1111111111111111 }
b10 x
bx w
b10 7"
1""
b101 *"
1!
#11500
0!
#12000
b100000 \
b10 Z
b0 [
b10 ]
0B
b11111111 >
b11111111 @
0A
b1100 t
b100 r
b100000 &"
b1000000010 9"
b10 :"
b1111111111111111 $"
b11 x
b1 7"
1'"
b110 *"
bx C
b1000100000000 8
1!
#12500
0!
#13000
16
13
05
0/
0`
0V
bx \
0c
0b
b1111 Z
b1111 [
b1111 ]
17
0a
b10000000000011 8
b1101 t
b0 r
b1111111111111111 9"
b100 x
b1000100000000 w
b0 7"
1;"
b111 *"
1!
#13500
0!
#14000
06
03
15
1/
12
1V
1W
10
1L
11
1M
b0 H
b10 I
b11 J
b11 R
b10 F
b100011 K
0(
b1 +
b0 ,
b0 -
b100000000 )
b10000 $
b0 .
b1110 t
b101 r
b110000000100011 0"
b11 1"
b100 v
b1000100000000 u
b101 x
b10000000000011 w
02"
b1000 *"
b1000000000000 8
1!
#14500
0!
#15000
0W
1T
0L
1U
b0 P
b10 Q
b10 N
b100011 S
0M
b1111 H
b1111 I
b1111 J
b1111 R
b11111111 F
b11111111 K
07
b11000000000000 8
b1111 t
b110000000100011 4"
b11 5"
b1111111111111111 0"
b101 s
b1111111111111111 w
b101 7"
06"
12"
b1001 *"
1!
#15500
0!
#16000
0T
1p
1q
1h
b0 m
b10 n
b10 f
b100011 o
b11 d
0U
b1111 P
b1111 Q
b11111111 N
b11111111 S
b10000 t
b110000000100011 ="
b11 >"
b1111111111111111 4"
b100 7"
0@"
16"
b1010 *"
b100000 Y
b0 X
bx 8
1!
#16500
0!
#17000
1<
0p
1=
b10 9
b100011 ;
0q
0h
b1111 m
b1111 n
b11111111 f
b11111111 o
b1111 d
b10001 t
b1 ,"
b110000000100011 }
b11 ~
b1111111111111111 ="
b11 7"
0""
1@"
b101 *"
1!
#17500
0!
#18000
1A
1B
b10 >
b100011 @
0=
b11111111 9
b11111111 ;
x7
0<
b10010 t
b110000000100011 $"
b11 %"
b1111111111111111 }
b11 x
bx w
b10 7"
0'"
1""
b110 *"
1!
#18500
0!
#19000
1^
1a
1_
1b
b0 Z
b10 [
b11 ]
0B
b11111111 >
b11111111 @
0A
b10000000000011 8
b10011 t
b110000000100011 9"
b11 :"
b1111111111111111 $"
b100 x
b1 7"
0;"
1'"
b111 *"
1!
#19500
0!
#20000
16
13
05
0/
0V
0^
0_
0b
b1111 Z
b1111 [
b1111 ]
17
0a
b10100 t
b0 r
b1111111111111111 9"
b101 x
b10000000000011 w
b0 7"
1;"
b1000 *"
b1000000000000 8
1!
#20500
0!
#21000
16
13
05
0/
1W
02
00
0V
01
1L
1M
b1 H
b0 I
b0 J
b0 R
b10000 F
b0 K
1%
b0 +
b11 -
b11 )
b0 $
b11 .
b11000000000000 8
b10101 t
b11 r
b1000100000000 0"
b100 1"
b101 v
b10000000000011 u
b110 x
b1000000000000 w
02"
b1001 *"
1!
#21500
0!
#22000
0W
06
1T
0L
03
1U
b1 P
b0 Q
b10000 N
b0 S
15
1/
b1111 I
b1111 +
b1111 ,
b11111111 $
0M
b1111 H
b1111 J
b1111 R
b11111111 F
b11111111 K
04
0%
b1111 -
b111111111111 )
b11111111 .
07
b10110 t
b1000100000000 4"
b100 5"
b11 7"
b1111111111111111 0"
b101 1"
b110 v
b1111111111111111 u
b111 x
b1111111111111111 w
06"
b11 *"
bx 8
1!
#22500
0!
#23000
1g
0T
1p
1q
b1 m
b0 n
b10000 f
b0 o
b0 d
0U
b1111 P
b1111 Q
b11111111 N
b11111111 S
x7
b0 Y
b1 X
b10111 t
b1000100000000 ="
b100 >"
b1111111111111111 4"
b1 x
bx w
b10 7"
0@"
12"
b100 *"
1!
#23500
0!
#24000
1<
0p
0g
1=
b10000 9
b0 ;
0q
b1111 m
b1111 n
b11111111 f
b11111111 o
b1111 d
b11000 t
b1 ?"
b1 D
b1000100000000 }
b100 ~
b1111111111111111 ="
b10 x
b1 7"
0""
16"
b101 *"
b110000000100011 8
1!
#24500
0!
#25000
16
1A
0<
1B
b10000 >
b0 @
0=
b11111111 9
b11111111 ;
17
05
0/
b1000100000000 8
b11001 t
b1 !"
b1000100000000 $"
b100 %"
b1111111111111111 }
b11 x
b110000000100011 w
b0 7"
0'"
1@"
b110 *"
1!
#25500
0!
#26000
06
15
1/
1V
1c
1`
1^
1_
10
1a
0A
03
11
1b
b1 Z
b0 [
b0 ]
0B
b11111111 >
b11111111 @
14
1(
b0 +
b10 ,
b11 -
b100011 )
b10 $
b100011 .
b1 \
b11010 t
b1 &"
b1000100000000 9"
b100 :"
b1111111111111111 $"
b11 v
b110000000100011 u
b100 x
b1000100000000 w
0;"
1""
02"
b111 *"
b10001 C
b10000000000011 8
1!
#26500
0!
#27000
0c
0`
0^
0V
0_
b10001 \
0a
0b
b1111 Z
b1111 [
b1111 ]
07
b1000000000000 8
b11011 t
b0 r
b1111111111111111 9"
b100 s
b1111111111111111 w
b101 7"
1'"
06"
12"
b1000 *"
1!
#27500
0!
#28000
b11100 t
b100 7"
1;"
0@"
16"
b1001 *"
b11000000000000 8
1!
#28500
0!
#29000
bx 8
b11101 t
b11 7"
0""
1@"
b100 *"
1!
#29500
0!
#30000
x7
b11110 t
b10 x
bx w
b10 7"
0'"
1""
b101 *"
1!
#30500
0!
#31000
b1000100000000 8
b11111 t
b11 x
b1 7"
0;"
1'"
b110 *"
1!
#31500
0!
#32000
16
13
17
05
0/
b100000 t
b100 x
b1000100000000 w
b0 7"
1;"
b111 *"
b10000000000011 8
1!
#32500
0!
#33000
06
03
15
1/
12
1V
1W
10
1L
11
1M
b0 H
b10 I
b11 J
b11 R
b10 F
b100011 K
0(
b1 +
b0 ,
b0 -
b100000000 )
b10000 $
b0 .
b1000000000000 8
b100001 t
b101 r
b110000000100011 0"
b11 1"
b100 v
b1000100000000 u
b101 x
b10000000000011 w
02"
b1000 *"
1!
#33500
0!
#34000
0W
1T
0L
1U
b0 P
b10 Q
b10 N
b100011 S
0M
b1111 H
b1111 I
b1111 J
b1111 R
b11111111 F
b11111111 K
07
b100010 t
b110000000100011 4"
b11 5"
b1111111111111111 0"
b101 s
b1111111111111111 w
b101 7"
06"
12"
b1001 *"
b11000000000000 8
1!
#34500
0!
#35000
0T
1p
1q
1h
b0 m
b10 n
b10 f
b100011 o
b11 d
0U
b1111 P
b1111 Q
b11111111 N
b11111111 S
bx 8
b100000 Y
b100011 t
b110000000100011 ="
b11 >"
b1111111111111111 4"
b100 7"
0@"
16"
b1010 *"
1!
#35500
0!
#36000
1<
0p
1=
b10 9
b100011 ;
0q
0h
b1111 m
b1111 n
b11111111 f
b11111111 o
b1111 d
b100100 t
b10 ,"
b110000000100011 }
b11 ~
b1111111111111111 ="
b11 7"
0""
1@"
b101 *"
1!
#36500
0!
#37000
1A
1B
b10 >
b100011 @
0=
b11111111 9
b11111111 ;
x7
0<
b100101 t
b110000000100011 $"
b11 %"
b1111111111111111 }
b11 x
bx w
b10 7"
0'"
1""
b110 *"
1!
#37500
0!
#38000
1^
1a
1_
1b
b0 Z
b10 [
b11 ]
0B
b11111111 >
b11111111 @
0A
b100110 t
b110000000100011 9"
b11 :"
b1111111111111111 $"
b100 x
b1 7"
0;"
1'"
b111 *"
b10000000000011 8
1!
#38500
0!
#39000
16
13
05
0/
0V
0^
0_
0b
b1111 Z
b1111 [
b1111 ]
17
0a
b1000000000000 8
b100111 t
b0 r
b1111111111111111 9"
b101 x
b10000000000011 w
b0 7"
1;"
b1000 *"
1!
#39500
0!
#40000
16
13
05
0/
1W
02
00
0V
01
1L
1M
b1 H
b0 I
b0 J
b0 R
b10000 F
b0 K
1%
b0 +
b11 -
b11 )
b0 $
b11 .
b101000 t
b11 r
b1000100000000 0"
b100 1"
b101 v
b10000000000011 u
b110 x
b1000000000000 w
02"
b1001 *"
b11000000000000 8
1!
#40500
0!
#41000
0W
06
1T
0L
03
1U
b1 P
b0 Q
b10000 N
b0 S
15
1/
b1111 I
b1111 +
b1111 ,
b11111111 $
0M
b1111 H
b1111 J
b1111 R
b11111111 F
b11111111 K
04
0%
b1111 -
b111111111111 )
b11111111 .
07
bx 8
b101001 t
b1000100000000 4"
b100 5"
b11 7"
b1111111111111111 0"
b101 1"
b110 v
b1111111111111111 u
b111 x
b1111111111111111 w
06"
b11 *"
1!
#41500
0!
#42000
1g
0T
1p
1q
b1 m
b0 n
b10000 f
b0 o
b0 d
0U
b1111 P
b1111 Q
b11111111 N
b11111111 S
x7
b101010 t
b1000100000000 ="
b100 >"
b1111111111111111 4"
b1 x
bx w
b10 7"
0@"
12"
b100 *"
b1 Y
1!
#42500
0!
#43000
1<
0p
0g
1=
b10000 9
b0 ;
0q
b1111 m
b1111 n
b11111111 f
b11111111 o
b1111 d
b110000000100011 8
b101011 t
b10 ?"
b10 D
b1000100000000 }
b100 ~
b1111111111111111 ="
b10 x
b1 7"
0""
16"
b101 *"
1!
#43500
0!
#44000
16
1A
0<
1B
b10000 >
b0 @
0=
b11111111 9
b11111111 ;
17
05
0/
b101100 t
b10 !"
b1000100000000 $"
b100 %"
b1111111111111111 }
b11 x
b110000000100011 w
b0 7"
0'"
1@"
b110 *"
b1000100000000 8
1!
#44500
0!
#45000
06
15
1/
1V
1c
1`
1^
1_
10
1a
0A
03
11
b10 \
1b
b1 Z
b0 [
b0 ]
0B
b11111111 >
b11111111 @
14
1(
b0 +
b10 ,
b11 -
b100011 )
b10 $
b100011 .
b1000000010 C
b10000000000011 8
b101101 t
b10 &"
b1000100000000 9"
b100 :"
b1111111111111111 $"
b11 v
b110000000100011 u
b100 x
b1000100000000 w
0;"
1""
02"
b111 *"
1!
#45500
0!
#46000
0c
0`
0^
0V
0_
b1000000010 \
0a
0b
b1111 Z
b1111 [
b1111 ]
07
b101110 t
b0 r
b1111111111111111 9"
b100 s
b1111111111111111 w
b101 7"
1'"
06"
12"
b1000 *"
b1000000000000 8
1!
#46500
0!
#47000
b11000000000000 8
b101111 t
b100 7"
1;"
0@"
16"
b1001 *"
1!
#47500
0!
#48000
b110000 t
b11 7"
0""
1@"
b100 *"
bx 8
1!
#48500
0!
#49000
x7
b110001 t
b10 x
bx w
b10 7"
0'"
1""
b101 *"
1!
#49500
0!
#50000
b110010 t
b11 x
b1 7"
0;"
1'"
b110 *"
b1000100000000 8
1!
#50500
0!
#51000
16
13
17
05
0/
b10000000000011 8
b110011 t
b100 x
b1000100000000 w
b0 7"
1;"
b111 *"
1!
#51500
0!
#52000
06
03
15
1/
12
1V
1W
10
1L
11
1M
b0 H
b10 I
b11 J
b11 R
b10 F
b100011 K
0(
b1 +
b0 ,
b0 -
b100000000 )
b10000 $
b0 .
b110100 t
b101 r
b110000000100011 0"
b11 1"
b100 v
b1000100000000 u
b101 x
b10000000000011 w
02"
b1000 *"
b1000000000000 8
1!
#52500
0!
#53000
0W
1T
0L
1U
b0 P
b10 Q
b10 N
b100011 S
0M
b1111 H
b1111 I
b1111 J
b1111 R
b11111111 F
b11111111 K
07
b11000000000000 8
b110101 t
b110000000100011 4"
b11 5"
b1111111111111111 0"
b101 s
b1111111111111111 w
b101 7"
06"
12"
b1001 *"
1!
#53500
0!
#54000
0T
1p
1q
1h
b0 m
b10 n
b10 f
b100011 o
b11 d
0U
b1111 P
b1111 Q
b11111111 N
b11111111 S
b110110 t
b110000000100011 ="
b11 >"
b1111111111111111 4"
b100 7"
0@"
16"
b1010 *"
b100000 Y
b10 X
bx 8
1!
#54500
0!
#55000
1<
0p
1=
b10 9
b100011 ;
0q
0h
b1111 m
b1111 n
b11111111 f
b11111111 o
b1111 d
b110111 t
b11 ,"
b110000000100011 }
b11 ~
b1111111111111111 ="
b11 7"
0""
1@"
b101 *"
1!
#55500
0!
#56000
1A
1B
b10 >
b100011 @
0=
b11111111 9
b11111111 ;
x7
0<
b111000 t
b110000000100011 $"
b11 %"
b1111111111111111 }
b11 x
bx w
b10 7"
0'"
1""
b110 *"
1!
#56500
0!
#57000
1^
1a
1_
1b
b0 Z
b10 [
b11 ]
0B
b11111111 >
b11111111 @
0A
b10000000000011 8
b111001 t
b110000000100011 9"
b11 :"
b1111111111111111 $"
b100 x
b1 7"
0;"
1'"
b111 *"
1!
#57500
0!
#58000
16
13
05
0/
0V
0^
0_
0b
b1111 Z
b1111 [
b1111 ]
17
0a
b111010 t
b0 r
b1111111111111111 9"
b101 x
b10000000000011 w
b0 7"
1;"
b1000 *"
b1000000000000 8
1!
#58500
0!
#59000
16
13
05
0/
1W
02
00
0V
01
1L
1M
b1 H
b0 I
b0 J
b0 R
b10000 F
b0 K
1%
b0 +
b11 -
b11 )
b0 $
b11 .
b11000000000000 8
b111011 t
b11 r
b1000100000000 0"
b100 1"
b101 v
b10000000000011 u
b110 x
b1000000000000 w
02"
b1001 *"
1!
#59500
0!
#60000
0W
06
1T
0L
03
1U
b1 P
b0 Q
b10000 N
b0 S
15
1/
b1111 I
b1111 +
b1111 ,
b11111111 $
0M
b1111 H
b1111 J
b1111 R
b11111111 F
b11111111 K
04
0%
b1111 -
b111111111111 )
b11111111 .
07
b111100 t
b1000100000000 4"
b100 5"
b11 7"
b1111111111111111 0"
b101 1"
b110 v
b1111111111111111 u
b111 x
b1111111111111111 w
06"
b11 *"
bx 8
1!
#60500
0!
#61000
1g
0T
1p
1q
b1 m
b0 n
b10000 f
b0 o
b0 d
0U
b1111 P
b1111 Q
b11111111 N
b11111111 S
x7
b10 Y
b1 X
b111101 t
b1000100000000 ="
b100 >"
b1111111111111111 4"
b1 x
bx w
b10 7"
0@"
12"
b100 *"
1!
#61500
0!
#62000
1<
0p
0g
1=
b10000 9
b0 ;
0q
b1111 m
b1111 n
b11111111 f
b11111111 o
b1111 d
b111110 t
b11 ?"
b11 D
b1000100000000 }
b100 ~
b1111111111111111 ="
b10 x
b1 7"
0""
16"
b101 *"
b110000000100011 8
1!
#62500
0!
#63000
16
1A
0<
1B
b10000 >
b0 @
0=
b11111111 9
b11111111 ;
17
05
0/
b1000100000000 8
b111111 t
b11 !"
b1000100000000 $"
b100 %"
b1111111111111111 }
b11 x
b110000000100011 w
b0 7"
0'"
1@"
b110 *"
1!
#63500
0!
#64000
06
15
1/
1V
1c
1`
1^
1_
10
1a
0A
03
11
1b
b1 Z
b0 [
b0 ]
0B
b11111111 >
b11111111 @
14
1(
b0 +
b10 ,
b11 -
b100011 )
b10 $
b100011 .
b11 \
b1000000 t
b11 &"
b1000100000000 9"
b100 :"
b1111111111111111 $"
b11 v
b110000000100011 u
b100 x
b1000100000000 w
0;"
1""
02"
b111 *"
b110000000100011 C
b10000000000011 8
1!
#64500
0!
#65000
0c
0`
0^
0V
0_
b110000000100011 \
0a
0b
b1111 Z
b1111 [
b1111 ]
07
b1000000000000 8
b1000001 t
b0 r
b1111111111111111 9"
b100 s
b1111111111111111 w
b101 7"
1'"
06"
12"
b1000 *"
1!
#65500
0!
#66000
b1000010 t
b100 7"
1;"
0@"
16"
b1001 *"
b11000000000000 8
1!
#66500
0!
#67000
bx 8
b1000011 t
b11 7"
0""
1@"
b100 *"
1!
#67500
0!
#68000
x7
b1000100 t
b10 x
bx w
b10 7"
0'"
1""
b101 *"
1!
#68500
0!
#69000
b1000100000000 8
b1000101 t
b11 x
b1 7"
0;"
1'"
b110 *"
1!
#69500
0!
#70000
16
13
17
05
0/
b1000110 t
b100 x
b1000100000000 w
b0 7"
1;"
b111 *"
b10000000000011 8
1!
#70500
0!
#71000
06
03
15
1/
12
1V
1W
10
1L
11
1M
b0 H
b10 I
b11 J
b11 R
b10 F
b100011 K
0(
b1 +
b0 ,
b0 -
b100000000 )
b10000 $
b0 .
b1000000000000 8
b1000111 t
b101 r
b110000000100011 0"
b11 1"
b100 v
b1000100000000 u
b101 x
b10000000000011 w
02"
b1000 *"
1!
#71500
0!
#72000
0W
1T
0L
1U
b0 P
b10 Q
b10 N
b100011 S
0M
b1111 H
b1111 I
b1111 J
b1111 R
b11111111 F
b11111111 K
07
b1001000 t
b110000000100011 4"
b11 5"
b1111111111111111 0"
b101 s
b1111111111111111 w
b101 7"
06"
12"
b1001 *"
b11000000000000 8
1!
#72500
0!
#73000
0T
1p
1q
1h
b0 m
b10 n
b10 f
b100011 o
b11 d
0U
b1111 P
b1111 Q
b11111111 N
b11111111 S
bx 8
b100000 Y
b11 X
b1001001 t
b110000000100011 ="
b11 >"
b1111111111111111 4"
b100 7"
0@"
16"
b1010 *"
1!
#73500
0!
#74000
1<
0p
1=
b10 9
b100011 ;
0q
0h
b1111 m
b1111 n
b11111111 f
b11111111 o
b1111 d
b1001010 t
b100 ,"
b110000000100011 }
b11 ~
b1111111111111111 ="
b11 7"
0""
1@"
b101 *"
1!
#74500
0!
#75000
1A
1B
b10 >
b100011 @
0=
b11111111 9
b11111111 ;
x7
0<
b1001011 t
b110000000100011 $"
b11 %"
b1111111111111111 }
b11 x
bx w
b10 7"
0'"
1""
b110 *"
1!
#75500
0!
#76000
1^
1a
1_
1b
b0 Z
b10 [
b11 ]
0B
b11111111 >
b11111111 @
0A
b1001100 t
b110000000100011 9"
b11 :"
b1111111111111111 $"
b100 x
b1 7"
0;"
1'"
b111 *"
b10000000000011 8
1!
#76500
0!
#77000
16
13
05
0/
0V
0^
0_
0b
b1111 Z
b1111 [
b1111 ]
17
0a
b1000000000000 8
b1001101 t
b0 r
b1111111111111111 9"
b101 x
b10000000000011 w
b0 7"
1;"
b1000 *"
1!
#77500
0!
#78000
16
13
05
0/
1W
02
00
0V
01
1L
1M
b1 H
b0 I
b0 J
b0 R
b10000 F
b0 K
1%
b0 +
b11 -
b11 )
b0 $
b11 .
b1001110 t
b11 r
b1000100000000 0"
b100 1"
b101 v
b10000000000011 u
b110 x
b1000000000000 w
02"
b1001 *"
b11000000000000 8
1!
#78500
0!
#79000
0W
06
1T
0L
03
1U
b1 P
b0 Q
b10000 N
b0 S
15
1/
b1111 I
b1111 +
b1111 ,
b11111111 $
0M
b1111 H
b1111 J
b1111 R
b11111111 F
b11111111 K
04
0%
b1111 -
b111111111111 )
b11111111 .
07
bx 8
b1001111 t
b1000100000000 4"
b100 5"
b11 7"
b1111111111111111 0"
b101 1"
b110 v
b1111111111111111 u
b111 x
b1111111111111111 w
06"
b11 *"
1!
#79500
0!
#80000
1g
0T
1p
1q
b1 m
b0 n
b10000 f
b0 o
b0 d
0U
b1111 P
b1111 Q
b11111111 N
b11111111 S
x7
b1010000 t
b1000100000000 ="
b100 >"
b1111111111111111 4"
b1 x
bx w
b10 7"
0@"
12"
b100 *"
b11 Y
b1 X
1!
#80500
0!
#81000
1<
0p
0g
1=
b10000 9
b0 ;
0q
b1111 m
b1111 n
b11111111 f
b11111111 o
b1111 d
b110000000100011 8
b1010001 t
b100 ?"
b100 D
b1000100000000 }
b100 ~
b1111111111111111 ="
b10 x
b1 7"
0""
16"
b101 *"
1!
#81500
0!
#82000
16
1A
0<
1B
b10000 >
b0 @
0=
b11111111 9
b11111111 ;
17
05
0/
b1010010 t
b100 !"
b1000100000000 $"
b100 %"
b1111111111111111 }
b11 x
b110000000100011 w
b0 7"
0'"
1@"
b110 *"
b1000100000000 8
1!
#82500
0!
#83000
06
15
1/
1V
1c
1`
1^
1_
10
1a
0A
03
11
b100 \
1b
b1 Z
b0 [
b0 ]
0B
b11111111 >
b11111111 @
14
1(
b0 +
b10 ,
b11 -
b100011 )
b10 $
b100011 .
b1000100000000 C
b10000000000011 8
b1010011 t
b100 &"
b1000100000000 9"
b100 :"
b1111111111111111 $"
b11 v
b110000000100011 u
b100 x
b1000100000000 w
0;"
1""
02"
b111 *"
1!
#83500
0!
#84000
0c
0`
0^
0V
0_
b1000100000000 \
0a
0b
b1111 Z
b1111 [
b1111 ]
07
b1010100 t
b0 r
b1111111111111111 9"
b100 s
b1111111111111111 w
b101 7"
1'"
06"
12"
b1000 *"
b1000000000000 8
1!
#84500
0!
#85000
b11000000000000 8
b1010101 t
b100 7"
1;"
0@"
16"
b1001 *"
1!
#85500
0!
#86000
b1010110 t
b11 7"
0""
1@"
b100 *"
bx 8
1!
#86500
0!
#87000
x7
b1010111 t
b10 x
bx w
b10 7"
0'"
1""
b101 *"
1!
#87500
0!
#88000
b1011000 t
b11 x
b1 7"
0;"
1'"
b110 *"
b1000100000000 8
1!
#88500
0!
#89000
16
13
17
05
0/
b10000000000011 8
b1011001 t
b100 x
b1000100000000 w
b0 7"
1;"
b111 *"
1!
#89500
0!
