testf.vcd
$date
	Mon Dec  5 20:29:24 2016
$end
$version
	Icarus Verilog
$end
$timescale
	1ps
$end
$scope module main $end
$var wire 1 ! clk $end
$var wire 1 " d_global_predictor $end
$var wire 1 # d_halt $end
$var wire 16 $ d_ii [15:0] $end
$var wire 1 % d_is_jump $end
$var wire 1 & d_is_mem $end
$var wire 1 ' d_is_st $end
$var wire 1 ( d_is_x_jmp $end
$var wire 16 ) d_jjj [15:0] $end
$var wire 1 * d_mem_stall $end
$var wire 4 + d_ra [3:0] $end
$var wire 4 , d_rb [3:0] $end
$var wire 4 - d_rt [3:0] $end
$var wire 16 . d_s [15:0] $end
$var wire 1 / d_stall $end
$var wire 1 0 d_uses_ra $end
$var wire 1 1 d_uses_rb $end
$var wire 1 2 d_uses_rt $end
$var wire 1 3 d_v $end
$var wire 1 4 d_valid_inst $end
$var wire 1 5 f_stall $end
$var wire 1 6 f_v $end
$var wire 1 7 f_valid_inst $end
$var wire 16 8 inst [15:0] $end
$var wire 16 9 l0_ii [15:0] $end
$var wire 1 : l0_is_st $end
$var wire 16 ; l0_s [15:0] $end
$var wire 1 < l0_v $end
$var wire 1 = l0_valid_inst $end
$var wire 16 > l1_ii [15:0] $end
$var wire 1 ? l1_is_st $end
$var wire 16 @ l1_s [15:0] $end
$var wire 1 A l1_v $end
$var wire 1 B l1_valid_inst $end
$var wire 16 C memData [15:0] $end
$var wire 16 D memIn [15:0] $end
$var wire 1 E pc_mem_stall $end
$var wire 16 F r0_ii [15:0] $end
$var wire 1 G r0_is_st $end
$var wire 4 H r0_ra [3:0] $end
$var wire 4 I r0_rb [3:0] $end
$var wire 4 J r0_rt [3:0] $end
$var wire 16 K r0_s [15:0] $end
$var wire 1 L r0_v $end
$var wire 1 M r0_valid_inst $end
$var wire 16 N r1_ii [15:0] $end
$var wire 1 O r1_is_st $end
$var wire 4 P r1_ra [3:0] $end
$var wire 4 Q r1_rb [3:0] $end
$var wire 4 R r1_rt [3:0] $end
$var wire 16 S r1_s [15:0] $end
$var wire 1 T r1_v $end
$var wire 1 U r1_valid_inst $end
$var wire 1 V reg_stall $end
$var wire 1 W ren $end
$var wire 16 X va [15:0] $end
$var wire 16 Y vb [15:0] $end
$var wire 4 Z w_ra [3:0] $end
$var wire 4 [ w_rb [3:0] $end
$var wire 16 \ w_res [15:0] $end
$var wire 4 ] w_rt [3:0] $end
$var wire 1 ^ w_uses_ra $end
$var wire 1 _ w_uses_rb $end
$var wire 1 ` w_uses_rt $end
$var wire 1 a w_v $end
$var wire 1 b w_valid_inst $end
$var wire 1 c wen $end
$var wire 16 d x_d [15:0] $end
$var wire 1 e x_global_predictor $end
$var wire 16 f x_ii [15:0] $end
$var wire 1 g x_is_add $end
$var wire 1 h x_is_jump $end
$var wire 1 i x_is_mem $end
$var wire 1 j x_is_st $end
$var wire 1 k x_jmp_v $end
$var wire 1 l x_mem_stall $end
$var wire 4 m x_ra [3:0] $end
$var wire 4 n x_rb [3:0] $end
$var wire 16 o x_s [15:0] $end
$var wire 1 p x_v $end
$var wire 1 q x_valid_inst $end
$var reg 16 r busy [15:0] $end
$var reg 16 s correct_pc [15:0] $end
$var reg 16 t cycle [15:0] $end
$var reg 16 u d_inst [15:0] $end
$var reg 16 v d_pc [15:0] $end
$var reg 16 w f_inst [15:0] $end
$var reg 16 x f_pc [15:0] $end
$var reg 8 y history [7:0] $end
$var reg 8 z jmp_pattern [7:0] $end
$var reg 2 { jmp_stall_ctr [1:0] $end
$var reg 1 | l0_halt $end
$var reg 16 } l0_inst [15:0] $end
$var reg 16 ~ l0_pc [15:0] $end
$var reg 16 !" l0_res [15:0] $end
$var reg 1 "" l0_stall $end
$var reg 1 #" l1_halt $end
$var reg 16 $" l1_inst [15:0] $end
$var reg 16 %" l1_pc [15:0] $end
$var reg 16 &" l1_res [15:0] $end
$var reg 1 '" l1_stall $end
$var reg 32 (" last_was_cont [31:0] $end
$var reg 32 )" last_was_jump [31:0] $end
$var reg 16 *" pc [15:0] $end
$var reg 16 +" pc_no_jump [15:0] $end
$var reg 32 ," predictor_right [31:0] $end
$var reg 32 -" predictor_v [31:0] $end
$var reg 32 ." predictor_wrong [31:0] $end
$var reg 1 /" r0_halt $end
$var reg 16 0" r0_inst [15:0] $end
$var reg 16 1" r0_pc [15:0] $end
$var reg 1 2" r0_stall $end
$var reg 1 3" r1_halt $end
$var reg 16 4" r1_inst [15:0] $end
$var reg 16 5" r1_pc [15:0] $end
$var reg 1 6" r1_stall $end
$var reg 3 7" stall_ctr [2:0] $end
$var reg 1 8" w_halt $end
$var reg 16 9" w_inst [15:0] $end
$var reg 16 :" w_pc [15:0] $end
$var reg 1 ;" w_stall $end
$var reg 1 <" x_halt $end
$var reg 16 =" x_inst [15:0] $end
$var reg 16 >" x_pc [15:0] $end
$var reg 16 ?" x_res [15:0] $end
$var reg 1 @" x_stall $end
$upscope $end
$enddefinitions $end
#0
$dumpvars
0@"
bx ?"
bx >"
b1111111111111111 ="
0<"
0;"
bx :"
b1111111111111111 9"
08"
b0 7"
06"
bx 5"
b1111111111111111 4"
03"
02"
bx 1"
b1111111111111111 0"
0/"
b0 ."
b0 -"
b0 ,"
b0 +"
b0 *"
b0 )"
b0 ("
0'"
bx &"
bx %"
b1111111111111111 $"
0#"
0""
bx !"
bx ~
b1111111111111111 }
0|
b0 {
b0 z
b0 y
b0 x
b1111111111111111 w
bx v
b1111111111111111 u
b0 t
b1111111111111111 s
b0 r
0q
0p
b11111111 o
b1111 n
b1111 m
0l
0k
0j
0i
0h
0g
b11111111 f
xe
b1111 d
0c
0b
0a
0`
0_
0^
b1111 ]
bx \
b1111 [
b1111 Z
bx Y
bx X
0W
0V
0U
0T
b11111111 S
b1111 R
b1111 Q
b1111 P
0O
b11111111 N
0M
0L
b11111111 K
b1111 J
b1111 I
b1111 H
0G
b11111111 F
0E
bx D
bx C
0B
0A
b11111111 @
0?
b11111111 >
0=
0<
b11111111 ;
0:
b11111111 9
bx 8
07
06
05
04
03
02
01
00
0/
b11111111 .
b1111 -
b1111 ,
b1111 +
0*
b111111111111 )
0(
0'
0&
0%
b11111111 $
0#
x"
1!
$end
#500
0!
#1000
x7
b1 t
bx w
b1 *"
1!
#1500
0!
#2000
b10 t
b10 *"
b100000000000000 8
1!
#2500
0!
#3000
16
17
b100000000010000 8
b11 t
b100000000000000 w
b11 *"
1!
#3500
0!
#4000
12
13
14
1&
b0 +
b0 ,
b0 -
b0 )
b0 $
b0 .
b100 t
b0 v
0"
b100000000000000 u
b1 x
b100000000010000 w
b100 *"
b100000000100000 8
1!
#4500
0!
#5000
06
03
15
1/
1V
1L
1M
b0 H
b0 I
b0 J
b0 R
b0 F
b0 K
b1 ,
b10000 )
b1 $
b10000 .
b100000000110000 8
b101 t
b1 r
b100000000000000 0"
b0 1"
b1 v
b100000000010000 u
b10 x
b100000000100000 w
b101 *"
1!
#5500
0!
#6000
1T
0L
1U
b0 P
b0 Q
b0 N
b0 S
0M
b1111 H
b1111 I
b1111 J
b1111 R
b11111111 F
b11111111 K
07
b110 t
b100000000000000 4"
b0 5"
b1111111111111111 0"
b10 s
b1111111111111111 w
b101 7"
12"
b110 *"
b100000001000000 8
1!
#6500
0!
#7000
1p
1i
0T
1q
b0 m
b0 n
b0 f
b0 o
b0 d
0U
b1111 P
b1111 Q
b11111111 N
b11111111 S
b100000001010000 8
b111 t
b100000000000000 ="
b0 >"
0e
b1111111111111111 4"
b100 7"
16"
b111 *"
1!
#7500
0!
#8000
1<
0i
0p
1=
b0 9
b0 ;
0q
b1111 m
b1111 n
b11111111 f
b11111111 o
b1111 d
b1000 t
b0 ?"
b0 D
b100000000000000 }
b0 ~
b1111111111111111 ="
b11 7"
1@"
b10 *"
b100000001100000 8
1!
#8500
0!
#9000
1A
1B
b0 >
b0 @
0=
b11111111 9
b11111111 ;
17
0<
b100000001110000 8
b1001 t
b0 !"
b100000000000000 $"
b0 %"
b1111111111111111 }
b0 x
b100000001100000 w
b10 7"
1""
b11 *"
1!
#9500
0!
#10000
1c
1`
1a
1b
b0 Z
b0 [
b0 ]
0B
b11111111 >
b11111111 @
0A
b100000000000000 \
b1010 t
b0 &"
b100000000000000 9"
b0 :"
b1111111111111111 $"
b1 x
b100000001110000 w
b1 7"
1'"
b100 *"
b100000000000000 C
b100000000100000 8
1!
#10500
0!
#11000
16
13
05
0/
0`
0V
0c
0b
b1111 Z
b1111 [
b1111 ]
0a
b100000000110000 8
b1011 t
b0 r
b1111111111111111 9"
b10 x
b100000000100000 w
b0 7"
1;"
b101 *"
1!
#11500
0!
#12000
06
03
15
1/
1V
1L
1M
b0 H
b1 I
b0 J
b0 R
b1 F
b10000 K
b10 ,
b100000 )
b10 $
b100000 .
b1100 t
b1 r
b100000000010000 0"
b1 1"
b10 v
b100000000100000 u
b11 x
b100000000110000 w
02"
b110 *"
b100000001000000 8
1!
#12500
0!
#13000
1T
0L
1U
b0 P
b1 Q
b1 N
b10000 S
0M
b1111 H
b1111 I
b1111 J
b1111 R
b11111111 F
b11111111 K
07
b100000001010000 8
b1101 t
b100000000010000 4"
b1 5"
b1111111111111111 0"
b11 s
b1111111111111111 w
b101 7"
06"
12"
b111 *"
1!
#13500
0!
#14000
1i
0T
1p
1q
b0 m
b1 n
b1 f
b10000 o
b0 d
0U
b1111 P
b1111 Q
b11111111 N
b11111111 S
b1110 t
b100000000010000 ="
b1 >"
b1111111111111111 4"
b100 7"
0@"
16"
b1000 *"
b100000001100000 8
1!
#14500
0!
#15000
1<
0i
0p
1=
b1 9
b10000 ;
0q
b1111 m
b1111 n
b11111111 f
b11111111 o
b1111 d
b100000001110000 8
b1111 t
b1 ?"
b1 D
b100000000010000 }
b1 ~
b1111111111111111 ="
b11 7"
0""
1@"
b11 *"
1!
#15500
0!
#16000
1A
1B
b1 >
b10000 @
0=
b11111111 9
b11111111 ;
17
0<
b10000 t
b1 !"
b100000000010000 $"
b1 %"
b1111111111111111 }
b1 x
b100000001110000 w
b10 7"
0'"
1""
b100 *"
b100000010000000 8
1!
#16500
0!
#17000
1c
1`
1a
b100000000010000 \
1b
b0 Z
b1 [
b0 ]
0B
b11111111 >
b11111111 @
0A
b100000000010000 C
b100000000110000 8
b10001 t
b1 &"
b100000000010000 9"
b1 :"
b1111111111111111 $"
b10 x
b100000010000000 w
b1 7"
0;"
1'"
b101 *"
1!
#17500
0!
#18000
16
13
05
0/
0`
0V
0c
0b
b1111 Z
b1111 [
b1111 ]
0a
b10010 t
b0 r
b1111111111111111 9"
b11 x
b100000000110000 w
b0 7"
1;"
b110 *"
b100000001000000 8
1!
#18500
0!
#19000
06
03
15
1/
1V
1L
1M
b0 H
b10 I
b0 J
b0 R
b10 F
b100000 K
b11 ,
b110000 )
b11 $
b110000 .
b100000001010000 8
b10011 t
b1 r
b100000000100000 0"
b10 1"
b11 v
b100000000110000 u
b100 x
b100000001000000 w
02"
b111 *"
1!
#19500
0!
#20000
1T
0L
1U
b0 P
b10 Q
b10 N
b100000 S
0M
b1111 H
b1111 I
b1111 J
b1111 R
b11111111 F
b11111111 K
07
b10100 t
b100000000100000 4"
b10 5"
b1111111111111111 0"
b100 s
b1111111111111111 w
b101 7"
06"
12"
b1000 *"
b100000001100000 8
1!
#20500
0!
#21000
1i
0T
1p
1q
b0 m
b10 n
b10 f
b100000 o
b0 d
0U
b1111 P
b1111 Q
b11111111 N
b11111111 S
b100000001110000 8
b10101 t
b100000000100000 ="
b10 >"
b1111111111111111 4"
b100 7"
0@"
16"
b1001 *"
1!
#21500
0!
#22000
1<
0i
0p
1=
b10 9
b100000 ;
0q
b1111 m
b1111 n
b11111111 f
b11111111 o
b1111 d
b10110 t
b10 ?"
b10 D
b100000000100000 }
b10 ~
b1111111111111111 ="
b11 7"
0""
1@"
b100 *"
b100000010000000 8
1!
#22500
0!
#23000
1A
1B
b10 >
b100000 @
0=
b11111111 9
b11111111 ;
17
0<
b100000010010000 8
b10111 t
b10 !"
b100000000100000 $"
b10 %"
b1111111111111111 }
b10 x
b100000010000000 w
b10 7"
0'"
1""
b101 *"
1!
#23500
0!
#24000
1c
1`
1a
1b
b0 Z
b10 [
b0 ]
0B
b11111111 >
b11111111 @
0A
b100000000100000 \
b11000 t
b10 &"
b100000000100000 9"
b10 :"
b1111111111111111 $"
b11 x
b100000010010000 w
b1 7"
0;"
1'"
b110 *"
b100000000100000 C
b100000001000000 8
1!
#24500
0!
#25000
16
13
05
0/
0`
0V
0c
0b
b1111 Z
b1111 [
b1111 ]
0a
b100000001010000 8
b11001 t
b0 r
b1111111111111111 9"
b100 x
b100000001000000 w
b0 7"
1;"
b111 *"
1!
#25500
0!
#26000
06
03
15
1/
1V
1L
1M
b0 H
b11 I
b0 J
b0 R
b11 F
b110000 K
b100 ,
b1000000 )
b100 $
b1000000 .
b11010 t
b1 r
b100000000110000 0"
b11 1"
b100 v
b100000001000000 u
b101 x
b100000001010000 w
02"
b1000 *"
b100000001100000 8
1!
#26500
0!
#27000
1T
0L
1U
b0 P
b11 Q
b11 N
b110000 S
0M
b1111 H
b1111 I
b1111 J
b1111 R
b11111111 F
b11111111 K
07
b100000001110000 8
b11011 t
b100000000110000 4"
b11 5"
b1111111111111111 0"
b101 s
b1111111111111111 w
b101 7"
06"
12"
b1001 *"
1!
#27500
0!
#28000
1i
0T
1p
1q
b0 m
b11 n
b11 f
b110000 o
b0 d
0U
b1111 P
b1111 Q
b11111111 N
b11111111 S
b11100 t
b100000000110000 ="
b11 >"
b1111111111111111 4"
b100 7"
0@"
16"
b1010 *"
b100000010000000 8
1!
#28500
0!
#29000
1<
0i
0p
1=
b11 9
b110000 ;
0q
b1111 m
b1111 n
b11111111 f
b11111111 o
b1111 d
b100000010010000 8
b11101 t
b11 ?"
b11 D
b100000000110000 }
b11 ~
b1111111111111111 ="
b11 7"
0""
1@"
b101 *"
1!
#29500
0!
#30000
1A
1B
b11 >
b110000 @
0=
b11111111 9
b11111111 ;
17
0<
b11110 t
b11 !"
b100000000110000 $"
b11 %"
b1111111111111111 }
b11 x
b100000010010000 w
b10 7"
0'"
1""
b110 *"
b100000010100000 8
1!
#30500
0!
#31000
1c
1`
1a
b100000000110000 \
1b
b0 Z
b11 [
b0 ]
0B
b11111111 >
b11111111 @
0A
b100000000110000 C
b100000001010000 8
b11111 t
b11 &"
b100000000110000 9"
b11 :"
b1111111111111111 $"
b100 x
b100000010100000 w
b1 7"
0;"
1'"
b111 *"
1!
#31500
0!
#32000
16
13
05
0/
0`
0V
0c
0b
b1111 Z
b1111 [
b1111 ]
0a
b100000 t
b0 r
b1111111111111111 9"
b101 x
b100000001010000 w
b0 7"
1;"
b1000 *"
b100000001100000 8
1!
#32500
0!
#33000
06
03
15
1/
1V
1L
1M
b0 H
b100 I
b0 J
b0 R
b100 F
b1000000 K
b101 ,
b1010000 )
b101 $
b1010000 .
b100000001110000 8
b100001 t
b1 r
b100000001000000 0"
b100 1"
b101 v
b100000001010000 u
b110 x
b100000001100000 w
02"
b1001 *"
1!
#33500
0!
#34000
1T
0L
1U
b0 P
b100 Q
b100 N
b1000000 S
0M
b1111 H
b1111 I
b1111 J
b1111 R
b11111111 F
b11111111 K
07
b100010 t
b100000001000000 4"
b100 5"
b1111111111111111 0"
b110 s
b1111111111111111 w
b101 7"
06"
12"
b1010 *"
b100000010000000 8
1!
#34500
0!
#35000
1i
0T
1p
1q
b0 m
b100 n
b100 f
b1000000 o
b0 d
0U
b1111 P
b1111 Q
b11111111 N
b11111111 S
b100000010010000 8
b100011 t
b100000001000000 ="
b100 >"
b1111111111111111 4"
b100 7"
0@"
16"
b1011 *"
1!
#35500
0!
#36000
1<
0i
0p
1=
b100 9
b1000000 ;
0q
b1111 m
b1111 n
b11111111 f
b11111111 o
b1111 d
b100100 t
b100 ?"
b100 D
b100000001000000 }
b100 ~
b1111111111111111 ="
b11 7"
0""
1@"
b110 *"
b100000010100000 8
1!
#36500
0!
#37000
1A
1B
b100 >
b1000000 @
0=
b11111111 9
b11111111 ;
17
0<
b100000010110000 8
b100101 t
b100 !"
b100000001000000 $"
b100 %"
b1111111111111111 }
b100 x
b100000010100000 w
b10 7"
0'"
1""
b111 *"
1!
#37500
0!
#38000
1c
1`
1a
1b
b0 Z
b100 [
b0 ]
0B
b11111111 >
b11111111 @
0A
b100000001000000 \
b100110 t
b100 &"
b100000001000000 9"
b100 :"
b1111111111111111 $"
b101 x
b100000010110000 w
b1 7"
0;"
1'"
b1000 *"
b100000001000000 C
b100000001100000 8
1!
#38500
0!
#39000
16
13
05
0/
0`
0V
0c
0b
b1111 Z
b1111 [
b1111 ]
0a
b100000001110000 8
b100111 t
b0 r
b1111111111111111 9"
b110 x
b100000001100000 w
b0 7"
1;"
b1001 *"
1!
#39500
0!
#40000
06
03
15
1/
1V
1L
1M
b0 H
b101 I
b0 J
b0 R
b101 F
b1010000 K
b110 ,
b1100000 )
b110 $
b1100000 .
b101000 t
b1 r
b100000001010000 0"
b101 1"
b110 v
b100000001100000 u
b111 x
b100000001110000 w
02"
b1010 *"
b100000010000000 8
1!
#40500
0!
#41000
1T
0L
1U
b0 P
b101 Q
b101 N
b1010000 S
0M
b1111 H
b1111 I
b1111 J
b1111 R
b11111111 F
b11111111 K
07
b100000010010000 8
b101001 t
b100000001010000 4"
b101 5"
b1111111111111111 0"
b111 s
b1111111111111111 w
b101 7"
06"
12"
b1011 *"
1!
#41500
0!
#42000
1i
0T
1p
1q
b0 m
b101 n
b101 f
b1010000 o
b0 d
0U
b1111 P
b1111 Q
b11111111 N
b11111111 S
b101010 t
b100000001010000 ="
b101 >"
b1111111111111111 4"
b100 7"
0@"
16"
b1100 *"
b100000010100000 8
1!
#42500
0!
#43000
1<
0i
0p
1=
b101 9
b1010000 ;
0q
b1111 m
b1111 n
b11111111 f
b11111111 o
b1111 d
b100000010110000 8
b101011 t
b101 ?"
b101 D
b100000001010000 }
b101 ~
b1111111111111111 ="
b11 7"
0""
1@"
b111 *"
1!
#43500
0!
#44000
1A
1B
b101 >
b1010000 @
0=
b11111111 9
b11111111 ;
17
0<
b101100 t
b101 !"
b100000001010000 $"
b101 %"
b1111111111111111 }
b101 x
b100000010110000 w
b10 7"
0'"
1""
b1000 *"
b100000011000000 8
1!
#44500
0!
#45000
1c
1`
1a
b100000001010000 \
1b
b0 Z
b101 [
b0 ]
0B
b11111111 >
b11111111 @
0A
b100000001010000 C
b100000001110000 8
b101101 t
b101 &"
b100000001010000 9"
b101 :"
b1111111111111111 $"
b110 x
b100000011000000 w
b1 7"
0;"
1'"
b1001 *"
1!
#45500
0!
#46000
16
13
05
0/
0`
0V
0c
0b
b1111 Z
b1111 [
b1111 ]
0a
b101110 t
b0 r
b1111111111111111 9"
b111 x
b100000001110000 w
b0 7"
1;"
b1010 *"
b100000010000000 8
1!
#46500
0!
#47000
06
03
15
1/
1V
1L
1M
b0 H
b110 I
b0 J
b0 R
b110 F
b1100000 K
b111 ,
b1110000 )
b111 $
b1110000 .
b100000010010000 8
b101111 t
b1 r
b100000001100000 0"
b110 1"
b111 v
b100000001110000 u
b1000 x
b100000010000000 w
02"
b1011 *"
1!
#47500
0!
#48000
1T
0L
1U
b0 P
b110 Q
b110 N
b1100000 S
0M
b1111 H
b1111 I
b1111 J
b1111 R
b11111111 F
b11111111 K
07
b110000 t
b100000001100000 4"
b110 5"
b1111111111111111 0"
b1000 s
b1111111111111111 w
b101 7"
06"
12"
b1100 *"
b100000010100000 8
1!
#48500
0!
#49000
1i
0T
1p
1q
b0 m
b110 n
b110 f
b1100000 o
b0 d
0U
b1111 P
b1111 Q
b11111111 N
b11111111 S
b100000010110000 8
b110001 t
b100000001100000 ="
b110 >"
b1111111111111111 4"
b100 7"
0@"
16"
b1101 *"
1!
#49500
0!
#50000
1<
0i
0p
1=
b110 9
b1100000 ;
0q
b1111 m
b1111 n
b11111111 f
b11111111 o
b1111 d
b110010 t
b110 ?"
b110 D
b100000001100000 }
b110 ~
b1111111111111111 ="
b11 7"
0""
1@"
b1000 *"
b100000011000000 8
1!
#50500
0!
#51000
1A
1B
b110 >
b1100000 @
0=
b11111111 9
b11111111 ;
17
0<
b100000011010000 8
b110011 t
b110 !"
b100000001100000 $"
b110 %"
b1111111111111111 }
b110 x
b100000011000000 w
b10 7"
0'"
1""
b1001 *"
1!
#51500
0!
#52000
1c
1`
1a
1b
b0 Z
b110 [
b0 ]
0B
b11111111 >
b11111111 @
0A
b100000001100000 \
b110100 t
b110 &"
b100000001100000 9"
b110 :"
b1111111111111111 $"
b111 x
b100000011010000 w
b1 7"
0;"
1'"
b1010 *"
b100000001100000 C
b100000010000000 8
1!
#52500
0!
#53000
16
13
05
0/
0`
0V
0c
0b
b1111 Z
b1111 [
b1111 ]
0a
b100000010010000 8
b110101 t
b0 r
b1111111111111111 9"
b1000 x
b100000010000000 w
b0 7"
1;"
b1011 *"
1!
#53500
0!
#54000
06
03
15
1/
1V
1L
1M
b0 H
b111 I
b0 J
b0 R
b111 F
b1110000 K
b1000 ,
b10000000 )
b1000 $
b10000000 .
b110110 t
b1 r
b100000001110000 0"
b111 1"
b1000 v
b100000010000000 u
b1001 x
b100000010010000 w
02"
b1100 *"
b100000010100000 8
1!
#54500
0!
#55000
1T
0L
1U
b0 P
b111 Q
b111 N
b1110000 S
0M
b1111 H
b1111 I
b1111 J
b1111 R
b11111111 F
b11111111 K
07
b100000010110000 8
b110111 t
b100000001110000 4"
b111 5"
b1111111111111111 0"
b1001 s
b1111111111111111 w
b101 7"
06"
12"
b1101 *"
1!
#55500
0!
#56000
1i
0T
1p
1q
b0 m
b111 n
b111 f
b1110000 o
b0 d
0U
b1111 P
b1111 Q
b11111111 N
b11111111 S
b111000 t
b100000001110000 ="
b111 >"
b1111111111111111 4"
b100 7"
0@"
16"
b1110 *"
b100000011000000 8
1!
#56500
0!
#57000
1<
0i
0p
1=
b111 9
b1110000 ;
0q
b1111 m
b1111 n
b11111111 f
b11111111 o
b1111 d
b100000011010000 8
b111001 t
b111 ?"
b111 D
b100000001110000 }
b111 ~
b1111111111111111 ="
b11 7"
0""
1@"
b1001 *"
1!
#57500
0!
#58000
1A
1B
b111 >
b1110000 @
0=
b11111111 9
b11111111 ;
17
0<
b111010 t
b111 !"
b100000001110000 $"
b111 %"
b1111111111111111 }
b111 x
b100000011010000 w
b10 7"
0'"
1""
b1010 *"
b100000011100000 8
1!
#58500
0!
#59000
1c
1`
1a
b100000001110000 \
1b
b0 Z
b111 [
b0 ]
0B
b11111111 >
b11111111 @
0A
b100000001110000 C
b100000010010000 8
b111011 t
b111 &"
b100000001110000 9"
b111 :"
b1111111111111111 $"
b1000 x
b100000011100000 w
b1 7"
0;"
1'"
b1011 *"
1!
#59500
0!
#60000
16
13
05
0/
0`
0V
0c
0b
b1111 Z
b1111 [
b1111 ]
0a
b111100 t
b0 r
b1111111111111111 9"
b1001 x
b100000010010000 w
b0 7"
1;"
b1100 *"
b100000010100000 8
1!
#60500
0!
#61000
06
03
15
1/
1V
1L
1M
b0 H
b1000 I
b0 J
b0 R
b1000 F
b10000000 K
b1001 ,
b10010000 )
b1001 $
b10010000 .
b100000010110000 8
b111101 t
b1 r
b100000010000000 0"
b1000 1"
b1001 v
b100000010010000 u
b1010 x
b100000010100000 w
02"
b1101 *"
1!
#61500
0!
#62000
1T
0L
1U
b0 P
b1000 Q
b1000 N
b10000000 S
0M
b1111 H
b1111 I
b1111 J
b1111 R
b11111111 F
b11111111 K
07
b111110 t
b100000010000000 4"
b1000 5"
b1111111111111111 0"
b1010 s
b1111111111111111 w
b101 7"
06"
12"
b1110 *"
b100000011000000 8
1!
#62500
0!
#63000
1i
0T
1p
1q
b0 m
b1000 n
b1000 f
b10000000 o
b0 d
0U
b1111 P
b1111 Q
b11111111 N
b11111111 S
b100000011010000 8
b111111 t
b100000010000000 ="
b1000 >"
b1111111111111111 4"
b100 7"
0@"
16"
b1111 *"
1!
#63500
0!
#64000
1<
0i
0p
1=
b1000 9
b10000000 ;
0q
b1111 m
b1111 n
b11111111 f
b11111111 o
b1111 d
b1000000 t
b1000 ?"
b1000 D
b100000010000000 }
b1000 ~
b1111111111111111 ="
b11 7"
0""
1@"
b1010 *"
b100000011100000 8
1!
#64500
0!
#65000
1A
1B
b1000 >
b10000000 @
0=
b11111111 9
b11111111 ;
17
0<
b100000011110000 8
b1000001 t
b1000 !"
b100000010000000 $"
b1000 %"
b1111111111111111 }
b1000 x
b100000011100000 w
b10 7"
0'"
1""
b1011 *"
1!
#65500
0!
#66000
1c
1`
1a
1b
b0 Z
b1000 [
b0 ]
0B
b11111111 >
b11111111 @
0A
b100000010000000 \
b1000010 t
b1000 &"
b100000010000000 9"
b1000 :"
b1111111111111111 $"
b1001 x
b100000011110000 w
b1 7"
0;"
1'"
b1100 *"
b100000010000000 C
b100000010100000 8
1!
#66500
0!
#67000
16
13
05
0/
0`
0V
0c
0b
b1111 Z
b1111 [
b1111 ]
0a
b100000010110000 8
b1000011 t
b0 r
b1111111111111111 9"
b1010 x
b100000010100000 w
b0 7"
1;"
b1101 *"
1!
#67500
0!
#68000
06
03
15
1/
1V
1L
1M
b0 H
b1001 I
b0 J
b0 R
b1001 F
b10010000 K
b1010 ,
b10100000 )
b1010 $
b10100000 .
b1000100 t
b1 r
b100000010010000 0"
b1001 1"
b1010 v
b100000010100000 u
b1011 x
b100000010110000 w
02"
b1110 *"
b100000011000000 8
1!
#68500
0!
#69000
1T
0L
1U
b0 P
b1001 Q
b1001 N
b10010000 S
0M
b1111 H
b1111 I
b1111 J
b1111 R
b11111111 F
b11111111 K
07
b100000011010000 8
b1000101 t
b100000010010000 4"
b1001 5"
b1111111111111111 0"
b1011 s
b1111111111111111 w
b101 7"
06"
12"
b1111 *"
1!
#69500
0!
#70000
1i
0T
1p
1q
b0 m
b1001 n
b1001 f
b10010000 o
b0 d
0U
b1111 P
b1111 Q
b11111111 N
b11111111 S
b1000110 t
b100000010010000 ="
b1001 >"
b1111111111111111 4"
b100 7"
0@"
16"
b10000 *"
b100000011100000 8
1!
#70500
0!
#71000
1<
0i
0p
1=
b1001 9
b10010000 ;
0q
b1111 m
b1111 n
b11111111 f
b11111111 o
b1111 d
b100000011110000 8
b1000111 t
b1001 ?"
b1001 D
b100000010010000 }
b1001 ~
b1111111111111111 ="
b11 7"
0""
1@"
b1011 *"
1!
#71500
0!
#72000
1A
1B
b1001 >
b10010000 @
0=
b11111111 9
b11111111 ;
17
0<
b1001000 t
b1001 !"
b100000010010000 $"
b1001 %"
b1111111111111111 }
b1001 x
b100000011110000 w
b10 7"
0'"
1""
b1100 *"
b1000000000001 8
1!
#72500
0!
#73000
1c
1`
1a
b100000010010000 \
1b
b0 Z
b1001 [
b0 ]
0B
b11111111 >
b11111111 @
0A
b100000010010000 C
b100000010110000 8
b1001001 t
b1001 &"
b100000010010000 9"
b1001 :"
b1111111111111111 $"
b1010 x
b1000000000001 w
b1 7"
0;"
1'"
b1101 *"
1!
#73500
0!
#74000
16
13
05
0/
0`
0V
0c
0b
b1111 Z
b1111 [
b1111 ]
0a
b1001010 t
b0 r
b1111111111111111 9"
b1011 x
b100000010110000 w
b0 7"
1;"
b1110 *"
b100000011000000 8
1!
#74500
0!
#75000
06
03
15
1/
1V
1L
1M
b0 H
b1010 I
b0 J
b0 R
b1010 F
b10100000 K
b1011 ,
b10110000 )
b1011 $
b10110000 .
b100000011010000 8
b1001011 t
b1 r
b100000010100000 0"
b1010 1"
b1011 v
b100000010110000 u
b1100 x
b100000011000000 w
02"
b1111 *"
1!
#75500
0!
#76000
1T
0L
1U
b0 P
b1010 Q
b1010 N
b10100000 S
0M
b1111 H
b1111 I
b1111 J
b1111 R
b11111111 F
b11111111 K
07
b1001100 t
b100000010100000 4"
b1010 5"
b1111111111111111 0"
b1100 s
b1111111111111111 w
b101 7"
06"
12"
b10000 *"
b100000011100000 8
1!
#76500
0!
#77000
1i
0T
1p
1q
b0 m
b1010 n
b1010 f
b10100000 o
b0 d
0U
b1111 P
b1111 Q
b11111111 N
b11111111 S
b100000011110000 8
b1001101 t
b100000010100000 ="
b1010 >"
b1111111111111111 4"
b100 7"
0@"
16"
b10001 *"
1!
#77500
0!
#78000
1<
0i
0p
1=
b1010 9
b10100000 ;
0q
b1111 m
b1111 n
b11111111 f
b11111111 o
b1111 d
b1001110 t
b1010 ?"
b1010 D
b100000010100000 }
b1010 ~
b1111111111111111 ="
b11 7"
0""
1@"
b1100 *"
b1000000000001 8
1!
#78500
0!
#79000
1A
1B
b1010 >
b10100000 @
0=
b11111111 9
b11111111 ;
17
0<
b11000000000000 8
b1001111 t
b1010 !"
b100000010100000 $"
b1010 %"
b1111111111111111 }
b1010 x
b1000000000001 w
b10 7"
0'"
1""
b1101 *"
1!
#79500
0!
#80000
1c
1`
1a
1b
b0 Z
b1010 [
b0 ]
0B
b11111111 >
b11111111 @
0A
b100000010100000 \
b1010000 t
b1010 &"
b100000010100000 9"
b1010 :"
b1111111111111111 $"
b1011 x
b11000000000000 w
b1 7"
0;"
1'"
b1110 *"
b100000010100000 C
b100000011000000 8
1!
#80500
0!
#81000
16
13
05
0/
0`
0V
0c
0b
b1111 Z
b1111 [
b1111 ]
0a
b100000011010000 8
b1010001 t
b0 r
b1111111111111111 9"
b1100 x
b100000011000000 w
b0 7"
1;"
b1111 *"
1!
#81500
0!
#82000
06
03
15
1/
1V
1L
1M
b0 H
b1011 I
b0 J
b0 R
b1011 F
b10110000 K
b1100 ,
b11000000 )
b1100 $
b11000000 .
b1010010 t
b1 r
b100000010110000 0"
b1011 1"
b1100 v
b100000011000000 u
b1101 x
b100000011010000 w
02"
b10000 *"
b100000011100000 8
1!
#82500
0!
