test6.vcd
$date
	Mon Dec  5 20:29:24 2016
$end
$version
	Icarus Verilog
$end
$timescale
	1ps
$end
$scope module main $end
$var wire 1 ! clk $end
$var wire 1 " d_global_predictor $end
$var wire 1 # d_halt $end
$var wire 16 $ d_ii [15:0] $end
$var wire 1 % d_is_jump $end
$var wire 1 & d_is_mem $end
$var wire 1 ' d_is_st $end
$var wire 1 ( d_is_x_jmp $end
$var wire 16 ) d_jjj [15:0] $end
$var wire 1 * d_mem_stall $end
$var wire 4 + d_ra [3:0] $end
$var wire 4 , d_rb [3:0] $end
$var wire 4 - d_rt [3:0] $end
$var wire 16 . d_s [15:0] $end
$var wire 1 / d_stall $end
$var wire 1 0 d_uses_ra $end
$var wire 1 1 d_uses_rb $end
$var wire 1 2 d_uses_rt $end
$var wire 1 3 d_v $end
$var wire 1 4 d_valid_inst $end
$var wire 1 5 f_stall $end
$var wire 1 6 f_v $end
$var wire 1 7 f_valid_inst $end
$var wire 16 8 inst [15:0] $end
$var wire 16 9 l0_ii [15:0] $end
$var wire 1 : l0_is_st $end
$var wire 16 ; l0_s [15:0] $end
$var wire 1 < l0_v $end
$var wire 1 = l0_valid_inst $end
$var wire 16 > l1_ii [15:0] $end
$var wire 1 ? l1_is_st $end
$var wire 16 @ l1_s [15:0] $end
$var wire 1 A l1_v $end
$var wire 1 B l1_valid_inst $end
$var wire 16 C memData [15:0] $end
$var wire 16 D memIn [15:0] $end
$var wire 1 E pc_mem_stall $end
$var wire 16 F r0_ii [15:0] $end
$var wire 1 G r0_is_st $end
$var wire 4 H r0_ra [3:0] $end
$var wire 4 I r0_rb [3:0] $end
$var wire 4 J r0_rt [3:0] $end
$var wire 16 K r0_s [15:0] $end
$var wire 1 L r0_v $end
$var wire 1 M r0_valid_inst $end
$var wire 16 N r1_ii [15:0] $end
$var wire 1 O r1_is_st $end
$var wire 4 P r1_ra [3:0] $end
$var wire 4 Q r1_rb [3:0] $end
$var wire 4 R r1_rt [3:0] $end
$var wire 16 S r1_s [15:0] $end
$var wire 1 T r1_v $end
$var wire 1 U r1_valid_inst $end
$var wire 1 V reg_stall $end
$var wire 1 W ren $end
$var wire 16 X va [15:0] $end
$var wire 16 Y vb [15:0] $end
$var wire 4 Z w_ra [3:0] $end
$var wire 4 [ w_rb [3:0] $end
$var wire 16 \ w_res [15:0] $end
$var wire 4 ] w_rt [3:0] $end
$var wire 1 ^ w_uses_ra $end
$var wire 1 _ w_uses_rb $end
$var wire 1 ` w_uses_rt $end
$var wire 1 a w_v $end
$var wire 1 b w_valid_inst $end
$var wire 1 c wen $end
$var wire 16 d x_d [15:0] $end
$var wire 1 e x_global_predictor $end
$var wire 16 f x_ii [15:0] $end
$var wire 1 g x_is_add $end
$var wire 1 h x_is_jump $end
$var wire 1 i x_is_mem $end
$var wire 1 j x_is_st $end
$var wire 1 k x_jmp_v $end
$var wire 1 l x_mem_stall $end
$var wire 4 m x_ra [3:0] $end
$var wire 4 n x_rb [3:0] $end
$var wire 16 o x_s [15:0] $end
$var wire 1 p x_v $end
$var wire 1 q x_valid_inst $end
$var reg 16 r busy [15:0] $end
$var reg 16 s correct_pc [15:0] $end
$var reg 16 t cycle [15:0] $end
$var reg 16 u d_inst [15:0] $end
$var reg 16 v d_pc [15:0] $end
$var reg 16 w f_inst [15:0] $end
$var reg 16 x f_pc [15:0] $end
$var reg 8 y history [7:0] $end
$var reg 8 z jmp_pattern [7:0] $end
$var reg 2 { jmp_stall_ctr [1:0] $end
$var reg 1 | l0_halt $end
$var reg 16 } l0_inst [15:0] $end
$var reg 16 ~ l0_pc [15:0] $end
$var reg 16 !" l0_res [15:0] $end
$var reg 1 "" l0_stall $end
$var reg 1 #" l1_halt $end
$var reg 16 $" l1_inst [15:0] $end
$var reg 16 %" l1_pc [15:0] $end
$var reg 16 &" l1_res [15:0] $end
$var reg 1 '" l1_stall $end
$var reg 32 (" last_was_cont [31:0] $end
$var reg 32 )" last_was_jump [31:0] $end
$var reg 16 *" pc [15:0] $end
$var reg 16 +" pc_no_jump [15:0] $end
$var reg 32 ," predictor_right [31:0] $end
$var reg 32 -" predictor_v [31:0] $end
$var reg 32 ." predictor_wrong [31:0] $end
$var reg 1 /" r0_halt $end
$var reg 16 0" r0_inst [15:0] $end
$var reg 16 1" r0_pc [15:0] $end
$var reg 1 2" r0_stall $end
$var reg 1 3" r1_halt $end
$var reg 16 4" r1_inst [15:0] $end
$var reg 16 5" r1_pc [15:0] $end
$var reg 1 6" r1_stall $end
$var reg 3 7" stall_ctr [2:0] $end
$var reg 1 8" w_halt $end
$var reg 16 9" w_inst [15:0] $end
$var reg 16 :" w_pc [15:0] $end
$var reg 1 ;" w_stall $end
$var reg 1 <" x_halt $end
$var reg 16 =" x_inst [15:0] $end
$var reg 16 >" x_pc [15:0] $end
$var reg 16 ?" x_res [15:0] $end
$var reg 1 @" x_stall $end
$upscope $end
$enddefinitions $end
#0
$dumpvars
0@"
bx ?"
bx >"
b1111111111111111 ="
0<"
0;"
bx :"
b1111111111111111 9"
08"
b0 7"
06"
bx 5"
b1111111111111111 4"
03"
02"
bx 1"
b1111111111111111 0"
0/"
b0 ."
b0 -"
b0 ,"
b0 +"
b0 *"
b0 )"
b0 ("
0'"
bx &"
bx %"
b1111111111111111 $"
0#"
0""
bx !"
bx ~
b1111111111111111 }
0|
b0 {
b0 z
b0 y
b0 x
b1111111111111111 w
bx v
b1111111111111111 u
b0 t
b1111111111111111 s
b0 r
0q
0p
b11111111 o
b1111 n
b1111 m
0l
0k
0j
0i
0h
0g
b11111111 f
xe
b1111 d
0c
0b
0a
0`
0_
0^
b1111 ]
bx \
b1111 [
b1111 Z
bx Y
bx X
0W
0V
0U
0T
b11111111 S
b1111 R
b1111 Q
b1111 P
0O
b11111111 N
0M
0L
b11111111 K
b1111 J
b1111 I
b1111 H
0G
b11111111 F
0E
bx D
bx C
0B
0A
b11111111 @
0?
b11111111 >
0=
0<
b11111111 ;
0:
b11111111 9
bx 8
07
06
05
04
03
02
01
00
0/
b11111111 .
b1111 -
b1111 ,
b1111 +
0*
b111111111111 )
0(
0'
0&
0%
b11111111 $
0#
x"
1!
$end
#500
0!
#1000
x7
b1 t
bx w
b1 *"
1!
#1500
0!
#2000
b10 t
b10 *"
b0 8
1!
#2500
0!
#3000
16
17
b11000 8
b11 t
b0 w
b11 *"
1!
#3500
0!
#4000
12
13
14
b0 +
b0 ,
b0 -
b0 )
b0 $
b0 .
b100 t
b0 v
0"
b0 u
b1 x
b11000 w
b100 *"
b101001 8
1!
#4500
0!
#5000
1L
1M
b0 H
b0 I
b0 J
b0 R
b0 F
b0 K
b1 ,
b1000 -
b11000 )
b1 $
b11000 .
b10001 8
b101 t
b1 r
b0 0"
b0 1"
b1 v
b11000 u
b10 x
b101001 w
b101 *"
1!
#5500
0!
#6000
1T
1U
b0 P
b0 Q
b0 N
b0 S
b1 I
b1000 J
b1000 R
b1 F
b11000 K
b10 ,
b1001 -
b101001 )
b10 $
b101001 .
b110 t
b0 4"
b0 5"
b100000001 r
b11000 0"
b1 1"
b10 v
b101001 u
b11 x
b10001 w
b110 *"
b100010 8
1!
#6500
0!
#7000
1p
1q
b0 m
b0 n
b0 f
b0 o
b0 d
b1 Q
b1 N
b11000 S
b10 I
b1001 J
b1001 R
b10 F
b101001 K
b1 ,
b1 -
b10001 )
b1 $
b10001 .
b10000000000110 8
b111 t
b0 ="
b0 >"
0e
b11000 4"
b1 5"
b1100000001 r
b101001 0"
b10 1"
b11 v
b10001 u
b100 x
b100010 w
b111 *"
1!
#7500
0!
#8000
1<
1=
b0 9
b0 ;
b1 n
b1 f
b11000 o
b1000 d
b10 Q
b10 N
b101001 S
b1 I
b1 J
b1 R
b1 F
b10001 K
b10 ,
b10 -
b100010 )
b10 $
b100010 .
b1000 t
b0 ?"
b0 D
b0 }
b0 ~
b11000 ="
b1 >"
b101001 4"
b10 5"
b1100000011 r
b10001 0"
b11 1"
b100 v
b100010 u
b101 x
b10000000000110 w
b1000 *"
b10000000000111 8
1!
#8500
0!
#9000
02
1A
1B
b0 >
b0 @
b1 9
b11000 ;
b10 n
b10 f
b101001 o
b1001 d
b1 Q
b1 N
b10001 S
b10 I
b10 J
b10 R
b10 F
b100010 K
1%
b0 ,
b110 -
b110 )
b0 $
b110 .
b11 8
b1001 t
b0 !"
b0 $"
b0 %"
b1 ?"
b1 D
b11000 }
b1 ~
b101001 ="
b10 >"
b10001 4"
b11 5"
b1100000111 r
b100010 0"
b100 1"
b101 v
b10000000000110 u
b110 x
b10000000000111 w
b1001 *"
1!
#9500
0!
#10000
1c
1`
06
1a
03
0L
1b
b0 Z
b0 [
b0 ]
b1 >
b11000 @
b10 9
b101001 ;
b1 n
b1 f
b10001 o
b1 d
15
1/
b10 Q
b10 N
b100010 S
b1111 H
04
0%
b1111 +
b1111 ,
b11111111 $
0M
b1111 I
b1111 J
b1111 R
b11111111 F
b11111111 K
b1111 -
b111111111111 )
b11111111 .
07
b0 \
b1010 t
b0 &"
b0 9"
b0 :"
b1 !"
b11000 $"
b1 %"
b10 ?"
b10 D
b101001 }
b10 ~
b10001 ="
b11 >"
b100 5"
b11 7"
b100010 4"
b1111111111111111 0"
b101 1"
b110 v
b1111111111111111 u
b111 x
b1111111111111111 w
b110 *"
b0 C
b10100 8
1!
#10500
0!
#11000
0T
b1 \
b1 [
b1000 ]
b10 >
b101001 @
b1 9
b10001 ;
b10 n
b10 f
b100010 o
b10 d
0U
b1111 P
b1111 Q
b11111111 N
b11111111 S
17
b11000 C
b101001101000101 8
b1011 t
b1100000110 r
b1 &"
b11000 9"
b1 :"
b10 !"
b101001 $"
b10 %"
b1 ?"
b1 D
b10001 }
b11 ~
b100010 ="
b100 >"
b1111111111111111 4"
b100 x
b10100 w
b10 7"
12"
b111 *"
1!
#11500
0!
#12000
0p
b10 \
b10 [
b1001 ]
b1 >
b10001 @
b10 9
b100010 ;
0q
b1111 m
b1111 n
b11111111 f
b11111111 o
b1111 d
b1100 t
b1000000110 r
b10 &"
b101001 9"
b10 :"
b1 !"
b10001 $"
b11 %"
b10 ?"
b10 D
b100010 }
b100 ~
b1111111111111111 ="
b101 x
b101001101000101 w
b1 7"
16"
b1000 *"
b101001 C
b10000000000111 8
1!
#12500
0!
#13000
16
0<
b1 \
b1 [
b1 ]
b10 >
b100010 @
0=
b11111111 9
b11111111 ;
05
0/
b11000 C
b11 8
b1101 t
b110 r
b1 &"
b10001 9"
b11 :"
b10 !"
b100010 $"
b100 %"
b1111111111111111 }
b110 x
b10000000000111 w
b0 7"
1@"
b1001 *"
1!
#13500
0!
#14000
0A
13
b10 \
b10 [
b10 ]
0B
b11111111 >
b11111111 @
14
1%
b0 +
b0 ,
b111 -
b111 )
b0 $
b111 .
b1110 t
b100 r
b10 &"
b100010 9"
b100 :"
b1111111111111111 $"
b10000000000111 u
b111 x
b11 w
1""
02"
b1010 *"
b101001 C
b10100 8
1!
#14500
0!
#15000
0c
0`
b101001 \
06
0a
03
0b
b1111 Z
b1111 [
b1111 ]
15
1/
b1111 +
b1111 ,
b11111111 $
07
04
0%
b1111 -
b111111111111 )
b11111111 .
b101001101000101 8
b1111 t
b0 r
b1111111111111111 9"
b11 7"
b1111111111111111 0"
b110 1"
b111 v
b1111111111111111 u
b1000 x
b1111111111111111 w
1'"
06"
b111 *"
1!
#15500
0!
#16000
17
b10000 t
b101 x
b101001101000101 w
b10 7"
1;"
0@"
12"
b1000 *"
b101010001010110 8
1!
#16500
0!
#17000
b11 8
b10001 t
b110 x
b101010001010110 w
b1 7"
0""
16"
b1001 *"
1!
#17500
0!
#18000
16
05
0/
b10010 t
b111 x
b11 w
b0 7"
0'"
1@"
b1010 *"
b10100 8
1!
#18500
0!
#19000
12
13
14
b0 +
b0 ,
b11 -
b11 )
b0 $
b11 .
b101001101000101 8
b10011 t
b11 u
b1000 x
b10100 w
0;"
1""
02"
b1011 *"
1!
#19500
0!
#20000
1L
1M
b0 H
b0 I
b11 J
b11 R
b0 F
b11 K
b1 ,
b100 -
b10100 )
b1 $
b10100 .
b10100 t
b1000 r
b11 0"
b111 1"
b1000 v
b10100 u
b1001 x
b101001101000101 w
1'"
06"
b1100 *"
b101010001010110 8
1!
#20500
0!
#21000
06
03
15
1/
1V
10
11
1T
1U
b0 P
b0 Q
b0 N
b11 S
b1 I
b100 J
b100 R
b1 F
b10100 K
b11 +
b100 ,
b101 -
b1101000101 )
b110100 $
b1000101 .
b1010101100111 8
b10101 t
b11 4"
b111 5"
b11000 r
b10100 0"
b1000 1"
b1001 v
b101001101000101 u
b1010 x
b101010001010110 w
1;"
0@"
b1101 *"
1!
#21500
0!
#22000
1p
0L
1q
b0 m
b0 n
b0 f
b11 o
b11 d
b1 Q
b1 N
b10100 S
0M
b1111 H
b1111 I
b1111 J
b1111 R
b11111111 F
b11111111 K
07
b10110 t
b11 ="
b111 >"
b10100 4"
b1000 5"
b1111111111111111 0"
b1010 s
b1111111111111111 w
b101 7"
0""
12"
b1110 *"
b1011001111000 8
1!
#22500
0!
#23000
1<
0T
1=
b0 9
b11 ;
b1 n
b1 f
b10100 o
b100 d
0U
b1111 P
b1111 Q
b11111111 N
b11111111 S
b1011001111001 8
b10111 t
b0 ?"
b0 D
b11 }
b111 ~
b10100 ="
b1000 >"
b1111111111111111 4"
b100 7"
0'"
16"
b1111 *"
1!
#23500
0!
#24000
1A
0p
1B
b0 >
b11 @
b1 9
b10100 ;
0q
b1111 m
b1111 n
b11111111 f
b11111111 o
b1111 d
b11000 t
b0 !"
b11 $"
b111 %"
b1 ?"
b1 D
b10100 }
b1000 ~
b1111111111111111 ="
b11 7"
0;"
1@"
b1010 *"
b110100010010010 8
1!
#24500
0!
#25000
1c
1`
1a
b0 \
1b
b0 Z
b0 [
b11 ]
b1 >
b10100 @
0=
b11111111 9
b11111111 ;
17
0<
b0 C
b11000000000000 8
b11001 t
b0 &"
b11 9"
b111 :"
b1 !"
b10100 $"
b1000 %"
b1111111111111111 }
b1000 x
b110100010010010 w
b10 7"
1""
b1011 *"
1!
#25500
0!
#26000
b1 \
b1 [
b100 ]
0B
b11111111 >
b11111111 @
0A
b11010 t
b10000 r
b1 &"
b10100 9"
b1000 :"
b1111111111111111 $"
b1001 x
b11000000000000 w
b1 7"
1'"
b1100 *"
b11000 C
b101010001010110 8
1!
#26500
0!
#27000
16
13
05
0/
0`
0V
b11000 \
0c
0b
b1111 Z
b1111 [
b1111 ]
0a
b1010101100111 8
b11011 t
b0 r
b1111111111111111 9"
b1010 x
b101010001010110 w
b0 7"
1;"
b1101 *"
1!
#27500
0!
#28000
06
03
15
1/
1W
1V
1L
1M
b11 H
b100 I
b101 J
b101 R
b110100 F
b1000101 K
b100 +
b101 ,
b110 -
b10001010110 )
b1000101 $
b1010110 .
b11100 t
b111000 r
b101001101000101 0"
b1001 1"
b1010 v
b101010001010110 u
b1011 x
b1010101100111 w
02"
b1110 *"
b1011001111000 8
1!
#28500
0!
#29000
0W
1T
0L
1U
b11 P
b100 Q
b110100 N
b1000101 S
0M
b1111 H
b1111 I
b1111 J
b1111 R
b11111111 F
b11111111 K
07
b1011001111001 8
b11101 t
b101001101000101 4"
b1001 5"
b1111111111111111 0"
b1011 s
b1111111111111111 w
b101 7"
06"
12"
b1111 *"
1!
#29500
0!
#30000
1g
0T
1p
1q
b11 m
b100 n
b110100 f
b1000101 o
b101 d
0U
b1111 P
b1111 Q
b11111111 N
b11111111 S
b11110 t
b101001101000101 ="
b1001 >"
b1111111111111111 4"
b100 7"
0@"
16"
b10000 *"
b1 Y
b0 X
b110100010010010 8
1!
#30500
0!
#31000
1l
1<
1i
0g
0p
1=
1:
b110100 9
b1000101 ;
0q
b1111 m
b1111 n
b11111111 f
b11111111 o
b1111 d
b11000000000000 8
b11111 t
b101001101000101 }
b1001 ~
b1111111111111111 ="
b11 7"
0""
1@"
b1011 *"
1!
#31500
0!
#32000
0l
1A
0i
1B
1?
b110100 >
b1000101 @
0=
0:
b11111111 9
b11111111 ;
17
0<
b100000 t
b101001101000101 $"
b1001 %"
b1111111111111111 }
b1001 x
b11000000000000 w
b10 7"
0'"
1""
b1100 *"
b110011 8
1!
#32500
0!
#33000
1^
1c
1_
1a
1`
1b
b11 Z
b100 [
b101 ]
0B
0?
b11111111 >
b11111111 @
0A
b1010101100111 8
b100001 t
b101001101000101 9"
b1001 :"
b1111111111111111 $"
b1010 x
b110011 w
b1 7"
0;"
1'"
b1101 *"
1!
#33500
0!
#34000
16
13
05
0/
0^
0V
0_
0`
0c
0b
b1111 Z
b1111 [
b1111 ]
0a
b100010 t
b0 r
b1111111111111111 9"
b1011 x
b1010101100111 w
b0 7"
1;"
b1110 *"
b1011001111000 8
1!
#34500
0!
#35000
06
03
15
1/
1W
1V
1L
12
1M
b100 H
b101 I
b110 J
b110 R
b1000101 F
b1010110 K
b101 +
b110 ,
b111 -
b10101100111 )
b1010110 $
b1100111 .
b1011001111001 8
b100011 t
b1110000 r
b101010001010110 0"
b1010 1"
b1011 v
b1010101100111 u
b1100 x
b1011001111000 w
02"
b1111 *"
1!
#35500
0!
#36000
0W
1T
0L
1U
b100 P
b101 Q
b1000101 N
b1010110 S
0M
b1111 H
b1111 I
b1111 J
b1111 R
b11111111 F
b11111111 K
07
b100100 t
b101010001010110 4"
b1010 5"
b1111111111111111 0"
b1100 s
b1111111111111111 w
b101 7"
06"
12"
b10000 *"
b110100010010010 8
1!
#36500
0!
#37000
1g
0T
1p
1q
b100 m
b101 n
b1000101 f
b1010110 o
b110 d
0U
b1111 P
b1111 Q
b11111111 N
b11111111 S
b11000000000000 8
b11000 Y
b1 X
b100101 t
b101010001010110 ="
b1010 >"
b1111111111111111 4"
b100 7"
0@"
16"
b10001 *"
1!
#37500
0!
#38000
1l
1<
1i
0g
0p
1=
1:
b1000101 9
b1010110 ;
0q
b1111 m
b1111 n
b11111111 f
b11111111 o
b1111 d
b100110 t
b11001 ?"
b11001 D
b101010001010110 }
b1010 ~
b1111111111111111 ="
b11 7"
0""
1@"
b1100 *"
b110011 8
1!
#38500
0!
#39000
0l
1A
0i
1B
1?
b1000101 >
b1010110 @
0=
0:
b11111111 9
b11111111 ;
17
0<
b1000100 8
b100111 t
b11001 !"
b101010001010110 $"
b1010 %"
b1111111111111111 }
b1010 x
b110011 w
b10 7"
0'"
1""
b1101 *"
1!
#39500
0!
#40000
1^
1c
1_
1a
1`
1b
b100 Z
b101 [
b110 ]
0B
0?
b11111111 >
b11111111 @
0A
b11 \
b101000 t
b11001 &"
b101010001010110 9"
b1010 :"
b1111111111111111 $"
b1011 x
b1000100 w
b1 7"
0;"
1'"
b1110 *"
b11 C
b1011001111000 8
1!
#40500
0!
#41000
16
13
05
0/
0^
0V
0_
0`
0c
0b
b1111 Z
b1111 [
b1111 ]
0a
b1011001111001 8
b101001 t
b0 r
b1111111111111111 9"
b1100 x
b1011001111000 w
b0 7"
1;"
b1111 *"
1!
#41500
0!
#42000
06
03
15
1/
1W
1V
1L
1M
b101 H
b110 I
b111 J
b111 R
b1010110 F
b1100111 K
b110 +
b111 ,
b1000 -
b11001111000 )
b1100111 $
b1111000 .
b101010 t
b11100000 r
b1010101100111 0"
b1011 1"
b1100 v
b1011001111000 u
b1101 x
b1011001111001 w
02"
b10000 *"
b110100010010010 8
1!
#42500
0!
#43000
0W
1T
0L
1U
b101 P
b110 Q
b1010110 N
b1100111 S
0M
b1111 H
b1111 I
b1111 J
b1111 R
b11111111 F
b11111111 K
07
b11000000000000 8
b101011 t
b1010101100111 4"
b1011 5"
b1111111111111111 0"
b1101 s
b1111111111111111 w
b101 7"
06"
12"
b10001 *"
1!
#43500
0!
#44000
1g
0T
1p
1q
b101 m
b110 n
b1010110 f
b1100111 o
b111 d
0U
b1111 P
b1111 Q
b11111111 N
b11111111 S
b101100 t
b1010101100111 ="
b1011 >"
b1111111111111111 4"
b100 7"
0@"
16"
b10010 *"
b11 Y
b11000 X
b110011 8
1!
#44500
0!
#45000
1<
0g
0p
1=
b1010110 9
b1100111 ;
0q
b1111 m
b1111 n
b11111111 f
b11111111 o
b1111 d
b1000100 8
b101101 t
b11011 ?"
b11011 D
b1010101100111 }
b1011 ~
b1111111111111111 ="
b11 7"
0""
1@"
b1101 *"
1!
#45500
0!
#46000
1A
1B
b1010110 >
b1100111 @
0=
b11111111 9
b11111111 ;
17
0<
b101110 t
b11011 !"
b1010101100111 $"
b1011 %"
b1111111111111111 }
b1011 x
b1000100 w
b10 7"
0'"
1""
b1110 *"
b101001101000101 8
1!
#46500
0!
#47000
1c
1`
1^
1_
1a
b11011 \
1b
b101 Z
b110 [
b111 ]
0B
b11111111 >
b11111111 @
0A
bx C
b1011001111001 8
b101111 t
b11011 &"
b1010101100111 9"
b1011 :"
b1111111111111111 $"
b1100 x
b101001101000101 w
b1 7"
0;"
1'"
b1111 *"
1!
#47500
0!
#48000
16
13
05
0/
0`
0^
0V
0_
bx \
0c
0b
b1111 Z
b1111 [
b1111 ]
0a
b110000 t
b0 r
b1111111111111111 9"
b1101 x
b1011001111001 w
b0 7"
1;"
b10000 *"
b110100010010010 8
1!
#48500
0!
#49000
06
03
15
1/
1W
1V
1L
1M
b110 H
b111 I
b1000 J
b1000 R
b1100111 F
b1111000 K
b1001 -
b11001111001 )
b1111001 .
b11000000000000 8
b110001 t
b111000000 r
b1011001111000 0"
b1100 1"
b1101 v
b1011001111001 u
b1110 x
b110100010010010 w
02"
b10001 *"
1!
#49500
0!
#50000
0W
1T
0L
1U
b110 P
b111 Q
b1100111 N
b1111000 S
0M
b1111 H
b1111 I
b1111 J
b1111 R
b11111111 F
b11111111 K
07
b110010 t
b1011001111000 4"
b1100 5"
b1111111111111111 0"
b1110 s
b1111111111111111 w
b101 7"
06"
12"
b10010 *"
b110011 8
1!
#50500
0!
#51000
1g
0T
1p
1q
b110 m
b111 n
b1100111 f
b1111000 o
b1000 d
0U
b1111 P
b1111 Q
b11111111 N
b11111111 S
b1000100 8
b11011 Y
b11 X
b110011 t
b1011001111000 ="
b1100 >"
b1111111111111111 4"
b100 7"
0@"
16"
b10011 *"
1!
#51500
0!
#52000
1<
0g
0p
1=
b1100111 9
b1111000 ;
0q
b1111 m
b1111 n
b11111111 f
b11111111 o
b1111 d
b110100 t
b11110 ?"
b11110 D
b1011001111000 }
b1100 ~
b1111111111111111 ="
b11 7"
0""
1@"
b1110 *"
b101001101000101 8
1!
#52500
0!
#53000
1A
1B
b1100111 >
b1111000 @
0=
b11111111 9
b11111111 ;
17
0<
b101000100100100 8
b110101 t
b11110 !"
b1011001111000 $"
b1100 %"
b1111111111111111 }
b1100 x
b101001101000101 w
b10 7"
0'"
1""
b1111 *"
1!
#53500
0!
#54000
1c
1`
1^
1_
b11110 \
1a
1b
b110 Z
b111 [
b1000 ]
0B
b11111111 >
b11111111 @
0A
b110110 t
b11110 &"
b1011001111000 9"
b1100 :"
b1111111111111111 $"
b1101 x
b101000100100100 w
b1 7"
0;"
1'"
b10000 *"
b110100010010010 8
1!
#54500
0!
#55000
16
13
05
0/
0`
0^
0V
0_
bx \
0c
0b
b1111 Z
b1111 [
b1111 ]
0a
b11000000000000 8
b110111 t
b0 r
b1111111111111111 9"
b1110 x
b110100010010010 w
b0 7"
1;"
b10001 *"
1!
#55500
0!
#56000
06
03
15
1/
1W
02
1V
1L
1M
b110 H
b111 I
b1001 J
b1001 R
b1100111 F
b1111001 K
1(
b1000 +
b1001 ,
b10 -
b100010010010 )
b10001001 $
b10010010 .
b111000 t
b1011000000 r
b1011001111001 0"
b1101 1"
b1110 v
b110100010010010 u
b1111 x
b11000000000000 w
02"
b10010 *"
b110011 8
1!
#56500
0!
#57000
0W
1T
0L
1U
b110 P
b111 Q
b1100111 N
b1111001 S
0M
b1111 H
b1111 I
b1111 J
b1111 R
b11111111 F
b11111111 K
07
b1000100 8
b111001 t
b1011001111001 4"
b1101 5"
b1111111111111111 0"
b1111 s
b1111111111111111 w
b101 7"
06"
12"
b10011 *"
1!
#57500
0!
#58000
1g
0T
1p
1q
b110 m
b111 n
b1100111 f
b1111001 o
b1001 d
0U
b1111 P
b1111 Q
b11111111 N
b11111111 S
b111010 t
b1011001111001 ="
b1101 >"
b1111111111111111 4"
b100 7"
0@"
16"
b10100 *"
b101001101000101 8
1!
#58500
0!
#59000
1<
0g
0p
1=
b1100111 9
b1111001 ;
0q
b1111 m
b1111 n
b11111111 f
b11111111 o
b1111 d
b101000100100100 8
b111011 t
b1011001111001 }
b1101 ~
b1111111111111111 ="
b11 7"
0""
1@"
b1111 *"
1!
#59500
0!
#60000
1A
1B
b1100111 >
b1111001 @
0=
b11111111 9
b11111111 ;
17
0<
b111100 t
b1011001111001 $"
b1101 %"
b1111111111111111 }
b1101 x
b101000100100100 w
b10 7"
0'"
1""
b10000 *"
b1010001010110 8
1!
#60500
0!
#61000
1c
1`
1^
1_
b11110 \
1a
1b
b110 Z
b111 [
b1001 ]
0B
b11111111 >
b11111111 @
0A
b11000000000000 8
b111101 t
b1011001111001 9"
b1101 :"
b1111111111111111 $"
b1110 x
b1010001010110 w
b1 7"
0;"
1'"
b10001 *"
1!
#61500
0!
#62000
16
13
05
0/
0`
0^
0V
0_
bx \
0c
0b
b1111 Z
b1111 [
b1111 ]
0a
b111110 t
b0 r
b1111111111111111 9"
b1111 x
b11000000000000 w
b0 7"
1;"
b10010 *"
b110011 8
1!
#62500
0!
#63000
1W
00
1L
01
1M
b1000 H
b1001 I
b10 J
b10 R
b10001001 F
b10010010 K
0(
1#
b0 +
b0 ,
b0 -
b0 )
b0 $
b0 .
b1000100 8
b111111 t
b1100000000 r
b110100010010010 0"
b1110 1"
b1111 v
b11000000000000 u
b10000 x
b110011 w
02"
b10011 *"
1!
#63500
0!
#64000
12
0W
1T
1U
b1000 P
b1001 Q
b10001001 N
b10010010 S
b0 H
b0 I
b0 J
b0 R
b0 F
b0 K
0#
b11 ,
b11 -
b110011 )
b11 $
b110011 .
b1000000 t
b110100010010010 4"
b1110 5"
b11000000000000 0"
b1111 1"
b10000 v
b110011 u
b10001 x
b1000100 w
1/"
06"
b10100 *"
b101001101000101 8
1!
#64500
0!
#65000
0L
0T
03
1p
1k
1q
1h
b1000 m
b1001 n
b10001001 f
b10010010 o
b10 d
b0 P
b0 Q
b0 N
b0 S
b11 I
b11 J
b11 R
b11 F
b110011 K
b100 ,
b100 -
b1000100 )
b100 $
b1000100 .
b101000100100100 8
b11110 Y
b11110 X
b1000001 t
b110100010010010 ="
b1110 >"
b11000000000000 4"
b1111 5"
b1100001000 r
b110011 0"
b10000 1"
b10001 v
b1000100 u
b10010 x
b101001101000101 w
13"
0/"
0@"
b10101 *"
1!
#65500
0!
#66000
02
06
0p
0k
15
1/
b1111 ,
07
0q
0h
b1111 m
b1111 n
b11111111 f
b11111111 o
b1111 d
0U
b1111 P
b1111 Q
b11111111 N
b11111111 S
0M
b1111 H
b1111 I
b1111 J
b1111 R
b11111111 F
b11111111 K
04
b1111 +
b1111 -
b111111111111 )
b11111111 $
b11111111 .
b1000010 t
b11 7"
b0 r
b1 ."
b1111111111111111 }
b1110 ~
b1111111111111111 ="
b1111111111111111 4"
b1111111111111111 0"
b10010 v
b1111111111111111 u
b10011 x
b1111111111111111 w
0<"
03"
0""
b10000 *"
b1010001010110 8
1!
#66500
0!
#67000
17
b110010001100010 8
b1000011 t
b1110 x
b1010001010110 w
b10 7"
0'"
12"
b10001 *"
1!
#67500
0!
#68000
b1000100 t
b1111 x
b110010001100010 w
b1 7"
0;"
16"
b10010 *"
b110011 8
1!
#68500
0!
#69000
16
05
0/
b1000100 8
b1000101 t
b10000 x
b110011 w
b0 7"
1@"
b10011 *"
1!
#69500
0!
#70000
12
13
14
b0 +
b11 ,
b11 -
b110011 )
b11 $
b110011 .
b1000110 t
b10000 v
b110011 u
b10001 x
b1000100 w
1""
02"
b10100 *"
b101001101000101 8
1!
#70500
0!
#71000
1L
1M
b0 H
b11 I
b11 J
b11 R
b11 F
b110011 K
b100 ,
b100 -
b1000100 )
b100 $
b1000100 .
b101000100100100 8
b1000111 t
b1000 r
b110011 0"
b10001 v
b1000100 u
b10010 x
b101001101000101 w
1'"
06"
b10101 *"
1!
#71500
0!
#72000
06
03
15
1/
1V
10
11
1T
1U
b0 P
b11 Q
b11 N
b110011 S
b100 I
b100 J
b100 R
b100 F
b1000100 K
b11 +
b101 -
b1101000101 )
b110100 $
b1000101 .
b1001000 t
b110011 4"
b10000 5"
b11000 r
b1000100 0"
b10001 1"
b10010 v
b101001101000101 u
b10011 x
b101000100100100 w
1;"
0@"
b10110 *"
b1010001010110 8
1!
#72500
0!
#73000
1p
0L
1q
b0 m
b11 n
b11 f
b110011 o
b11 d
b100 Q
b100 N
b1000100 S
0M
b1111 H
b1111 I
b1111 J
b1111 R
b11111111 F
b11111111 K
07
b110010001100010 8
b1001001 t
b110011 ="
b10000 >"
b1000100 4"
b10001 5"
b1111111111111111 0"
b10011 s
b1111111111111111 w
b101 7"
0""
12"
b10111 *"
1!
#73500
0!
#74000
1<
0T
1=
b11 9
b110011 ;
b100 n
b100 f
b1000100 o
b100 d
0U
b1111 P
b1111 Q
b11111111 N
b11111111 S
b1001010 t
b11 ?"
b11 D
b110011 }
b10000 ~
b1000100 ="
b10001 >"
b1111111111111111 4"
b100 7"
0'"
16"
b11000 *"
b11000000000000 8
1!
#74500
0!
#75000
1A
0p
1B
b11 >
b110011 @
b100 9
b1000100 ;
0q
b1111 m
b1111 n
b11111111 f
b11111111 o
b1111 d
b0 8
b1001011 t
b11 !"
b110011 $"
b10000 %"
b100 ?"
b100 D
b1000100 }
b10001 ~
b1111111111111111 ="
b11 7"
0;"
1@"
b10011 *"
1!
#75500
0!
