test9.vcd
$date
	Mon Dec  5 20:29:24 2016
$end
$version
	Icarus Verilog
$end
$timescale
	1ps
$end
$scope module main $end
$var wire 1 ! clk $end
$var wire 1 " d_global_predictor $end
$var wire 1 # d_halt $end
$var wire 16 $ d_ii [15:0] $end
$var wire 1 % d_is_jump $end
$var wire 1 & d_is_mem $end
$var wire 1 ' d_is_st $end
$var wire 1 ( d_is_x_jmp $end
$var wire 16 ) d_jjj [15:0] $end
$var wire 1 * d_mem_stall $end
$var wire 4 + d_ra [3:0] $end
$var wire 4 , d_rb [3:0] $end
$var wire 4 - d_rt [3:0] $end
$var wire 16 . d_s [15:0] $end
$var wire 1 / d_stall $end
$var wire 1 0 d_uses_ra $end
$var wire 1 1 d_uses_rb $end
$var wire 1 2 d_uses_rt $end
$var wire 1 3 d_v $end
$var wire 1 4 d_valid_inst $end
$var wire 1 5 f_stall $end
$var wire 1 6 f_v $end
$var wire 1 7 f_valid_inst $end
$var wire 16 8 inst [15:0] $end
$var wire 16 9 l0_ii [15:0] $end
$var wire 1 : l0_is_st $end
$var wire 16 ; l0_s [15:0] $end
$var wire 1 < l0_v $end
$var wire 1 = l0_valid_inst $end
$var wire 16 > l1_ii [15:0] $end
$var wire 1 ? l1_is_st $end
$var wire 16 @ l1_s [15:0] $end
$var wire 1 A l1_v $end
$var wire 1 B l1_valid_inst $end
$var wire 16 C memData [15:0] $end
$var wire 16 D memIn [15:0] $end
$var wire 1 E pc_mem_stall $end
$var wire 16 F r0_ii [15:0] $end
$var wire 1 G r0_is_st $end
$var wire 4 H r0_ra [3:0] $end
$var wire 4 I r0_rb [3:0] $end
$var wire 4 J r0_rt [3:0] $end
$var wire 16 K r0_s [15:0] $end
$var wire 1 L r0_v $end
$var wire 1 M r0_valid_inst $end
$var wire 16 N r1_ii [15:0] $end
$var wire 1 O r1_is_st $end
$var wire 4 P r1_ra [3:0] $end
$var wire 4 Q r1_rb [3:0] $end
$var wire 4 R r1_rt [3:0] $end
$var wire 16 S r1_s [15:0] $end
$var wire 1 T r1_v $end
$var wire 1 U r1_valid_inst $end
$var wire 1 V reg_stall $end
$var wire 1 W ren $end
$var wire 16 X va [15:0] $end
$var wire 16 Y vb [15:0] $end
$var wire 4 Z w_ra [3:0] $end
$var wire 4 [ w_rb [3:0] $end
$var wire 16 \ w_res [15:0] $end
$var wire 4 ] w_rt [3:0] $end
$var wire 1 ^ w_uses_ra $end
$var wire 1 _ w_uses_rb $end
$var wire 1 ` w_uses_rt $end
$var wire 1 a w_v $end
$var wire 1 b w_valid_inst $end
$var wire 1 c wen $end
$var wire 16 d x_d [15:0] $end
$var wire 1 e x_global_predictor $end
$var wire 16 f x_ii [15:0] $end
$var wire 1 g x_is_add $end
$var wire 1 h x_is_jump $end
$var wire 1 i x_is_mem $end
$var wire 1 j x_is_st $end
$var wire 1 k x_jmp_v $end
$var wire 1 l x_mem_stall $end
$var wire 4 m x_ra [3:0] $end
$var wire 4 n x_rb [3:0] $end
$var wire 16 o x_s [15:0] $end
$var wire 1 p x_v $end
$var wire 1 q x_valid_inst $end
$var reg 16 r busy [15:0] $end
$var reg 16 s correct_pc [15:0] $end
$var reg 16 t cycle [15:0] $end
$var reg 16 u d_inst [15:0] $end
$var reg 16 v d_pc [15:0] $end
$var reg 16 w f_inst [15:0] $end
$var reg 16 x f_pc [15:0] $end
$var reg 8 y history [7:0] $end
$var reg 8 z jmp_pattern [7:0] $end
$var reg 2 { jmp_stall_ctr [1:0] $end
$var reg 1 | l0_halt $end
$var reg 16 } l0_inst [15:0] $end
$var reg 16 ~ l0_pc [15:0] $end
$var reg 16 !" l0_res [15:0] $end
$var reg 1 "" l0_stall $end
$var reg 1 #" l1_halt $end
$var reg 16 $" l1_inst [15:0] $end
$var reg 16 %" l1_pc [15:0] $end
$var reg 16 &" l1_res [15:0] $end
$var reg 1 '" l1_stall $end
$var reg 32 (" last_was_cont [31:0] $end
$var reg 32 )" last_was_jump [31:0] $end
$var reg 16 *" pc [15:0] $end
$var reg 16 +" pc_no_jump [15:0] $end
$var reg 32 ," predictor_right [31:0] $end
$var reg 32 -" predictor_v [31:0] $end
$var reg 32 ." predictor_wrong [31:0] $end
$var reg 1 /" r0_halt $end
$var reg 16 0" r0_inst [15:0] $end
$var reg 16 1" r0_pc [15:0] $end
$var reg 1 2" r0_stall $end
$var reg 1 3" r1_halt $end
$var reg 16 4" r1_inst [15:0] $end
$var reg 16 5" r1_pc [15:0] $end
$var reg 1 6" r1_stall $end
$var reg 3 7" stall_ctr [2:0] $end
$var reg 1 8" w_halt $end
$var reg 16 9" w_inst [15:0] $end
$var reg 16 :" w_pc [15:0] $end
$var reg 1 ;" w_stall $end
$var reg 1 <" x_halt $end
$var reg 16 =" x_inst [15:0] $end
$var reg 16 >" x_pc [15:0] $end
$var reg 16 ?" x_res [15:0] $end
$var reg 1 @" x_stall $end
$upscope $end
$enddefinitions $end
#0
$dumpvars
0@"
bx ?"
bx >"
b1111111111111111 ="
0<"
0;"
bx :"
b1111111111111111 9"
08"
b0 7"
06"
bx 5"
b1111111111111111 4"
03"
02"
bx 1"
b1111111111111111 0"
0/"
b0 ."
b0 -"
b0 ,"
b0 +"
b0 *"
b0 )"
b0 ("
0'"
bx &"
bx %"
b1111111111111111 $"
0#"
0""
bx !"
bx ~
b1111111111111111 }
0|
b0 {
b0 z
b0 y
b0 x
b1111111111111111 w
bx v
b1111111111111111 u
b0 t
b1111111111111111 s
b0 r
0q
0p
b11111111 o
b1111 n
b1111 m
0l
0k
0j
0i
0h
0g
b11111111 f
xe
b1111 d
0c
0b
0a
0`
0_
0^
b1111 ]
bx \
b1111 [
b1111 Z
bx Y
bx X
0W
0V
0U
0T
b11111111 S
b1111 R
b1111 Q
b1111 P
0O
b11111111 N
0M
0L
b11111111 K
b1111 J
b1111 I
b1111 H
0G
b11111111 F
0E
bx D
bx C
0B
0A
b11111111 @
0?
b11111111 >
0=
0<
b11111111 ;
0:
b11111111 9
bx 8
07
06
05
04
03
02
01
00
0/
b11111111 .
b1111 -
b1111 ,
b1111 +
0*
b111111111111 )
0(
0'
0&
0%
b11111111 $
0#
x"
1!
$end
#500
0!
#1000
x7
b1 t
bx w
b1 *"
1!
#1500
0!
#2000
b10 t
b10 *"
b10000000010 8
1!
#2500
0!
#3000
16
17
b100000000011 8
b11 t
b10000000010 w
b11 *"
1!
#3500
0!
#4000
12
13
14
b100 +
b0 ,
b10 -
b10000000010 )
b1000000 $
b10 .
b100 t
b0 v
0"
b10000000010 u
b1 x
b100000000011 w
b100 *"
b10001 8
1!
#4500
0!
#5000
1L
1M
b100 H
b0 I
b10 J
b10 R
b1000000 F
b10 K
b1000 +
b11 -
b100000000011 )
b10000000 $
b11 .
b10000000000100 8
b101 t
b100 r
b10000000010 0"
b0 1"
b1 v
b100000000011 u
b10 x
b10001 w
b101 *"
1!
#5500
0!
#6000
1T
1U
b100 P
b0 Q
b1000000 N
b10 S
b1000 H
b11 J
b11 R
b10000000 F
b11 K
b0 +
b1 ,
b1 -
b10001 )
b1 $
b10001 .
b110 t
b10000000010 4"
b0 5"
b1100 r
b100000000011 0"
b1 1"
b10 v
b10001 u
b11 x
b10000000000100 w
b110 *"
b10000000000101 8
1!
#6500
0!
#7000
02
1p
1q
b100 m
b0 n
b1000000 f
b10 o
b10 d
b1000 P
b10000000 N
b11 S
b0 H
b1 I
b1 J
b1 R
b1 F
b10001 K
1%
b0 ,
b100 -
b100 )
b0 $
b100 .
b10000000000110 8
b111 t
b10000000010 ="
b0 >"
0e
b100000000011 4"
b1 5"
b1110 r
b10001 0"
b10 1"
b11 v
b10000000000100 u
b100 x
b10000000000101 w
b111 *"
1!
#7500
0!
#8000
06
1<
03
0L
1=
b1000000 9
b10 ;
b1000 m
b10000000 f
b11 o
b11 d
15
1/
b0 P
b1 Q
b1 N
b10001 S
b1111 H
04
0%
b1111 +
b1111 ,
b11111111 $
07
0M
b1111 I
b1111 J
b1111 R
b11111111 F
b11111111 K
b1111 -
b111111111111 )
b11111111 .
b1000 t
b1000000 ?"
b1000000 D
b10000000010 }
b0 ~
b100000000011 ="
b1 >"
b10 5"
b11 7"
b10001 4"
b1111111111111111 0"
b11 1"
b100 v
b1111111111111111 u
b101 x
b1111111111111111 w
b100 *"
b10000000000111 8
1!
#8500
0!
#9000
1A
0T
1B
b1000000 >
b10 @
b10000000 9
b11 ;
b0 m
b1 n
b1 f
b10001 o
b1 d
0U
b1111 P
b1111 Q
b11111111 N
b11111111 S
17
b10000000001000 8
b1001 t
b1000000 !"
b10000000010 $"
b0 %"
b10000000 ?"
b10000000 D
b100000000011 }
b1 ~
b10001 ="
b10 >"
b1111111111111111 4"
b10 x
b10000000000111 w
b10 7"
12"
b101 *"
1!
#9500
0!
#10000
1c
1`
b1000000 \
1a
0p
1b
b100 Z
b0 [
b10 ]
b10000000 >
b11 @
b1 9
b10001 ;
0q
b1111 m
b1111 n
b11111111 f
b11111111 o
b1111 d
b1010 t
b1000000 &"
b10000000010 9"
b0 :"
b10000000 !"
b100000000011 $"
b1 %"
b1 ?"
b1 D
b10001 }
b10 ~
b1111111111111111 ="
b11 x
b10000000001000 w
b1 7"
16"
b110 *"
b10000000000101 8
1!
#10500
0!
#11000
16
0<
b10000000 \
b1000 Z
b11 ]
b1 >
b10001 @
0=
b11111111 9
b11111111 ;
05
0/
b10000000000110 8
b1011 t
b1010 r
b10000000 &"
b100000000011 9"
b1 :"
b1 !"
b10001 $"
b10 %"
b1111111111111111 }
b100 x
b10000000000101 w
b0 7"
1@"
b111 *"
1!
#11500
0!
#12000
0A
13
b1 \
b0 Z
b1 [
b1 ]
0B
b11111111 >
b11111111 @
14
1%
b0 +
b0 ,
b101 -
b101 )
b0 $
b101 .
b1100 t
b10 r
b1 &"
b10001 9"
b10 :"
b1111111111111111 $"
b10000000000101 u
b101 x
b10000000000110 w
1""
02"
b1000 *"
b100000000011 C
b10000000000111 8
1!
#12500
0!
#13000
0c
0`
b100000000011 \
06
0a
03
0b
b1111 Z
b1111 [
b1111 ]
15
1/
04
0%
b1111 +
b1111 ,
b11111111 $
07
b1111 -
b111111111111 )
b11111111 .
b10000000001000 8
b1101 t
b0 r
b1111111111111111 9"
b11 7"
b1111111111111111 0"
b100 1"
b101 v
b1111111111111111 u
b110 x
b1111111111111111 w
1'"
06"
b101 *"
1!
#13500
0!
#14000
17
b1110 t
b11 x
b10000000001000 w
b10 7"
1;"
0@"
12"
b110 *"
b10000000001001 8
1!
#14500
0!
#15000
b10000000000110 8
b1111 t
b100 x
b10000000001001 w
b1 7"
0""
16"
b111 *"
1!
#15500
0!
#16000
16
05
0/
b10000 t
b101 x
b10000000000110 w
b0 7"
0'"
1@"
b1000 *"
b10000000000111 8
1!
#16500
0!
#17000
13
14
1%
b0 +
b0 ,
b110 -
b110 )
b0 $
b110 .
b10000000001000 8
b10001 t
b10000000000110 u
b110 x
b10000000000111 w
0;"
1""
02"
b1001 *"
1!
#17500
0!
#18000
06
03
15
1/
04
0%
b1111 +
b1111 ,
b11111111 $
07
b1111 -
b111111111111 )
b11111111 .
b10010 t
b11 7"
b1111111111111111 0"
b101 1"
b110 v
b1111111111111111 u
b111 x
b1111111111111111 w
1'"
06"
b110 *"
b10000000001001 8
1!
#18500
0!
#19000
17
b10000000001010 8
b10011 t
b100 x
b10000000001001 w
b10 7"
1;"
0@"
12"
b111 *"
1!
#19500
0!
#20000
b10100 t
b101 x
b10000000001010 w
b1 7"
0""
16"
b1000 *"
b10000000000111 8
1!
#20500
0!
#21000
16
05
0/
b10000000001000 8
b10101 t
b110 x
b10000000000111 w
b0 7"
0'"
1@"
b1001 *"
1!
#21500
0!
#22000
13
14
1%
b0 +
b0 ,
b111 -
b111 )
b0 $
b111 .
b10110 t
b10000000000111 u
b111 x
b10000000001000 w
0;"
1""
02"
b1010 *"
b10000000001001 8
1!
#22500
0!
#23000
06
03
15
1/
04
0%
b1111 +
b1111 ,
b11111111 $
07
b1111 -
b111111111111 )
b11111111 .
b10000000001010 8
b10111 t
b11 7"
b1111111111111111 0"
b110 1"
b111 v
b1111111111111111 u
b1000 x
b1111111111111111 w
1'"
06"
b111 *"
1!
#23500
0!
#24000
17
b11000 t
b101 x
b10000000001010 w
b10 7"
1;"
0@"
12"
b1000 *"
b10000000001011 8
1!
#24500
0!
#25000
b10000000001000 8
b11001 t
b110 x
b10000000001011 w
b1 7"
0""
16"
b1001 *"
1!
#25500
0!
#26000
16
05
0/
b11010 t
b111 x
b10000000001000 w
b0 7"
0'"
1@"
b1010 *"
b10000000001001 8
1!
#26500
0!
#27000
13
14
1%
b0 +
b0 ,
b1000 -
b1000 )
b0 $
b1000 .
b10000000001010 8
b11011 t
b10000000001000 u
b1000 x
b10000000001001 w
0;"
1""
02"
b1011 *"
1!
#27500
0!
#28000
06
03
15
1/
04
0%
b1111 +
b1111 ,
b11111111 $
07
b1111 -
b111111111111 )
b11111111 .
b11100 t
b11 7"
b1111111111111111 0"
b111 1"
b1000 v
b1111111111111111 u
b1001 x
b1111111111111111 w
1'"
06"
b1000 *"
b10000000001011 8
1!
#28500
0!
#29000
17
b10000000001100 8
b11101 t
b110 x
b10000000001011 w
b10 7"
1;"
0@"
12"
b1001 *"
1!
#29500
0!
#30000
b11110 t
b111 x
b10000000001100 w
b1 7"
0""
16"
b1010 *"
b10000000001001 8
1!
#30500
0!
#31000
16
05
0/
b10000000001010 8
b11111 t
b1000 x
b10000000001001 w
b0 7"
0'"
1@"
b1011 *"
1!
#31500
0!
#32000
13
14
1%
b0 +
b0 ,
b1001 -
b1001 )
b0 $
b1001 .
b100000 t
b10000000001001 u
b1001 x
b10000000001010 w
0;"
1""
02"
b1100 *"
b10000000001011 8
1!
#32500
0!
#33000
06
03
15
1/
04
0%
b1111 +
b1111 ,
b11111111 $
07
b1111 -
b111111111111 )
b11111111 .
b10000000001100 8
b100001 t
b11 7"
b1111111111111111 0"
b1000 1"
b1001 v
b1111111111111111 u
b1010 x
b1111111111111111 w
1'"
06"
b1001 *"
1!
#33500
0!
#34000
17
b100010 t
b111 x
b10000000001100 w
b10 7"
1;"
0@"
12"
b1010 *"
b10000000001101 8
1!
#34500
0!
#35000
b10000000001010 8
b100011 t
b1000 x
b10000000001101 w
b1 7"
0""
16"
b1011 *"
1!
#35500
0!
#36000
16
05
0/
b100100 t
b1001 x
b10000000001010 w
b0 7"
0'"
1@"
b1100 *"
b10000000001011 8
1!
#36500
0!
#37000
13
14
1%
b0 +
b0 ,
b1010 -
b1010 )
b0 $
b1010 .
b10000000001100 8
b100101 t
b10000000001010 u
b1010 x
b10000000001011 w
0;"
1""
02"
b1101 *"
1!
#37500
0!
#38000
06
03
15
1/
04
0%
b1111 +
b1111 ,
b11111111 $
07
b1111 -
b111111111111 )
b11111111 .
b100110 t
b11 7"
b1111111111111111 0"
b1001 1"
b1010 v
b1111111111111111 u
b1011 x
b1111111111111111 w
1'"
06"
b1010 *"
b10000000001101 8
1!
#38500
0!
#39000
17
b10000000001110 8
b100111 t
b1000 x
b10000000001101 w
b10 7"
1;"
0@"
12"
b1011 *"
1!
#39500
0!
#40000
b101000 t
b1001 x
b10000000001110 w
b1 7"
0""
16"
b1100 *"
b10000000001011 8
1!
#40500
0!
#41000
16
05
0/
b10000000001100 8
b101001 t
b1010 x
b10000000001011 w
b0 7"
0'"
1@"
b1101 *"
1!
#41500
0!
#42000
13
14
1%
b0 +
b0 ,
b1011 -
b1011 )
b0 $
b1011 .
b101010 t
b10000000001011 u
b1011 x
b10000000001100 w
0;"
1""
02"
b1110 *"
b10000000001101 8
1!
#42500
0!
#43000
06
03
15
1/
04
0%
b1111 +
b1111 ,
b11111111 $
07
b1111 -
b111111111111 )
b11111111 .
b10000000001110 8
b101011 t
b11 7"
b1111111111111111 0"
b1010 1"
b1011 v
b1111111111111111 u
b1100 x
b1111111111111111 w
1'"
06"
b1011 *"
1!
#43500
0!
#44000
17
b101100 t
b1001 x
b10000000001110 w
b10 7"
1;"
0@"
12"
b1100 *"
b10000000001111 8
1!
#44500
0!
#45000
b10000000001100 8
b101101 t
b1010 x
b10000000001111 w
b1 7"
0""
16"
b1101 *"
1!
#45500
0!
#46000
16
05
0/
b101110 t
b1011 x
b10000000001100 w
b0 7"
0'"
1@"
b1110 *"
b10000000001101 8
1!
#46500
0!
#47000
13
14
1%
b0 +
b0 ,
b1100 -
b1100 )
b0 $
b1100 .
b10000000001110 8
b101111 t
b10000000001100 u
b1100 x
b10000000001101 w
0;"
1""
02"
b1111 *"
1!
#47500
0!
#48000
06
03
15
1/
04
0%
b1111 +
b1111 ,
b11111111 $
07
b1111 -
b111111111111 )
b11111111 .
b110000 t
b11 7"
b1111111111111111 0"
b1011 1"
b1100 v
b1111111111111111 u
b1101 x
b1111111111111111 w
1'"
06"
b1100 *"
b10000000001111 8
1!
#48500
0!
#49000
17
b10000000010000 8
b110001 t
b1010 x
b10000000001111 w
b10 7"
1;"
0@"
12"
b1101 *"
1!
#49500
0!
#50000
b110010 t
b1011 x
b10000000010000 w
b1 7"
0""
16"
b1110 *"
b10000000001101 8
1!
#50500
0!
#51000
16
05
0/
b10000000001110 8
b110011 t
b1100 x
b10000000001101 w
b0 7"
0'"
1@"
b1111 *"
1!
#51500
0!
#52000
13
14
1%
b0 +
b0 ,
b1101 -
b1101 )
b0 $
b1101 .
b110100 t
b10000000001101 u
b1101 x
b10000000001110 w
0;"
1""
02"
b10000 *"
b10000000001111 8
1!
#52500
0!
#53000
06
03
15
1/
04
0%
b1111 +
b1111 ,
b11111111 $
07
b1111 -
b111111111111 )
b11111111 .
b10000000010000 8
b110101 t
b11 7"
b1111111111111111 0"
b1100 1"
b1101 v
b1111111111111111 u
b1110 x
b1111111111111111 w
1'"
06"
b1101 *"
1!
#53500
0!
#54000
17
b110110 t
b1011 x
b10000000010000 w
b10 7"
1;"
0@"
12"
b1110 *"
b10000000010001 8
1!
#54500
0!
#55000
b10000000001110 8
b110111 t
b1100 x
b10000000010001 w
b1 7"
0""
16"
b1111 *"
1!
#55500
0!
#56000
16
05
0/
b111000 t
b1101 x
b10000000001110 w
b0 7"
0'"
1@"
b10000 *"
b10000000001111 8
1!
#56500
0!
#57000
13
14
1%
b0 +
b0 ,
b1110 -
b1110 )
b0 $
b1110 .
b10000000010000 8
b111001 t
b10000000001110 u
b1110 x
b10000000001111 w
0;"
1""
02"
b10001 *"
1!
#57500
0!
#58000
06
03
15
1/
04
0%
b1111 +
b1111 ,
b11111111 $
07
b1111 -
b111111111111 )
b11111111 .
b111010 t
b11 7"
b1111111111111111 0"
b1101 1"
b1110 v
b1111111111111111 u
b1111 x
b1111111111111111 w
1'"
06"
b1110 *"
b10000000010001 8
1!
#58500
0!
#59000
17
b10000000010010 8
b111011 t
b1100 x
b10000000010001 w
b10 7"
1;"
0@"
12"
b1111 *"
1!
#59500
0!
#60000
b111100 t
b1101 x
b10000000010010 w
b1 7"
0""
16"
b10000 *"
b10000000001111 8
1!
#60500
0!
#61000
16
05
0/
b10000000010000 8
b111101 t
b1110 x
b10000000001111 w
b0 7"
0'"
1@"
b10001 *"
1!
#61500
0!
#62000
13
14
1%
b0 +
b0 ,
b1111 )
b0 $
b1111 .
b111110 t
b10000000001111 u
b1111 x
b10000000010000 w
0;"
1""
02"
b10010 *"
b10000000010001 8
1!
#62500
0!
#63000
06
03
15
1/
04
0%
b1111 +
07
b1111 ,
b111111111111 )
b11111111 $
b11111111 .
b10000000010010 8
b111111 t
b11 7"
b1111111111111111 0"
b1110 1"
b1111 v
b1111111111111111 u
b10000 x
b1111111111111111 w
1'"
06"
b1111 *"
1!
#63500
0!
#64000
17
b1000000 t
b1101 x
b10000000010010 w
b10 7"
1;"
0@"
12"
b10000 *"
b10000000010011 8
1!
#64500
0!
#65000
b10000000010000 8
b1000001 t
b1110 x
b10000000010011 w
b1 7"
0""
16"
b10001 *"
1!
#65500
0!
#66000
16
05
0/
b1000010 t
b1111 x
b10000000010000 w
b0 7"
0'"
1@"
b10010 *"
b10000000010001 8
1!
#66500
0!
#67000
13
14
1%
b0 +
b1 ,
b0 -
b10000 )
b1 $
b10000 .
b10000000010010 8
b1000011 t
b10000000010000 u
b10000 x
b10000000010001 w
0;"
1""
02"
b10011 *"
1!
#67500
0!
#68000
06
03
15
1/
04
0%
b1111 +
b1111 ,
b11111111 $
07
b1111 -
b111111111111 )
b11111111 .
b1000100 t
b11 7"
b1111111111111111 0"
b1111 1"
b10000 v
b1111111111111111 u
b10001 x
b1111111111111111 w
1'"
06"
b10000 *"
b10000000010011 8
1!
#68500
0!
#69000
17
b10000000010100 8
b1000101 t
b1110 x
b10000000010011 w
b10 7"
1;"
0@"
12"
b10001 *"
1!
#69500
0!
#70000
b1000110 t
b1111 x
b10000000010100 w
b1 7"
0""
16"
b10010 *"
b10000000010001 8
1!
#70500
0!
#71000
16
05
0/
b10000000010010 8
b1000111 t
b10000 x
b10000000010001 w
b0 7"
0'"
1@"
b10011 *"
1!
#71500
0!
#72000
13
14
1%
b0 +
b1 ,
b1 -
b10001 )
b1 $
b10001 .
b1001000 t
b10000000010001 u
b10001 x
b10000000010010 w
0;"
1""
02"
b10100 *"
b10000000010011 8
1!
#72500
0!
#73000
06
03
15
1/
04
0%
b1111 +
b1111 ,
b11111111 $
07
b1111 -
b111111111111 )
b11111111 .
b10000000010100 8
b1001001 t
b11 7"
b1111111111111111 0"
b10000 1"
b10001 v
b1111111111111111 u
b10010 x
b1111111111111111 w
1'"
06"
b10001 *"
1!
#73500
0!
#74000
17
b1001010 t
b1111 x
b10000000010100 w
b10 7"
1;"
0@"
12"
b10010 *"
b10000000010101 8
1!
#74500
0!
#75000
b10000000010010 8
b1001011 t
b10000 x
b10000000010101 w
b1 7"
0""
16"
b10011 *"
1!
#75500
0!
#76000
16
05
0/
b1001100 t
b10001 x
b10000000010010 w
b0 7"
0'"
1@"
b10100 *"
b10000000010011 8
1!
#76500
0!
#77000
13
14
1%
b0 +
b1 ,
b10 -
b10010 )
b1 $
b10010 .
b10000000010100 8
b1001101 t
b10000000010010 u
b10010 x
b10000000010011 w
0;"
1""
02"
b10101 *"
1!
#77500
0!
#78000
06
03
15
1/
04
0%
b1111 +
b1111 ,
b11111111 $
07
b1111 -
b111111111111 )
b11111111 .
b1001110 t
b11 7"
b1111111111111111 0"
b10001 1"
b10010 v
b1111111111111111 u
b10011 x
b1111111111111111 w
1'"
06"
b10010 *"
b10000000010101 8
1!
#78500
0!
#79000
17
b10000000010110 8
b1001111 t
b10000 x
b10000000010101 w
b10 7"
1;"
0@"
12"
b10011 *"
1!
#79500
0!
#80000
b1010000 t
b10001 x
b10000000010110 w
b1 7"
0""
16"
b10100 *"
b10000000010011 8
1!
#80500
0!
#81000
16
05
0/
b10000000010100 8
b1010001 t
b10010 x
b10000000010011 w
b0 7"
0'"
1@"
b10101 *"
1!
#81500
0!
#82000
13
14
1%
b0 +
b1 ,
b11 -
b10011 )
b1 $
b10011 .
b1010010 t
b10000000010011 u
b10011 x
b10000000010100 w
0;"
1""
02"
b10110 *"
b10000000010101 8
1!
#82500
0!
#83000
06
03
15
1/
04
0%
b1111 +
b1111 ,
b11111111 $
07
b1111 -
b111111111111 )
b11111111 .
b10000000010110 8
b1010011 t
b11 7"
b1111111111111111 0"
b10010 1"
b10011 v
b1111111111111111 u
b10100 x
b1111111111111111 w
1'"
06"
b10011 *"
1!
#83500
0!
#84000
17
b1010100 t
b10001 x
b10000000010110 w
b10 7"
1;"
0@"
12"
b10100 *"
b10000000010111 8
1!
#84500
0!
#85000
b10000000010100 8
b1010101 t
b10010 x
b10000000010111 w
b1 7"
0""
16"
b10101 *"
1!
#85500
0!
#86000
16
05
0/
b1010110 t
b10011 x
b10000000010100 w
b0 7"
0'"
1@"
b10110 *"
b10000000010101 8
1!
#86500
0!
#87000
13
14
1%
b0 +
b1 ,
b100 -
b10100 )
b1 $
b10100 .
b10000000010110 8
b1010111 t
b10000000010100 u
b10100 x
b10000000010101 w
0;"
1""
02"
b10111 *"
1!
#87500
0!
#88000
06
03
15
1/
04
0%
b1111 +
b1111 ,
b11111111 $
07
b1111 -
b111111111111 )
b11111111 .
b1011000 t
b11 7"
b1111111111111111 0"
b10011 1"
b10100 v
b1111111111111111 u
b10101 x
b1111111111111111 w
1'"
06"
b10100 *"
b10000000010111 8
1!
#88500
0!
#89000
17
b10000000011000 8
b1011001 t
b10010 x
b10000000010111 w
b10 7"
1;"
0@"
12"
b10101 *"
1!
#89500
0!
#90000
b1011010 t
b10011 x
b10000000011000 w
b1 7"
0""
16"
b10110 *"
b10000000010101 8
1!
#90500
0!
#91000
16
05
0/
b10000000010110 8
b1011011 t
b10100 x
b10000000010101 w
b0 7"
0'"
1@"
b10111 *"
1!
#91500
0!
#92000
13
14
1%
b0 +
b1 ,
b101 -
b10101 )
b1 $
b10101 .
b1011100 t
b10000000010101 u
b10101 x
b10000000010110 w
0;"
1""
02"
b11000 *"
b10000000010111 8
1!
#92500
0!
#93000
06
03
15
1/
04
0%
b1111 +
b1111 ,
b11111111 $
07
b1111 -
b111111111111 )
b11111111 .
b10000000011000 8
b1011101 t
b11 7"
b1111111111111111 0"
b10100 1"
b10101 v
b1111111111111111 u
b10110 x
b1111111111111111 w
1'"
06"
b10101 *"
1!
#93500
0!
#94000
17
b1011110 t
b10011 x
b10000000011000 w
b10 7"
1;"
0@"
12"
b10110 *"
b10000000011001 8
1!
#94500
0!
#95000
b10000000010110 8
b1011111 t
b10100 x
b10000000011001 w
b1 7"
0""
16"
b10111 *"
1!
#95500
0!
#96000
16
05
0/
b1100000 t
b10101 x
b10000000010110 w
b0 7"
0'"
1@"
b11000 *"
b10000000010111 8
1!
#96500
0!
#97000
13
14
1%
b0 +
b1 ,
b110 -
b10110 )
b1 $
b10110 .
b10000000011000 8
b1100001 t
b10000000010110 u
b10110 x
b10000000010111 w
0;"
1""
02"
b11001 *"
1!
#97500
0!
#98000
06
03
15
1/
04
0%
b1111 +
b1111 ,
b11111111 $
07
b1111 -
b111111111111 )
b11111111 .
b1100010 t
b11 7"
b1111111111111111 0"
b10101 1"
b10110 v
b1111111111111111 u
b10111 x
b1111111111111111 w
1'"
06"
b10110 *"
b10000000011001 8
1!
#98500
0!
#99000
17
b1000100010001 8
b1100011 t
b10100 x
b10000000011001 w
b10 7"
1;"
0@"
12"
b10111 *"
1!
#99500
0!
#100000
b1100100 t
b10101 x
b1000100010001 w
b1 7"
0""
16"
b11000 *"
b10000000010111 8
1!
#100500
0!
#101000
16
05
0/
b10000000011000 8
b1100101 t
b10110 x
b10000000010111 w
b0 7"
0'"
1@"
b11001 *"
1!
#101500
0!
#102000
13
14
1%
b0 +
b1 ,
b111 -
b10111 )
b1 $
b10111 .
b1100110 t
b10000000010111 u
b10111 x
b10000000011000 w
0;"
1""
02"
b11010 *"
b10000000011001 8
1!
#102500
0!
#103000
06
03
15
1/
04
0%
b1111 +
b1111 ,
b11111111 $
07
b1111 -
b111111111111 )
b11111111 .
b1000100010001 8
b1100111 t
b11 7"
b1111111111111111 0"
b10110 1"
b10111 v
b1111111111111111 u
b11000 x
b1111111111111111 w
1'"
06"
b10111 *"
1!
#103500
0!
#104000
17
b1101000 t
b10101 x
b1000100010001 w
b10 7"
1;"
0@"
12"
b11000 *"
b110000100100010 8
1!
#104500
0!
#105000
b10000000011000 8
b1101001 t
b10110 x
b110000100100010 w
b1 7"
0""
16"
b11001 *"
1!
#105500
0!
#106000
16
05
0/
b1101010 t
b10111 x
b10000000011000 w
b0 7"
0'"
1@"
b11010 *"
b10000000011001 8
1!
#106500
0!
#107000
13
14
1%
b0 +
b1 ,
b1000 -
b11000 )
b1 $
b11000 .
b1000100010001 8
b1101011 t
b10000000011000 u
b11000 x
b10000000011001 w
0;"
1""
02"
b11011 *"
1!
#107500
0!
#108000
06
03
15
1/
04
0%
b1111 +
b1111 ,
b11111111 $
b1111 -
b111111111111 )
b11111111 .
07
b1101100 t
b11 7"
b1111111111111111 0"
b10111 1"
b11000 v
b1111111111111111 u
b11001 x
b1111111111111111 w
1'"
06"
b11000 *"
b110000100100010 8
1!
#108500
0!
#109000
17
b10000000000011 8
b1101101 t
b10110 x
b110000100100010 w
b10 7"
1;"
0@"
12"
b11001 *"
1!
#109500
0!
#110000
b1101110 t
b10111 x
b10000000000011 w
b1 7"
0""
16"
b11010 *"
b10000000011001 8
1!
#110500
0!
#111000
16
05
0/
b1000100010001 8
b1101111 t
b11000 x
b10000000011001 w
b0 7"
0'"
1@"
b11011 *"
1!
#111500
0!
#112000
13
14
1%
b0 +
b1 ,
b1001 -
b11001 )
b1 $
b11001 .
b1110000 t
b10000000011001 u
b11001 x
b1000100010001 w
0;"
1""
02"
b11100 *"
b110000100100010 8
1!
#112500
0!
#113000
06
03
15
1/
b1111 ,
04
0%
b1111 +
b1111 -
b111111111111 )
b11111111 $
b11111111 .
07
b10000000000011 8
b1110001 t
b11 7"
b1111111111111111 0"
b11000 1"
b11001 v
b1111111111111111 u
b11010 x
b1111111111111111 w
1'"
06"
b11001 *"
1!
#113500
0!
#114000
17
b1110010 t
b10111 x
b10000000000011 w
b10 7"
1;"
0@"
12"
b11010 *"
b110001000110011 8
1!
#114500
0!
#115000
b1000100010001 8
b1110011 t
b11000 x
b110001000110011 w
b1 7"
0""
16"
b11011 *"
1!
#115500
0!
#116000
16
05
0/
b1110100 t
b11001 x
b1000100010001 w
b0 7"
0'"
1@"
b11100 *"
b110000100100010 8
1!
#116500
0!
#117000
12
10
11
13
14
b1 +
b1 ,
b1 -
b100010001 )
b10001 $
b10001 .
b10000000000011 8
b1110101 t
b1000100010001 u
b11010 x
b110000100100010 w
0;"
1""
02"
b11101 *"
1!
#117500
0!
